{
    "ld.const.v2.u32\t{<REG>, <REG>}, [<G_VAR>]": 0,
    "atom.global.exch.b32\t<REG>, [<REG>], <REG>": 1,
    "ld.const.u64\t<REG>, [<G_VAR>]": 2,
    "atom.global.cas.b32\t<REG>, [<REG>], <REG>, <REG>": 3,
    "ld.const.v2.u32\t{<REG>, <REG>}, [<REG>]": 4,
    "div.s64\t<REG>, <REG>, <REG>": 5,
    "cvt.rn.f32.s64\t<REG>, <REG>": 6,
    "rem.s64\t<REG>, <REG>, <REG>": 7,
    "cvt.rni.s32.f32\t<REG>, <REG>": 8,
    "ld.const.f32\t<REG>, [<G_VAR>]": 9,
    "ld.shared.u32\t<REG>, [<G_VAR>]": 10,
    "ld.shared.v2.f32\t{<REG>, <REG>}, [<L_VAR>]": 11,
    "ld.shared.v2.f32\t{<REG>, <REG>}, [<L_VAR>+<INT>]": 12,
    "ld.shared.v2.f32\t{<REG>, <REG>}, [<REG>]": 13,
    "fma.rn.f64\t<REG>, <REG>, <FLOAT>, <FLOAT>": 14,
    "st.u16\t[<REG>], <REG>": 15,
    "ld.u64\t<REG>, [<REG>+<INT>]": 16,
    "setp.gt.s16\t<REG>, <REG>, <INT>": 17,
    "ld.v4.u32\t{<REG>, <REG>, <REG>, <REG>}, [<REG>]": 18,
    "ld.u16\t<REG>, [<REG>]": 19,
    "ld.u64\t<REG>, [<REG>]": 20,
    "ld.local.v4.u32\t{<REG>, <REG>, <REG>, <REG>}, [<REG>]": 21,
    "ld.v2.u16\t{<REG>, <REG>}, [<REG>+<INT>]": 22,
    "ld.u16\t<REG>, [<REG>+<INT>]": 23,
    "dp4a.u32.u32\t<REG>, <REG>, <REG>, <REG>": 24,
    "dp2a.lo.u32.s32\t<REG>, <REG>, <REG>, <REG>": 25,
    "mov.u64\t<REG>, <PARAM>": 26,
    "cvta.local.u64\t<REG>, <REG>": 27,
    "ld.param.v2.u32\t{<REG>, <REG>}, [<REG>]": 28,
    "ld.param.u32\t<REG>, [<REG>+<INT>]": 29,
    "st.param.f32\t[<PARAM>+<INT>], <REG>": 30,
    "call\t(<L_VAR>), <REG>, ( <L_VAR> ), <LBL>": 31,
    "ld.param.f32\t<REG>, [<L_VAR>+<INT>]": 32,
    "st.param.f32\t[<L_VAR>+<INT>], <REG>": 33,
    "call\t(<L_VAR>), <REG>, ( <L_VAR>, <L_VAR> ), <LBL>": 34,
    "st.param.f64\t[<PARAM>+<INT>], <REG>": 35,
    "rcp.approx.ftz.f64\t<REG>, <REG>": 36,
    "ld.param.s32\t<REG>, [<PARAM>]": 37,
    "mul.wide.s32\t<REG>, <REG>, <REG>": 38,
    "sin.approx.f32\t<REG>, <REG>": 39,
    "cos.approx.f32\t<REG>, <REG>": 40,
    "atom.global.min.s32\t<REG>, [<REG>], <REG>": 41,
    "cvt.rzi.s64.f32\t<REG>, <REG>": 42,
    "ld.global.s32\t<REG>, [<REG>]": 43,
    "lg2.approx.f32.ftz\t<REG>, <REG>": 44,
    "rsqrt.approx.f32.ftz\t<REG>, <REG>": 45,
    "rcp.approx.f32.ftz\t<REG>, <REG>": 46,
    "ex2.approx.f32.ftz\t<REG>, <REG>": 47,
    "ld.const.f64\t<REG>, [<REG>]": 48,
    "cvt.rn.f64.u64\t<REG>, <REG>": 49,
    "cvt.rni.f64.f64\t<REG>, <REG>": 50,
    "cvt.rzi.s64.f64\t<REG>, <REG>": 51,
    "setp.eq.b64\t<REG>, <REG>, <INT>": 52,
    "cvt.rzi.u32.f64\t<REG>, <REG>": 53,
    "atom.shared.inc.u32\t<REG>, [<REG>], <INT>": 54,
    "st.volatile.shared.u32\t[<G_VAR>+<INT>], <REG>": 55,
    "ld.volatile.shared.u32\t<REG>, [<G_VAR>+<INT>]": 56,
    "max.s64\t<REG>, <REG>, <REG>": 57,
    "ld.global.u64\t<REG>, [<G_VAR>]": 58,
    "ld.global.f32\t<REG>, [<G_VAR>]": 59,
    "cvt.rmi.f64.f64\t<REG>, <REG>": 60,
    "selp.b64\t<REG>, <INT>, <INT>, <REG>": 61,
    "setp.gt.u64\t<REG>, <REG>, <INT>": 62,
    "setp.gt.s64\t<REG>, <REG>, <INT>": 63,
    "st.local.v2.f32\t[<REG>+<INT>], {<REG>, <REG>}": 64,
    "ld.local.v4.f32\t{<REG>, <REG>, <REG>, <REG>}, [<REG>]": 65,
    "ld.param.v2.u32\t{<REG>, <REG>}, [<PARAM>+<INT>]": 66,
    "ld.param.u64\t<REG>, [<REG>]": 67,
    "cvt.rpi.f64.f64\t<REG>, <REG>": 68,
    "setp.gtu.f64\t<REG>, <REG>, <REG>": 69,
    "setp.le.f64\t<REG>, <REG>, <REG>": 70,
    "ld.param.v2.u32\t{<REG>, <REG>}, [<PARAM>]": 71,
    "rcp.rm.f32\t<REG>, <REG>": 72,
    "sqrt.rm.f32\t<REG>, <REG>": 73,
    "ld.param.s32\t<REG>, [<PARAM>+<INT>]": 74,
    "setp.leu.f64\t<REG>, <REG>, <FLOAT>": 75,
    "cvt.rn.f64.u32\t<REG>, <REG>": 76,
    "ld.shared.f64\t<REG>, [<G_VAR>+<INT>]": 77,
    "cvt.rn.f64.u16\t<REG>, <REG>": 78,
    "ld.volatile.global.f32\t<REG>, [<REG>]": 79,
    "st.volatile.global.f32\t[<REG>], <REG>": 80,
    "setp.nan.f32\t<REG>, <REG>, <REG>": 81,
    "ld.global.nc.v2.f32\t{<REG>, <REG>}, [<REG>]": 82,
    "atom.global.inc.u32\t<REG>, [<REG>], <INT>": 83,
    "atom.global.max.u32\t<REG>, [<REG>], <REG>": 84,
    "mul.rz.f32\t<REG>, <REG>, <REG>": 85,
    "div.u64\t<REG>, <REG>, <REG>": 86,
    "setp.geu.f64\t<REG>, <REG>, <FLOAT>": 87,
    "div.rn.f64\t<REG>, <REG>, <FLOAT>": 88,
    "cvt.rni.s32.f64\t<REG>, <REG>": 89,
    "setp.ge.f64\t<REG>, <REG>, <FLOAT>": 90,
    "clz.b64\t<REG>, <REG>": 91,
    "madc.hi.cc.u32\t<REG>, <REG>, <REG>, <REG>": 92,
    "madc.lo.cc.u32\t<REG>, <REG>, <REG>, <REG>": 93,
    "addc.u32\t<REG>, <REG>, <INT>": 94,
    "sub.cc.u32\t<REG>, <REG>, <REG>": 95,
    "subc.u32\t<REG>, <REG>, <REG>": 96,
    "mul.lo.u32\t<REG>, <REG>, <REG>": 97,
    "addc.u32\t<REG>, <REG>, <REG>": 98,
    "setp.lt.u16\t<REG>, <REG>, <INT>": 99,
    "st.shared.u32\t[<G_VAR>], <REG>": 100,
    "ld.param.f64\t<REG>, [<PARAM>+<INT>]": 101,
    "setp.gt.u16\t<REG>, <REG>, <INT>": 102,
    "ld.shared.f64\t<REG>, [<G_VAR>]": 103,
    "setp.num.f64\t<REG>, <REG>, <REG>": 104,
    "setp.nan.f64\t<REG>, <REG>, <REG>": 105,
    "ld.param.f64\t<REG>, [<REG>]": 106,
    "ld.param.f64\t<REG>, [<REG>+<INT>]": 107,
    "setp.eq.b16\t<REG>, <REG>, <INT>": 108,
    "and.b16\t<REG>, <REG>, <REG>": 109,
    "or.b16\t<REG>, <REG>, <INT>": 110,
    "st.shared.f64\t[<L_VAR>], <REG>": 111,
    "st.shared.f64\t[<L_VAR>+<INT>], <REG>": 112,
    "atom.global.max.s32\t<REG>, [<REG>], <REG>": 113,
    "atom.global.xor.b32\t<REG>, [<REG>], <REG>": 114,
    "atom.global.dec.u32\t<REG>, [<REG>], <INT>": 115,
    "atom.global.and.b32\t<REG>, [<REG>], <REG>": 116,
    "atom.global.or.b32\t<REG>, [<REG>], <REG>": 117,
    "atom.global.min.u32\t<REG>, [<REG>], <REG>": 118,
    "atom.global.add.u64\t<REG>, [<REG>], <INT>": 119,
    "atom.global.max.u64\t<REG>, [<REG>], <REG>": 120,
    "atom.global.min.u64\t<REG>, [<REG>], <REG>": 121,
    "atom.global.cas.b64\t<REG>, [<REG>], <REG>, <REG>": 122,
    "atom.global.xor.b64\t<REG>, [<REG>], <REG>": 123,
    "atom.global.exch.b64\t<REG>, [<REG>], <REG>": 124,
    "atom.global.and.b64\t<REG>, [<REG>], <REG>": 125,
    "atom.global.or.b64\t<REG>, [<REG>], <REG>": 126,
    "atom.global.add.f32\t<REG>, [<REG>], <FLOAT>": 127,
    "cvta.const.u64\t<REG>, <REG>": 128,
    "ld.global.nc.f64\t<REG>, [<REG>]": 129,
    "cvt.rn.f32.s16\t<REG>, <REG>": 130,
    "cvt.rni.s64.f32\t<REG>, <REG>": 131,
    "cvt.rzi.u64.f32\t<REG>, <REG>": 132,
    "ld.const.f64\t<REG>, [<G_VAR>]": 133,
    "st.shared.f32\t[<L_VAR>], <REG>": 134,
    "st.shared.u8\t[<G_VAR>], <REG>": 135,
    "mul.wide.u32\t<REG>, <REG>, <REG>": 136,
    "atom.add.u32\t<REG>, [<REG>], <INT>": 137,
    "atom.add.f32\t<REG>, [<REG>], <FLOAT>": 138,
    "membar.sys": 139,
    "atom.shared.add.f32\t<REG>, [<REG>], <FLOAT>": 140,
    "mov.u64\t<REG>, <SREG>": 141,
    "mad.lo.s32\t<REG>, <REG>, <REG>, <INT>": 142,
    "mul.wide.u16\t<REG>, <REG>, <REG>": 143,
    "dp2a.lo.u32.u32\t<REG>, <REG>, <REG>, <REG>": 144,
    "add.s16\t<REG>, <REG>, <REG>": 145,
    "atom.shared.min.s32\t<REG>, [<REG>], <REG>": 146,
    "ld.global.u32\t<REG>, [<G_VAR>+<INT>]": 147,
    "ld.global.u32\t<REG>, [<G_VAR>]": 148,
    "selp.b16\t<REG>, <INT>, <INT>, <REG>": 149,
    "ld.param.u8\t<REG>, [<REG>+<INT>]": 150,
    "ld.global.s32\t<REG>, [<REG>+<INT>]": 151,
    "st.shared.f32\t[<G_VAR>], <REG>": 152,
    "st.shared.f32\t[<G_VAR>+<INT>], <REG>": 153,
    "ld.shared.s8\t<REG>, [<REG>]": 154,
    "ld.shared.u64\t<REG>, [<G_VAR>]": 155,
    "atom.global.add.u64\t<REG>, [<REG>], <REG>": 156,
    "atom.shared.max.s32\t<REG>, [<REG>], <REG>": 157,
    "rem.u64\t<REG>, <REG>, <REG>": 158,
    "atom.add.u32\t<REG>, [<REG>], <REG>": 159,
    "ld.param.u8\t<REG>, [<REG>]": 160,
    "cvta.shared.u64\t<REG>, <REG>": 161,
    "call.uni\t(<L_VAR>), <EXT_FUNC>, ( <L_VAR>, <L_VAR>, <L_VAR>, <L_VAR>, <L_VAR> )": 162,
    "ld.param.b64\t<REG>, [<L_VAR>+<INT>]": 163,
    "ld.u8\t<REG>, [<REG>+<INT>]": 164,
    "call.uni\t(<L_VAR>), <EXT_FUNC>, ( <L_VAR> )": 165,
    "call.uni\t<EXT_FUNC>, ( <L_VAR> )": 166,
    "st.u8\t[<REG>], <REG>": 167,
    "call.uni\t<EXT_FUNC>, ( <L_VAR>, <L_VAR>, <L_VAR>, <L_VAR>, <L_VAR>, <L_VAR> )": 168,
    "call.uni\t(<L_VAR>), <EXT_FUNC>, ( <L_VAR>, <L_VAR>, <L_VAR> )": 169,
    "st.f32\t[<REG>+<INT>], <REG>": 170,
    "ld.param.b8\t<REG>, [<L_VAR>+<INT>]": 171,
    "cvt.s32.s16\t<REG>, <REG>": 172,
    "bfe.s64\t<REG>, <REG>, <INT>, <INT>": 173,
    "ld.global.nc.v2.f64\t{<REG>,<REG>}, [<REG>]": 174,
    "ld.global.nc.v2.f32\t{<REG>,<REG>}, [<REG>]": 175,
    "ld.shared.f64\t<REG>, [<L_VAR>]": 176,
    "st.shared.u64\t[<L_VAR>], <REG>": 177,
    "setp.num.f32\t<REG>, <REG>, <REG>": 178,
    "bfind.u32\t<REG>, <REG>": 179,
    "ld.global.ca.s32\t<REG>, [<REG>]": 180,
    "ld.global.cg.s32\t<REG>, [<REG>]": 181,
    "ld.global.ca.f64\t<REG>, [<REG>]": 182,
    "ld.global.ca.f32\t<REG>, [<REG>]": 183,
    "ld.global.ca.v2.f64\t{<REG>, <REG>}, [<REG>]": 184,
    "ld.global.nc.f64\t<REG>, [<REG>+<INT>]": 185,
    "ld.global.ca.v2.f32\t{<REG>, <REG>}, [<REG>]": 186,
    "ld.volatile.shared.s8\t<REG>, [<REG>]": 187,
    "selp.s32\t<REG>, <INT>, <INT>, <REG>": 188,
    "ld.shared.v2.u32\t{<REG>, <REG>}, [<G_VAR>]": 189,
    "ld.global.nc.b32\t<REG>, [<REG>]": 190,
    "mul.f16x2\t<REG>,<REG>,<REG>": 191,
    "wmma.load.c.sync.aligned.row.m16n16k16.shared.s32\t{<REG>, <REG>, <REG>, <REG>, <REG>, <REG>, <REG>, <REG>}, [<REG>], <REG>": 192,
    "wmma.store.d.sync.aligned.row.m16n16k16.shared.s32\t[<REG>], {<REG>, <REG>, <REG>, <REG>, <REG>, <REG>, <REG>, <REG>}, <REG>": 193,
    "wmma.load.sync.aligned.row.m16n16k16.shared.u8\t{<REG>, <REG>}, [<REG>], <REG>": 194,
    "wmma.load.sync.aligned.col.m16n16k16.shared.u8\t{<REG>, <REG>}, [<REG>], <REG>": 195,
    "wmma.load.sync.aligned.col.m16n16k16.global.u8\t{<REG>, <REG>}, [<REG>], <REG>": 196,
    "wmma.load.sync.aligned.row.m16n16k16.global.u8\t{<REG>, <REG>}, [<REG>], <REG>": 197,
    "wmma.load.c.sync.aligned.row.m16n16k16.global.s32\t{<REG>, <REG>, <REG>, <REG>, <REG>, <REG>, <REG>, <REG>}, [<REG>], <REG>": 198,
    "wmma.store.d.sync.aligned.row.m16n16k16.global.s32\t[<REG>], {<REG>, <REG>, <REG>, <REG>, <REG>, <REG>, <REG>, <REG>}, <REG>": 199,
    "ld.global.nc.v4.u32\t{<REG>, <REG>, <REG>, <REG>}, [<REG>]": 200,
    "atom.global.sys.add.u32\t<REG>, [<REG>], <INT>": 201,
    "atom.global.sys.inc.u32\t<REG>, [<REG>], <INT>": 202,
    "atom.global.sys.dec.u32\t<REG>, [<REG>], <INT>": 203,
    "atom.global.sys.cas.b32\t<REG>, [<REG>], <REG>, <REG>": 204,
    "atom.global.sys.and.b32\t<REG>, [<REG>], <REG>": 205,
    "atom.global.sys.or.b32\t<REG>, [<REG>], <REG>": 206,
    "atom.global.sys.xor.b32\t<REG>, [<REG>], <REG>": 207,
    "atom.global.sys.exch.b32\t<REG>, [<REG>], <REG>": 208,
    "atom.global.sys.max.s32\t<REG>, [<REG>], <REG>": 209,
    "atom.global.sys.min.s32\t<REG>, [<REG>], <REG>": 210,
    "fns.b32\t<REG>, <REG>, <INT>, <REG>": 211,
    "ld.global.f64\t<REG>, [<G_VAR>]": 212,
    "atom.global.sys.add.f64\t<REG>, [<REG>], <REG>": 213,
    "st.global.u64\t[<G_VAR>], <REG>": 214,
    "atom.global.sys.cas.b64\t<REG>, [<REG>], <REG>, <INT>": 215,
    "wmma.load.c.sync.aligned.row.m16n16k16.shared.f32\t{<REG>, <REG>, <REG>, <REG>, <REG>, <REG>, <REG>, <REG>}, [<REG>], <REG>": 216,
    "wmma.store.d.sync.aligned.row.m16n16k16.shared.f32\t[<REG>], {<REG>, <REG>, <REG>, <REG>, <REG>, <REG>, <REG>, <REG>}, <REG>": 217,
    "wmma.load.sync.aligned.row.m16n16k16.shared.f16\t{<REG>, <REG>, <REG>, <REG>, <REG>, <REG>, <REG>, <REG>}, [<REG>], <REG>": 218,
    "wmma.load.sync.aligned.col.m16n16k16.shared.f16\t{<REG>, <REG>, <REG>, <REG>, <REG>, <REG>, <REG>, <REG>}, [<REG>], <REG>": 219,
    "wmma.load.sync.aligned.row.m16n16k16.global.f16\t{<REG>, <REG>, <REG>, <REG>, <REG>, <REG>, <REG>, <REG>}, [<REG>], <REG>": 220,
    "wmma.load.c.sync.aligned.row.m16n16k16.global.f32\t{<REG>, <REG>, <REG>, <REG>, <REG>, <REG>, <REG>, <REG>}, [<REG>], <REG>": 221,
    "wmma.store.d.sync.aligned.row.m16n16k16.global.f32\t[<REG>], {<REG>, <REG>, <REG>, <REG>, <REG>, <REG>, <REG>, <REG>}, <REG>": 222,
    "ld.global.v2.u16\t{<REG>, <REG>}, [<REG>]": 223,
    "ld.local.u16\t<REG>, [<REG>]": 224,
    "ld.local.u16\t<REG>, [<REG>+<INT>]": 225,
    "st.local.u16\t[<REG>], <REG>": 226,
    "st.local.u16\t[<REG>+<INT>], <REG>": 227,
    "bar.sync\t<REG>, <REG>": 228,
    "ld.global.u64\t<REG>, [<G_VAR>+<INT>]": 229,
    "ld.global.v4.f32\t{<REG>, <REG>, <REG>, <REG>}, [<G_VAR>+<INT>]": 230,
    "ld.global.f32\t<REG>, [<G_VAR>+<INT>]": 231,
    "ld.global.v2.u32\t{<REG>, <REG>}, [<G_VAR>+<INT>]": 232,
    "ld.v4.f32\t{<REG>, <REG>, <REG>, <REG>}, [<REG>]": 233,
    "ld.v2.f32\t{<REG>, <REG>}, [<REG>+<INT>]": 234,
    "ld.v4.f32\t{<REG>, <REG>, <REG>, <REG>}, [<REG>+<INT>]": 235,
    "sust.3d.b32.trap\t[<REG>, {<REG>, <REG>, <REG>, <REG>}], {<REG>}": 236,
    "sust.3d.b8.trap\t[<REG>, {<REG>, <REG>, <REG>, <REG>}], {<REG>}": 237,
    "shr.s64\t<REG>, <REG>, <REG>": 238,
    "sust.3d.v4.b32.trap\t[<REG>, {<REG>, <REG>, <REG>, <REG>}], {<REG>, <REG>, <REG>, <REG>}": 239,
    "sust.3d.v4.b8.trap\t[<REG>, {<REG>, <REG>, <REG>, <REG>}], {<REG>, <REG>, <REG>, <REG>}": 240,
    "bfe.u64\t<REG>, <REG>, <INT>, <INT>": 241,
    "atom.global.or.b32\t<REG>, [<REG>], <INT>": 242,
    "ld.v4.u32\t{<REG>, <REG>, <REG>, <REG>}, [<REG>+<INT>]": 243,
    "cvt.sat.f64.f64\t<REG>, <REG>": 244,
    "ld.const.v4.u32\t{<REG>, <REG>, <REG>, <REG>}, [<G_VAR>]": 245,
    "st.shared.f32\t[<L_VAR>+<INT>], <REG>": 246,
    "ld.shared.v2.u16\t{<REG>, <REG>}, [<L_VAR>+<INT>]": 247,
    "shr.s16\t<REG>, <REG>, <INT>": 248,
    "ld.shared.v2.u16\t{<REG>, <REG>}, [<REG>]": 249,
    "st.cg.v2.u32\t[<REG>], {<REG>, <REG>}": 250,
    "st.shared.v4.u16\t[<L_VAR>+<INT>], {<REG>, <REG>, <REG>, <REG>}": 251,
    "ld.ca.u8\t<REG>, [<REG>]": 252,
    "ld.cs.u8\t<REG>, [<REG>]": 253,
    "ld.cv.u8\t<REG>, [<REG>]": 254,
    "ld.volatile.global.u8\t<REG>, [<REG>]": 255,
    "ld.volatile.global.u8\t<REG>, [<REG>+<INT>]": 256,
    "ld.ca.u16\t<REG>, [<REG>]": 257,
    "ld.cs.u16\t<REG>, [<REG>]": 258,
    "ld.cv.u16\t<REG>, [<REG>]": 259,
    "ld.volatile.global.u16\t<REG>, [<REG>]": 260,
    "ld.volatile.global.u16\t<REG>, [<REG>+<INT>]": 261,
    "ld.ca.u32\t<REG>, [<REG>]": 262,
    "ld.cs.u32\t<REG>, [<REG>]": 263,
    "ld.cv.u32\t<REG>, [<REG>]": 264,
    "ld.ca.u64\t<REG>, [<REG>]": 265,
    "ld.cs.u64\t<REG>, [<REG>]": 266,
    "ld.cv.u64\t<REG>, [<REG>]": 267,
    "ld.volatile.global.u64\t<REG>, [<REG>]": 268,
    "ld.volatile.global.u64\t<REG>, [<REG>+<INT>]": 269,
    "ld.volatile.global.f64\t<REG>, [<REG>]": 270,
    "ld.volatile.global.f64\t<REG>, [<REG>+<INT>]": 271,
    "ld.ca.v2.u64\t{<REG>, <REG>}, [<REG>]": 272,
    "ld.cs.v2.u64\t{<REG>, <REG>}, [<REG>]": 273,
    "ld.cv.v2.u64\t{<REG>, <REG>}, [<REG>]": 274,
    "ld.shared.v2.f32\t{<REG>, <REG>}, [<REG>+<INT>]": 275,
    "st.shared.v4.f32\t[<REG>+<INT>], {<REG>, <REG>, <REG>, <REG>}": 276,
    "mov.s64\t<REG>, <REG>": 277,
    "st.volatile.shared.u8\t[<REG>+<INT>], <REG>": 278,
    "st.volatile.shared.u16\t[<REG>+<INT>], <REG>": 279,
    "ld.volatile.shared.u16\t<REG>, [<REG>]": 280,
    "ld.shared.v2.u32\t{<REG>, <REG>}, [<L_VAR>]": 281,
    "ld.volatile.shared.u8\t<REG>, [<G_VAR>]": 282,
    "st.volatile.shared.u8\t[<G_VAR>], <REG>": 283,
    "ld.local.v2.u16\t{<REG>, <REG>}, [<REG>]": 284,
    "st.local.v2.u16\t[<REG>+<INT>], {<REG>, <REG>}": 285,
    "st.local.v2.u16\t[<REG>], {<REG>, <REG>}": 286,
    "vmax4.u32.u32.u32\t<REG>,<REG>,<REG>,<REG>": 287,
    "vset4.u32.u32.eq\t<REG>,<REG>,<REG>,<REG>": 288,
    "vadd4.sat.s32.s32.s32\t<REG>,<REG>,<REG>,<REG>": 289,
    "vmax4.s32.s32.s32\t<REG>,<REG>,<REG>,<REG>": 290,
    "ld.const.v4.u32\t{<REG>, <REG>, <REG>, <REG>}, [<REG>]": 291,
    "ld.global.nc.v4.u32\t{<REG>,<REG>,<REG>,<REG>}, [<REG>]": 292,
    "ld.global.nc.v4.u32\t{<REG>,<REG>,<REG>,<REG>}, [<REG>+<INT>]": 293,
    "st.local.v2.u64\t[<REG>], {<REG>, <REG>}": 294,
    "st.local.v2.u64\t[<REG>+<INT>], {<REG>, <REG>}": 295,
    "st.v4.u32\t[<REG>+<INT>], {<REG>, <REG>, <REG>, <REG>}": 296,
    "st.v2.u32\t[<REG>], {<REG>, <REG>}": 297,
    "ld.v2.u32\t{<REG>, <REG>}, [<REG>]": 298,
    "st.param.b32\t[<PARAM>+<INT>], <REG>": 299,
    "st.local.v2.u8\t[<REG>], {<REG>, <REG>}": 300,
    "st.local.v4.u16\t[<REG>], {<REG>, <REG>, <REG>, <REG>}": 301,
    "st.local.v2.u8\t[<REG>+<INT>], {<REG>, <REG>}": 302,
    "ld.const.u16\t<REG>, [<REG>]": 303,
    "ld.const.u16\t<REG>, [<REG>+<INT>]": 304,
    "ld.global.nc.v4.f32\t{<REG>, <REG>, <REG>, <REG>}, [<REG>]": 305,
    "ld.shared.v2.f64\t{<REG>, <REG>}, [<L_VAR>+<INT>]": 306,
    "ld.shared.v2.f64\t{<REG>, <REG>}, [<L_VAR>]": 307,
    "rsqrt.approx.ftz.f64\t<REG>, <REG>": 308,
    "ld.local.v2.f64\t{<REG>, <REG>}, [<REG>]": 309,
    "ld.local.v2.f64\t{<REG>, <REG>}, [<REG>+<INT>]": 310,
    "st.shared.v2.f64\t[<L_VAR>], {<REG>, <REG>}": 311,
    "st.shared.v2.u32\t[<L_VAR>], {<REG>, <REG>}": 312,
    "ld.f64\t<REG>, [<REG>+<INT>]": 313,
    "st.shared.v2.f32\t[<L_VAR>], {<REG>, <REG>}": 314,
    "add.rz.f64\t<REG>, <REG>, <REG>": 315,
    "cvt.rmi.s32.f32\t<REG>, <REG>": 316,
    "rsqrt.approx.ftz.f32\t<REG>, <REG>": 317,
    "ld.volatile.shared.f64\t<REG>, [<G_VAR>+<INT>]": 318,
    "ld.volatile.shared.f64\t<REG>, [<G_VAR>]": 319,
    "st.volatile.shared.f64\t[<G_VAR>], <REG>": 320,
    "setp.le.f64\t<REG>, <REG>, <FLOAT>": 321,
    "ld.local.v2.u64\t{<REG>, <REG>}, [<REG>+<INT>]": 322,
    "ld.local.v2.u64\t{<REG>, <REG>}, [<REG>]": 323,
    "st.u8\t[<REG>+<INT>], <REG>": 324,
    "call.uni\t<FUNC>, ( <L_VAR>, <L_VAR>, <L_VAR> )": 325,
    "mul.f16\t<REG>,<REG>,<REG>": 326,
    "setp.eq.f16\t<REG>, <REG>, <REG>": 327,
    "ld.volatile.shared.u32\t<REG>, [<L_VAR>]": 328,
    "ld.shared.u8\t<REG>, [<G_VAR>]": 329,
    "cvt.rni.s64.f64\t<REG>, <REG>": 330,
    "setp.equ.f64\t<REG>, <REG>, <FLOAT>": 331,
    "ld.s16\t<REG>, [<REG>+<INT>]": 332,
    "st.u16\t[<REG>+<INT>], <REG>": 333,
    "ld.s16\t<REG>, [<REG>]": 334,
    "ld.global.s16\t<REG>, [<REG>]": 335,
    "call.uni\t(<L_VAR>), <FUNC>, ( <L_VAR>, <L_VAR>, <L_VAR>, <L_VAR>, <L_VAR>, <L_VAR>, <L_VAR>, <L_VAR>, <L_VAR>, <L_VAR>, <L_VAR> )": 336,
    "call.uni\t(<L_VAR>), <FUNC>, ( <L_VAR>, <L_VAR>, <L_VAR>, <L_VAR>, <L_VAR>, <L_VAR>, <L_VAR>, <L_VAR>, <L_VAR>, <L_VAR>, <L_VAR>, <L_VAR>, <L_VAR>, <L_VAR>, <L_VAR>, <L_VAR>, <L_VAR>, <L_VAR> )": 337,
    "st.f64\t[<REG>+<INT>], <REG>": 338,
    "call.uni\t<FUNC>, ( <L_VAR>, <L_VAR>, <L_VAR>, <L_VAR>, <L_VAR>, <L_VAR> )": 339,
    "ld.const.v4.f32\t{<REG>, <REG>, <REG>, <REG>}, [<REG>]": 340,
    "ld.const.v4.f32\t{<REG>, <REG>, <REG>, <REG>}, [<REG>+<INT>]": 341,
    "ld.shared.u8\t<REG>, [<L_VAR>]": 342,
    "st.shared.u8\t[<L_VAR>], <REG>": 343,
    "st.global.u32\t[<G_VAR>], <REG>": 344,
    "st.global.f32\t[<G_VAR>], <REG>": 345,
    "st.u64\t[<REG>], <REG>": 346,
    "st.u64\t[<REG>+<INT>], <REG>": 347,
    "ld.param.u32\t<REG>, [<REG>]": 348,
    "st.volatile.global.u16\t[<REG>], <REG>": 349,
    "st.volatile.global.f64\t[<REG>], <REG>": 350,
    "st.volatile.u32\t[<REG>], <REG>": 351,
    "ld.volatile.u16\t<REG>, [<REG>+<INT>]": 352,
    "ld.volatile.u16\t<REG>, [<REG>]": 353,
    "st.v2.u32\t[<REG>+<INT>], {<REG>, <REG>}": 354,
    "ld.volatile.shared.f32\t<REG>, [<L_VAR>]": 355,
    "ld.shared.u16\t<REG>, [<L_VAR>]": 356,
    "st.shared.u16\t[<L_VAR>], <REG>": 357,
    "setp.lt.f16\t<REG>, <REG>, <REG>": 358,
    "cvt.rn.f16.s32\t<REG>, <REG>": 359,
    "mov.b32\t{<REG>,<REG>}, <REG>": 360,
    "mov.b16\t<REG>, <REG>": 361,
    "ld.s32\t<REG>, [<REG>]": 362,
    "ld.global.cs.u8\t{<REG>}, [<REG>]": 363,
    "ld.global.cs.u16\t{<REG>}, [<REG>]": 364,
    "ld.global.cs.u8\t{<REG>}, [<REG> + <INT>]": 365,
    "ld.global.cs.u32\t{<REG>}, [<REG>]": 366,
    "ld.global.cs.v2.u32\t{<REG>, <REG>}, [<REG>]": 367,
    "ld.global.cs.nc.u32\t{<REG>}, [<REG> + <INT>]": 368,
    "ld.global.cs.v4.u32\t{<REG>, <REG>, <REG>, <REG>}, [<REG>]": 369,
    "ld.global.cs.nc.v2.u32\t{<REG>, <REG>}, [<REG> + <INT>]": 370,
    "ld.global.cs.nc.v4.u32\t{<REG>, <REG>, <REG>, <REG>}, [<REG>]": 371,
    "ld.global.cs.nc.v4.u32\t{<REG>, <REG>, <REG>, <REG>}, [<REG> + <INT>]": 372,
    "abs.s64\t<REG>, <REG>": 373,
    "sqrt.approx.f32\t<REG>, <REG>": 374,
    "st.local.v4.u16\t[<REG>+<INT>], {<REG>, <REG>, <REG>, <REG>}": 375,
    "ld.local.v4.u16\t{<REG>, <REG>, <REG>, <REG>}, [<REG>+<INT>]": 376,
    "call.uni\t<FUNC>, ( <L_VAR>, <L_VAR> )": 377,
    "ld.local.v4.u16\t{<REG>, <REG>, <REG>, <REG>}, [<REG>]": 378,
    "not.b32\t<REG>,<REG>": 379,
    "prmt.b32\t<REG>,<REG>,<INT>,<INT>": 380,
    "atom.shared.max.u32\t<REG>, [<REG>], <REG>": 381,
    "ld.volatile.shared.f32\t<REG>, [<L_VAR>+<INT>]": 382,
    "st.volatile.shared.f32\t[<L_VAR>+<INT>], <REG>": 383,
    "cvt.rm.f32.s32\t<REG>, <REG>": 384,
    "vote.ballot.b32\t<REG>, <REG>": 385,
    "cvt.rn.f64.s16\t<REG>, <REG>": 386,
    "st.shared.v2.u32\t[<G_VAR>+<INT>], {<REG>, <REG>}": 387,
    "atom.or.b32\t<REG>, [<REG>], <REG>": 388,
    "cvt.s64.s8\t<REG>, <REG>": 389,
    "mul.hi.s64\t<REG>, <REG>, <INT>": 390,
    "mov.u64\t<REG>, <FUNC>": 391,
    "st.shared.f64\t[<G_VAR>], <REG>": 392,
    "vote.any.pred\t<REG>, <REG>": 393,
    "vote.all.pred\t<REG>, <REG>": 394,
    "atom.global.inc.u32\t<REG>, [<REG>], <REG>": 395,
    "sust.2d.b32.trap\t[<G_VAR>, {<REG>, <REG>}], {<REG>}": 396,
    "ld.const.v4.f32\t{<REG>, <REG>, <REG>, <REG>}, [<G_VAR>]": 397,
    "st.shared.v4.u32\t[<L_VAR>], {<REG>, <REG>, <REG>, <REG>}": 398,
    "tex.1d.v4.f32.f32\t{<REG>, <REG>, <REG>, <REG>}, [<G_VAR>, {<REG>}]": 399,
    "call.uni\t<EXT_FUNC>, ( <L_VAR>, <L_VAR>, <L_VAR>, <L_VAR>, <L_VAR>, <L_VAR>, <L_VAR>, <L_VAR> )": 400,
    "ld.shared.v2.u32\t{<REG>, <REG>}, [<G_VAR>+<INT>]": 401,
    "mul.wide.s16\t<REG>, <REG>, <REG>": 402,
    "ld.shared.s16\t<REG>, [<REG>]": 403,
    "ld.shared.s16\t<REG>, [<REG>+<INT>]": 404,
    "ld.const.s32\t<REG>, [<REG>]": 405,
    "ld.const.s32\t<REG>, [<REG>+<INT>]": 406,
    "sub.u32\t<REG>, <INT>, <REG>": 407,
    "shr.b64\t<REG>, <REG>, <REG>": 408,
    "st.v4.u8\t[<REG>], {<REG>, <REG>, <REG>, <REG>}": 409,
    "ld.const.v2.f32\t{<REG>, <REG>}, [<G_VAR>]": 410,
    "ld.v2.u8\t{<REG>, <REG>}, [<REG>]": 411,
    "call\t(<L_VAR>), <REG>, ( <L_VAR>, <L_VAR>, <L_VAR>, <L_VAR> ), <LBL>": 412,
    "selp.s16\t<REG>, <INT>, <INT>, <REG>": 413,
    "addc.u32\t<REG>, <INT>, <INT>": 414,
    "shf.l.clamp.b32\t<REG>, <REG>, <REG>, <INT>": 415,
    "shf.l.clamp.b32\t<REG>, <INT>, <REG>, <INT>": 416,
    "fma.rn.f16\t<REG>,<REG>,<REG>,<REG>": 417,
    "setp.gt.f16\t<REG>, <REG>, <REG>": 418,
    "ld.volatile.shared.s32\t<REG>, [<REG>]": 419,
    "ld.param.v2.f32\t{<REG>, <REG>}, [<REG>]": 420,
    "ld.shared.v2.f32\t{<REG>, <REG>}, [<G_VAR>]": 421,
    "cvt.s64.s16\t<REG>, <REG>": 422,
    "ld.local.s8\t<REG>, [<REG>]": 423,
    "dp4a.s32.s32\t<REG>, <REG>, <REG>, <REG>": 424,
    "dp2a.lo.s32.s32\t<REG>, <REG>, <REG>, <REG>": 425,
    "ld.global.nc.v2.f32\t{<REG>, <REG>}, [<REG>+<INT>]": 426,
    "wmma.load.c.sync.aligned.col.m16n16k16.global.f32\t{<REG>, <REG>, <REG>, <REG>, <REG>, <REG>, <REG>, <REG>}, [<REG>], <REG>": 427,
    "wmma.store.d.sync.aligned.col.m16n16k16.global.f32\t[<REG>], {<REG>, <REG>, <REG>, <REG>, <REG>, <REG>, <REG>, <REG>}, <REG>": 428,
    "mov.b32\t<REG>, <INT>": 429,
    "subc.u32\t<REG>, <REG>, <INT>": 430,
    "ld.s8\t<REG>, [<REG>]": 431,
    "ld.const.u16\t<REG>, [<G_VAR>]": 432,
    "div.u16\t<REG>, <REG>, <REG>": 433,
    "atom.shared.cas.b32\t<REG>, [<REG>], <REG>, <REG>": 434,
    "cvta.to.shared.u64\t<REG>, <REG>": 435,
    "setp.ge.s32\t<REG>, <REG>, <INT>": 436,
    "vmax.s32.s32.s32.min\t<REG>, <REG>, <REG>, <REG>": 437,
    "vmin.s32.s32.s32.max\t<REG>, <REG>, <REG>, <REG>": 438,
    "vmax.s32.s32.s32.max\t<REG>, <REG>, <REG>, <REG>": 439,
    "vmin.s32.s32.s32.min\t<REG>, <REG>, <REG>, <REG>": 440,
    "vote.ballot.b32\t<REG>,<REG>": 441,
    "ld.shared.v2.u64\t{<REG>, <REG>}, [<G_VAR>]": 442,
    "st.shared.u8\t[<G_VAR>+<INT>], <REG>": 443,
    "ld.shared.u8\t<REG>, [<G_VAR>+<INT>]": 444,
    "st.shared.u16\t[<G_VAR>+<INT>], <REG>": 445,
    "ld.shared.u16\t<REG>, [<G_VAR>+<INT>]": 446,
    "ld.shared.s8\t<REG>, [<REG>+<INT>]": 447,
    "ld.global.s16\t<REG>, [<REG>+<INT>]": 448,
    "tex.1d.v4.u32.s32\t{<REG>, <REG>, <REG>, <REG>}, [<REG>, {<REG>}]": 449,
    "atom.shared.cas.b64\t<REG>, [<REG>], <REG>, <REG>": 450,
    "call.uni\t<FUNC>, ( <L_VAR> )": 451,
    "ld.const.s8\t<REG>, [<REG>]": 452,
    "lg2.approx.ftz.f32\t<REG>, <REG>": 453,
    "mul.hi.u64\t<REG>, <REG>, <INT>": 454,
    "st.wt.v2.f64\t[<REG>],{<REG>,<REG>}": 455,
    "ld.cv.v2.f64\t{<REG>,<REG>}, [<REG>]": 456,
    "tex.2d.v4.s32.f32\t{<REG>, <REG>, <REG>, <REG>}, [<G_VAR>, {<REG>, <REG>}]": 457,
    "st.volatile.global.u32\t[<G_VAR>], <REG>": 458,
    "st.volatile.shared.u32\t[<L_VAR>], <REG>": 459,
    "ld.volatile.global.u32\t<REG>, [<G_VAR>]": 460,
    "ld.param.v2.f32\t{<REG>, <REG>}, [<PARAM>+<INT>]": 461
}