approach	benchmark	model	b_chosen	Y_actual	Y_pred	Correct?	b_runtime	p_runtime	speedup
ptx_ab	nvidia	ptx_ab-imm	GPU	GPU	GPU	True	0.062024	0.062024	1.0
ptx_ab	nvidia	ptx_ab-imm	GPU	GPU	GPU	True	2.266182	2.266182	1.0
ptx_ab	nvidia	ptx_ab-imm	GPU	GPU	GPU	True	0.92984	0.92984	1.0
ptx_ab	nvidia	ptx_ab-imm	GPU	GPU	GPU	True	5.726915	5.726915	1.0
ptx_ab	nvidia	ptx_ab-imm	GPU	CPU	GPU	False	0.105745	0.105745	1.0
ptx_ab	nvidia	ptx_ab-imm	GPU	CPU	GPU	False	0.102498	0.102498	1.0
ptx_ab	nvidia	ptx_ab-imm	GPU	GPU	GPU	True	0.075706	0.075706	1.0
ptx_ab	nvidia	ptx_ab-imm	GPU	GPU	CPU	False	8.97033	9.048317	0.9913810490945443
ptx_ab	nvidia	ptx_ab-imm	GPU	CPU	GPU	False	0.205766	0.205766	1.0
ptx_ab	nvidia	ptx_ab-imm	GPU	CPU	CPU	True	7.328639999999999	5.079986	1.442649645097447
ptx_ab	nvidia	ptx_ab-imm	GPU	CPU	CPU	True	0.132186	0.07966000000000001	1.659377353753452
ptx_ab	nvidia	ptx_ab-imm	GPU	GPU	GPU	True	1.125061	1.125061	1.0
ptx_ab	nvidia	ptx_ab-imm	GPU	GPU	GPU	True	0.089388	0.089388	1.0
ptx_ab	nvidia	ptx_ab-imm	GPU	GPU	GPU	True	0.08706699999999999	0.08706699999999999	1.0
ptx_ab	nvidia	ptx_ab-imm	GPU	GPU	GPU	True	6.758603999999999	6.758603999999999	1.0
ptx_ab	nvidia	ptx_ab-imm	GPU	GPU	GPU	True	0.4768060000000001	0.4768060000000001	1.0
ptx_ab	nvidia	ptx_ab-imm	GPU	CPU	CPU	True	108.460131	94.898911	1.142901745205485
ptx_ab	nvidia	ptx_ab-imm	GPU	GPU	GPU	True	0.037715	0.037715	1.0
ptx_ab	nvidia	ptx_ab-imm	GPU	GPU	GPU	True	0.235309	0.235309	1.0
ptx_ab	nvidia	ptx_ab-imm	GPU	GPU	GPU	True	435.054342	435.054342	1.0
ptx_ab	nvidia	ptx_ab-imm	GPU	CPU	GPU	False	0.122989	0.122989	1.0
ptx_ab	nvidia	ptx_ab-imm	GPU	GPU	CPU	False	0.040902	0.106772	0.3830779605139924
ptx_ab	nvidia	ptx_ab-imm	GPU	GPU	GPU	True	0.038886	0.038886	1.0
ptx_ab	nvidia	ptx_ab-imm	GPU	GPU	GPU	True	315.303954	315.303954	1.0
ptx_ab	nvidia	ptx_ab-imm	GPU	GPU	CPU	False	72.140656	91.58652	0.7876776626079909
ptx_ab	nvidia	ptx_ab-imm	GPU	GPU	CPU	False	149.49651799999995	187.001354	0.7994408318562226
ptx_ab	nvidia	ptx_ab-imm	GPU	GPU	GPU	True	3.435306	3.435306	1.0
ptx_ab	nvidia	ptx_ab-imm	GPU	GPU	GPU	True	0.189846	0.189846	1.0
ptx_ab	nvidia	ptx_ab-imm	GPU	CPU	CPU	True	111.256422	57.680221	1.9288487469560838
ptx_ab	nvidia	ptx_ab-imm	GPU	CPU	CPU	True	105.510202	28.400617	3.715067246602424
ptx_ab	nvidia	ptx_ab-imm	GPU	CPU	CPU	True	0.192181	0.148393	1.2950813043741956
ptx_ab	nvidia	ptx_ab-imm	GPU	GPU	GPU	True	1.020308	1.020308	1.0
ptx_ab	nvidia	ptx_ab-imm	GPU	GPU	GPU	True	0.5975189999999999	0.5975189999999999	1.0
ptx_ab	nvidia	ptx_ab-imm	GPU	CPU	GPU	False	0.185233	0.185233	1.0
ptx_ab	nvidia	ptx_ab-imm	GPU	GPU	GPU	True	2.222631	2.222631	1.0
ptx_ab	nvidia	ptx_ab-imm	GPU	GPU	GPU	True	0.183072	0.183072	1.0
ptx_ab	nvidia	ptx_ab-imm	GPU	GPU	GPU	True	0.215744	0.215744	1.0
ptx_ab	nvidia	ptx_ab-imm	GPU	CPU	GPU	False	0.163709	0.163709	1.0
ptx_ab	nvidia	ptx_ab-imm	GPU	GPU	GPU	True	3.113337	3.113337	1.0
ptx_ab	nvidia	ptx_ab-imm	GPU	CPU	CPU	True	3.119487	0.982916	3.1737066036161785
ptx_ab	nvidia	ptx_ab-imm	GPU	CPU	CPU	True	884.582082	203.98006	4.336610558894825
ptx_ab	nvidia	ptx_ab-imm	GPU	CPU	CPU	True	3.126688	1.316781	2.374493556635462
ptx_ab	nvidia	ptx_ab-imm	GPU	CPU	CPU	True	115.426221	49.901062	2.313101492709714
ptx_ab	nvidia	ptx_ab-imm	GPU	GPU	GPU	True	0.075765	0.075765	1.0
ptx_ab	nvidia	ptx_ab-imm	GPU	CPU	GPU	False	0.101566	0.101566	1.0
ptx_ab	nvidia	ptx_ab-imm	GPU	GPU	GPU	True	0.223796	0.223796	1.0
ptx_ab	nvidia	ptx_ab-imm	GPU	GPU	GPU	True	0.223402	0.223402	1.0
ptx_ab	nvidia	ptx_ab-imm	GPU	GPU	GPU	True	0.242168	0.242168	1.0
ptx_ab	nvidia	ptx_ab-imm	GPU	CPU	CPU	True	0.189734	0.099104	1.914493865030675
ptx_ab	nvidia	ptx_ab-imm	GPU	CPU	CPU	True	201.924781	144.091447	1.4013654884040412
ptx_ab	nvidia	ptx_ab-imm	GPU	CPU	CPU	True	36.599789	18.055821	2.027035436383646
ptx_ab	nvidia	ptx_ab-imm	GPU	CPU	CPU	True	184.558355	99.498498	1.8548858395832268
ptx_ab	nvidia	ptx_ab-imm	GPU	GPU	GPU	True	0.217002	0.217002	1.0
ptx_ab	nvidia	ptx_ab-imm	GPU	CPU	GPU	False	0.091696	0.091696	1.0
ptx_ab	nvidia	ptx_ab-imm	GPU	GPU	GPU	True	3.752658	3.752658	1.0
ptx_ab	nvidia	ptx_ab-imm	GPU	GPU	GPU	True	445.164997	445.164997	1.0
ptx_ab	nvidia	ptx_ab-imm	GPU	CPU	GPU	False	337.533472	337.533472	1.0
ptx_ab	nvidia	ptx_ab-imm	GPU	CPU	CPU	True	26.8309	18.536833	1.4474371107513349
ptx_ab	nvidia	ptx_ab-imm	GPU	GPU	CPU	False	4.397409	4.81292	0.9136675864132376
ptx_ab	nvidia	ptx_ab-imm	GPU	GPU	GPU	True	192.797613	192.797613	1.0
ptx_ab	nvidia	ptx_ab-imm	GPU	GPU	GPU	True	46.429901	46.429901	1.0
ptx_ab	nvidia	ptx_ab-imm	GPU	GPU	CPU	False	1880.040512	3339.966119	0.5628920908224339
ptx_ab	nvidia	ptx_ab-imm	GPU	CPU	CPU	True	0.8541489999999999	0.367199	2.3261201691725737
ptx_ab	nvidia	ptx_ab-imm	GPU	GPU	CPU	False	58.607688	91.718113	0.6389979697903292
ptx_ab	nvidia	ptx_ab-imm	GPU	CPU	CPU	True	111.90664	14.746386	7.588750219884384
ptx_ab	nvidia	ptx_ab-imm	GPU	CPU	CPU	True	23.414678	7.6315149999999985	3.068155929720377
ptx_ab	nvidia	ptx_ab-imm	GPU	CPU	CPU	True	13.832764	8.545337	1.6187499685500992
ptx_ab	nvidia	ptx_ab-imm	GPU	CPU	CPU	True	13.778436	7.038685000000001	1.9575298511014483
ptx_ab	nvidia	ptx_ab-imm	GPU	CPU	GPU	False	48.047807	48.047807	1.0
ptx_ab	nvidia	ptx_ab-imm	GPU	GPU	CPU	False	1.580339	3.535082	0.44704450985861144
ptx_ab	nvidia	ptx_ab-imm	GPU	GPU	GPU	True	0.075816	0.075816	1.0
ptx_ab	nvidia	ptx_ab-imm	GPU	GPU	GPU	True	0.089766	0.089766	1.0
ptx_ab	nvidia	ptx_ab-imm	GPU	GPU	GPU	True	0.08770599999999999	0.08770599999999999	1.0
ptx_ab	nvidia	ptx_ab-imm	GPU	GPU	CPU	False	41.22279	41.526022	0.9926977835729126
ptx_ab	nvidia	ptx_ab-imm	GPU	CPU	CPU	True	7.528038	5.089944999999998	1.4790018359726878
ptx_ab	nvidia	ptx_ab-imm	GPU	CPU	CPU	True	36.60688	22.05727000000001	1.6596287754558918
ptx_ab	nvidia	ptx_ab-imm	GPU	GPU	GPU	True	0.30151100000000003	0.30151100000000003	1.0
ptx_ab	nvidia	ptx_ab-imm	GPU	GPU	GPU	True	1.122627	1.122627	1.0
ptx_ab	nvidia	ptx_ab-imm	GPU	CPU	GPU	False	0.08204199999999999	0.08204199999999999	1.0
ptx_ab	nvidia	ptx_ab-imm	GPU	CPU	CPU	True	108.443535	94.885625	1.1428868703768351
ptx_ab	nvidia	ptx_ab-imm	GPU	GPU	GPU	True	0.538589	0.538589	1.0
ptx_ab	nvidia	ptx_ab-imm	GPU	GPU	GPU	True	0.044389	0.044389	1.0
ptx_ab	nvidia	ptx_ab-imm	GPU	GPU	GPU	True	2.361798	2.361798	1.0
ptx_ab	nvidia	ptx_ab-imm	GPU	GPU	GPU	True	0.08249	0.08249	1.0
ptx_ab	nvidia	ptx_ab-imm	GPU	GPU	GPU	True	0.04409	0.04409	1.0
ptx_ab	nvidia	ptx_ab-imm	GPU	GPU	GPU	True	0.054483	0.054483	1.0
ptx_ab	nvidia	ptx_ab-imm	GPU	GPU	GPU	True	28.598541	28.598541	1.0
ptx_ab	nvidia	ptx_ab-imm	GPU	GPU	GPU	True	144.106131	144.106131	1.0
ptx_ab	nvidia	ptx_ab-imm	GPU	GPU	GPU	True	0.100998	0.100998	1.0
ptx_ab	nvidia	ptx_ab-imm	GPU	GPU	GPU	True	0.048224	0.048224	1.0
ptx_ab	nvidia	ptx_ab-imm	GPU	GPU	GPU	True	0.296733	0.296733	1.0
ptx_ab	nvidia	ptx_ab-imm	GPU	GPU	GPU	True	0.347632	0.347632	1.0
ptx_ab	nvidia	ptx_ab-imm	GPU	GPU	CPU	False	0.190293	0.220729	0.8621114579416388
ptx_ab	nvidia	ptx_ab-imm	GPU	GPU	CPU	False	0.225302	0.329086	0.684629549722565
ptx_ab	nvidia	ptx_ab-imm	GPU	GPU	GPU	True	0.817971	0.817971	1.0
ptx_ab	nvidia	ptx_ab-imm	GPU	GPU	GPU	True	7.999110000000001	7.999110000000001	1.0
ptx_ab	nvidia	ptx_ab-imm	GPU	GPU	GPU	True	0.16951	0.16951	1.0
ptx_ab	nvidia	ptx_ab-imm	GPU	GPU	GPU	True	0.27930900000000003	0.27930900000000003	1.0
ptx_ab	nvidia	ptx_ab-imm	GPU	CPU	CPU	True	0.685822	0.177189	3.870567586023963
ptx_ab	nvidia	ptx_ab-imm	GPU	CPU	CPU	True	0.2089	0.15778399999999998	1.3239618719261776
ptx_ab	nvidia	ptx_ab-imm	GPU	GPU	GPU	True	0.239904	0.239904	1.0
ptx_ab	nvidia	ptx_ab-imm	GPU	GPU	CPU	False	0.27113000000000004	11.004967	0.024637057067049817
ptx_ab	nvidia	ptx_ab-imm	GPU	CPU	CPU	True	0.211023	0.197384	1.0690988124670693
ptx_ab	nvidia	ptx_ab-imm	GPU	CPU	CPU	True	114.772061	29.515857	3.888488177727653
ptx_ab	nvidia	ptx_ab-imm	GPU	CPU	CPU	True	3.1190450000000003	0.98311	3.172630733081751
ptx_ab	nvidia	ptx_ab-imm	GPU	CPU	CPU	True	3.121206	0.995759	3.1344994120063188
ptx_ab	nvidia	ptx_ab-imm	GPU	CPU	CPU	True	3.139696	1.63641	1.918648749396545
ptx_ab	nvidia	ptx_ab-imm	GPU	CPU	CPU	True	6973.273403	2086.473561	3.3421336044430237
ptx_ab	nvidia	ptx_ab-imm	GPU	CPU	CPU	True	884.6210369999999	205.654101	4.301499618526936
ptx_ab	nvidia	ptx_ab-imm	GPU	CPU	GPU	False	7292.702125	7292.702125	1.0
ptx_ab	nvidia	ptx_ab-imm	GPU	CPU	CPU	True	3.740557	1.103278	3.3904029628071983
ptx_ab	nvidia	ptx_ab-imm	GPU	GPU	GPU	True	0.075779	0.075779	1.0
ptx_ab	nvidia	ptx_ab-imm	GPU	GPU	GPU	True	0.789467	0.789467	1.0
ptx_ab	nvidia	ptx_ab-imm	GPU	GPU	GPU	True	3.025689	3.025689	1.0
ptx_ab	nvidia	ptx_ab-imm	GPU	GPU	GPU	True	25.968725	25.968725	1.0
ptx_ab	nvidia	ptx_ab-imm	GPU	CPU	CPU	True	4.529619	1.857705	2.4382875644949014
ptx_ab	nvidia	ptx_ab-imm	GPU	GPU	GPU	True	0.650362	0.650362	1.0
ptx_ab	nvidia	ptx_ab-imm	GPU	GPU	CPU	False	8.980768	11.397604	0.787952274881633
ptx_ab	nvidia	ptx_ab-imm	GPU	CPU	CPU	True	36.508346	22.067384	1.6544029867790402
ptx_ab	nvidia	ptx_ab-imm	GPU	GPU	GPU	True	0.08912	0.08912	1.0
ptx_ab	nvidia	ptx_ab-imm	GPU	GPU	GPU	True	0.091546	0.091546	1.0
ptx_ab	nvidia	ptx_ab-imm	GPU	GPU	GPU	True	3.01305	3.01305	1.0
ptx_ab	nvidia	ptx_ab-imm	GPU	GPU	GPU	True	4.268594	4.268594	1.0
ptx_ab	nvidia	ptx_ab-imm	GPU	CPU	CPU	True	150.468418	90.055493	1.6708410890604977
ptx_ab	nvidia	ptx_ab-imm	GPU	CPU	CPU	True	0.158803	0.095995	1.6542840772956926
ptx_ab	nvidia	ptx_ab-imm	GPU	CPU	CPU	True	0.720145	0.585437	1.2300982001479237
ptx_ab	nvidia	ptx_ab-imm	GPU	CPU	CPU	True	0.14996099999999998	0.09414	1.5929572976418098
ptx_ab	nvidia	ptx_ab-imm	GPU	CPU	CPU	True	86.14688199999998	45.644763	1.8873333179536935
ptx_ab	nvidia	ptx_ab-imm	GPU	CPU	GPU	False	373.863821	373.863821	1.0
ptx_ab	nvidia	ptx_ab-imm	GPU	CPU	CPU	True	93.866067	51.696795	1.8157037974984716
ptx_ab	nvidia	ptx_ab-imm	GPU	GPU	GPU	True	2.834735	2.834735	1.0
ptx_ab	nvidia	ptx_ab-imm	GPU	CPU	CPU	True	13.741414	6.309551	2.177875097609957
ptx_ab	nvidia	ptx_ab-imm	GPU	CPU	CPU	True	13.741799	6.344937	2.1657896682031677
ptx_ab	nvidia	ptx_ab-imm	GPU	CPU	CPU	True	13.752907	6.472397	2.124855289315535
ptx_ab	nvidia	ptx_ab-imm	GPU	GPU	CPU	False	13.866565	14.887798000000002	0.931404697994962
ptx_ab	nvidia	ptx_ab-imm	GPU	CPU	CPU	True	13.828788	8.440195	1.6384441354731734
ptx_ab	nvidia	ptx_ab-imm	GPU	CPU	CPU	True	13.753116	6.4832519999999985	2.1213298511302665
ptx_ab	nvidia	ptx_ab-imm	GPU	CPU	CPU	True	16.868038000000002	4.011485	4.204936077288087
ptx_ab	nvidia	ptx_ab-imm	GPU	GPU	CPU	False	0.124211	0.277644	0.44737505582688625
ptx_ab	nvidia	ptx_ab-imm	GPU	GPU	CPU	False	0.03863	0.336185	0.11490697086425627
ptx_ab	nvidia	ptx_ab-imm	GPU	GPU	CPU	False	0.023642	0.130323	0.18141080239098242
ptx_ab	nvidia	ptx_ab-imm	GPU	GPU	GPU	True	0.075764	0.075764	1.0
ptx_ab	nvidia	ptx_ab-imm	GPU	GPU	GPU	True	0.723952	0.723952	1.0
ptx_ab	nvidia	ptx_ab-imm	GPU	GPU	GPU	True	0.241985	0.241985	1.0
ptx_ab	nvidia	ptx_ab-imm	GPU	CPU	CPU	True	4.531341	1.9790330000000005	2.289674300529602
ptx_ab	nvidia	ptx_ab-imm	GPU	CPU	GPU	False	0.194586	0.194586	1.0
ptx_ab	nvidia	ptx_ab-imm	GPU	GPU	GPU	True	0.08775	0.08775	1.0
ptx_ab	nvidia	ptx_ab-imm	GPU	GPU	GPU	True	0.09384	0.09384	1.0
ptx_ab	nvidia	ptx_ab-imm	GPU	CPU	CPU	True	0.311251	0.111703	2.786415763229278
ptx_ab	nvidia	ptx_ab-imm	GPU	GPU	GPU	True	0.297074	0.297074	1.0
ptx_ab	nvidia	ptx_ab-imm	GPU	GPU	GPU	True	0.038106	0.038106	1.0
ptx_ab	nvidia	ptx_ab-imm	GPU	CPU	GPU	False	55.812966	55.812966	1.0
ptx_ab	nvidia	ptx_ab-imm	GPU	GPU	GPU	True	0.044941	0.044941	1.0
ptx_ab	nvidia	ptx_ab-imm	GPU	GPU	GPU	True	1652.365248	1652.365248	1.0
ptx_ab	nvidia	ptx_ab-imm	GPU	GPU	GPU	True	40.543268	40.543268	1.0
ptx_ab	nvidia	ptx_ab-imm	GPU	GPU	GPU	True	0.146387	0.146387	1.0
ptx_ab	nvidia	ptx_ab-imm	GPU	GPU	GPU	True	9.011091	9.011091	1.0
ptx_ab	nvidia	ptx_ab-imm	GPU	CPU	GPU	False	0.168998	0.168998	1.0
ptx_ab	nvidia	ptx_ab-imm	GPU	CPU	GPU	False	0.175413	0.175413	1.0
ptx_ab	nvidia	ptx_ab-imm	GPU	CPU	CPU	True	0.177568	0.129024	1.3762400793650793
ptx_ab	nvidia	ptx_ab-imm	GPU	CPU	CPU	True	0.243006	0.161965	1.500361189145803
ptx_ab	nvidia	ptx_ab-imm	GPU	CPU	CPU	True	0.175723	0.129117	1.3609594398878535
ptx_ab	nvidia	ptx_ab-imm	GPU	GPU	CPU	False	0.20498400000000008	0.252408	0.8121137206427691
ptx_ab	nvidia	ptx_ab-imm	GPU	CPU	GPU	False	0.18593	0.18593	1.0
ptx_ab	nvidia	ptx_ab-imm	GPU	GPU	GPU	True	0.600774	0.600774	1.0
ptx_ab	nvidia	ptx_ab-imm	GPU	GPU	GPU	True	0.245124	0.245124	1.0
ptx_ab	nvidia	ptx_ab-imm	GPU	GPU	GPU	True	0.168602	0.168602	1.0
ptx_ab	nvidia	ptx_ab-imm	GPU	GPU	GPU	True	0.174714	0.174714	1.0
ptx_ab	nvidia	ptx_ab-imm	GPU	GPU	GPU	True	0.334422	0.334422	1.0
ptx_ab	nvidia	ptx_ab-imm	GPU	GPU	GPU	True	0.876705	0.876705	1.0
ptx_ab	nvidia	ptx_ab-imm	GPU	CPU	CPU	True	6962.692977	1929.266915	3.6089837662509234
ptx_ab	nvidia	ptx_ab-imm	GPU	CPU	CPU	True	882.7431339999997	205.88873	4.287476706471499
ptx_ab	nvidia	ptx_ab-imm	GPU	CPU	CPU	True	884.458454	252.967088	3.4963380453665973
ptx_ab	nvidia	ptx_ab-imm	GPU	CPU	CPU	True	115.184894	40.711093	2.8293245283294164
ptx_ab	nvidia	ptx_ab-imm	GPU	CPU	CPU	True	885.814916	226.223748	3.9156583861390186
ptx_ab	nvidia	ptx_ab-imm	GPU	CPU	CPU	True	3.124982	1.074665	2.9078661722490264
ptx_ab	nvidia	ptx_ab-imm	GPU	GPU	GPU	True	0.494784	0.494784	1.0
ptx_ab	nvidia	ptx_ab-imm	GPU	GPU	GPU	True	4.35529	4.35529	1.0
ptx_ab	nvidia	ptx_ab-imm	GPU	GPU	GPU	True	0.441266	0.441266	1.0
ptx_ab	nvidia	ptx_ab-imm	GPU	GPU	GPU	True	0.117512	0.117512	1.0
ptx_ab	nvidia	ptx_ab-imm	GPU	GPU	GPU	True	1.978434	1.978434	1.0
ptx_ab	nvidia	ptx_ab-imm	GPU	GPU	CPU	False	28.37936	29.020662	0.9779018824587805
ptx_ab	nvidia	ptx_ab-imm	GPU	GPU	GPU	True	0.691347	0.691347	1.0
ptx_ab	nvidia	ptx_ab-imm	GPU	CPU	GPU	False	7.543866	7.543866	1.0
ptx_ab	nvidia	ptx_ab-imm	GPU	GPU	GPU	True	1.376243	1.376243	1.0
ptx_ab	nvidia	ptx_ab-imm	GPU	GPU	GPU	True	0.085837	0.085837	1.0
ptx_ab	nvidia	ptx_ab-imm	GPU	GPU	GPU	True	0.091488	0.091488	1.0
ptx_ab	nvidia	ptx_ab-imm	GPU	GPU	GPU	True	0.111361	0.111361	1.0
ptx_ab	nvidia	ptx_ab-imm	GPU	CPU	CPU	True	5.600954	2.736427	2.0468128694827232
ptx_ab	nvidia	ptx_ab-imm	GPU	GPU	GPU	True	1.108024	1.108024	1.0
ptx_ab	nvidia	ptx_ab-imm	GPU	CPU	CPU	True	34.07425	22.022122	1.5472736914271932
ptx_ab	nvidia	ptx_ab-imm	GPU	CPU	GPU	False	100.12081	100.12081	1.0
ptx_ab	nvidia	ptx_ab-imm	GPU	CPU	CPU	True	340.749274	149.02926100000005	2.2864588585727463
ptx_ab	nvidia	ptx_ab-imm	GPU	GPU	CPU	False	0.08391	0.54973	0.1526385680243028
ptx_ab	nvidia	ptx_ab-imm	GPU	CPU	CPU	True	30.27592700000001	20.256719	1.4946115903567607
ptx_ab	nvidia	ptx_ab-imm	GPU	CPU	CPU	True	434.472666	213.106556	2.038757859706578
ptx_ab	nvidia	ptx_ab-imm	GPU	GPU	CPU	False	0.17941500000000002	0.289822	0.6190523838770003
ptx_ab	nvidia	ptx_ab-imm	GPU	CPU	CPU	True	47.118682	27.67397	1.7026354368382997
ptx_ab	nvidia	ptx_ab-imm	GPU	GPU	CPU	False	12.803757	14.083006	0.9091636402057913
ptx_ab	nvidia	ptx_ab-imm	GPU	GPU	GPU	True	17.082582000000002	17.082582000000002	1.0
ptx_ab	nvidia	ptx_ab-imm	GPU	GPU	CPU	False	13.154381	42.386673	0.31034238049303847
ptx_ab	nvidia	ptx_ab-imm	GPU	CPU	GPU	False	32.737122	32.737122	1.0
ptx_ab	nvidia	ptx_ab-imm	GPU	CPU	GPU	False	32.736686	32.736686	1.0
ptx_ab	nvidia	ptx_ab-imm	GPU	CPU	CPU	True	3640.236157	777.8945669999997	4.679600952914228
ptx_ab	nvidia	ptx_ab-imm	GPU	CPU	CPU	True	3640.754419	863.5010960000003	4.21627075618674
ptx_ab	nvidia	ptx_ab-imm	GPU	CPU	CPU	True	23.415551	8.993403	2.6036363543366177
ptx_ab	nvidia	ptx_ab-imm	GPU	CPU	CPU	True	13.741217	6.207221	2.213747021412642
ptx_ab	nvidia	ptx_ab-imm	GPU	GPU	GPU	True	0.057834	0.057834	1.0
ptx_ab	nvidia	ptx_ab-imm	GPU	GPU	GPU	True	1.997728	1.997728	1.0
ptx_ab	nvidia	ptx_ab-imm	GPU	GPU	CPU	False	0.022842	0.147294	0.15507759990223635
ptx_ab	nvidia	ptx_ab-imm	GPU	GPU	GPU	True	2.312966	2.312966	1.0
ptx_ab	nvidia	ptx_ab-imm	GPU	GPU	GPU	True	2.266112	2.266112	1.0
ptx_ab	nvidia	ptx_ab-imm	GPU	GPU	GPU	True	0.485853	0.485853	1.0
ptx_ab	nvidia	ptx_ab-imm	GPU	GPU	GPU	True	1.2834139999999998	1.2834139999999998	1.0
ptx_ab	nvidia	ptx_ab-imm	GPU	GPU	GPU	True	1.977856	1.977856	1.0
ptx_ab	nvidia	ptx_ab-imm	GPU	CPU	CPU	True	36.601139	18.217334	2.0091380549975097
ptx_ab	nvidia	ptx_ab-imm	GPU	CPU	CPU	True	0.196896	0.155997	1.262178118809977
ptx_ab	nvidia	ptx_ab-imm	GPU	CPU	CPU	True	7.534642999999999	2.745603	2.7442580008835944
ptx_ab	nvidia	ptx_ab-imm	GPU	CPU	GPU	False	0.08207300000000001	0.08207300000000001	1.0
ptx_ab	nvidia	ptx_ab-imm	GPU	CPU	CPU	True	29.466055	21.609073	1.3635964393289801
ptx_ab	nvidia	ptx_ab-imm	GPU	GPU	GPU	True	0.508358	0.508358	1.0
ptx_ab	nvidia	ptx_ab-imm	GPU	GPU	GPU	True	6.720049	6.720049	1.0
ptx_ab	nvidia	ptx_ab-imm	GPU	GPU	GPU	True	0.477415	0.477415	1.0
ptx_ab	nvidia	ptx_ab-imm	GPU	GPU	GPU	True	0.089737	0.089737	1.0
ptx_ab	nvidia	ptx_ab-imm	GPU	GPU	GPU	True	8.431682	8.431682	1.0
ptx_ab	nvidia	ptx_ab-imm	GPU	GPU	GPU	True	0.506691	0.506691	1.0
ptx_ab	nvidia	ptx_ab-imm	GPU	GPU	GPU	True	19.804667	19.804667	1.0
ptx_ab	nvidia	ptx_ab-imm	GPU	GPU	GPU	True	0.046195	0.046195	1.0
ptx_ab	nvidia	ptx_ab-imm	GPU	GPU	GPU	True	0.069222	0.069222	1.0
ptx_ab	nvidia	ptx_ab-imm	GPU	GPU	GPU	True	8790.892774	8790.892774	1.0
ptx_ab	nvidia	ptx_ab-imm	GPU	CPU	GPU	False	410.31199999999995	410.31199999999995	1.0
ptx_ab	nvidia	ptx_ab-imm	GPU	GPU	GPU	True	214.355085	214.355085	1.0
ptx_ab	nvidia	ptx_ab-imm	GPU	GPU	GPU	True	1.549071	1.549071	1.0
ptx_ab	nvidia	ptx_ab-imm	GPU	GPU	GPU	True	0.147318	0.147318	1.0
ptx_ab	nvidia	ptx_ab-imm	GPU	CPU	GPU	False	18.127798	18.127798	1.0
ptx_ab	nvidia	ptx_ab-imm	GPU	CPU	CPU	True	0.273395	0.197901	1.381473565065361
ptx_ab	nvidia	ptx_ab-imm	GPU	CPU	CPU	True	110.303002	58.778884	1.8765753021101934
ptx_ab	nvidia	ptx_ab-imm	GPU	CPU	CPU	True	16.852732999999994	8.704397	1.936117229028041
ptx_ab	nvidia	ptx_ab-imm	GPU	CPU	CPU	True	0.19685	0.13301500000000002	1.4799082810209372
ptx_ab	nvidia	ptx_ab-imm	GPU	CPU	CPU	True	0.164474	0.105823	1.5542367916237492
ptx_ab	nvidia	ptx_ab-imm	GPU	GPU	CPU	False	0.177491	0.209173	0.8485368570513403
ptx_ab	nvidia	ptx_ab-imm	GPU	CPU	CPU	True	0.166432	0.127348	1.3069070578258002
ptx_ab	nvidia	ptx_ab-imm	GPU	GPU	GPU	True	0.644343	0.644343	1.0
ptx_ab	nvidia	ptx_ab-imm	GPU	GPU	GPU	True	15.770791	15.770791	1.0
ptx_ab	nvidia	ptx_ab-imm	GPU	GPU	GPU	True	2.202026	2.202026	1.0
ptx_ab	nvidia	ptx_ab-imm	GPU	GPU	CPU	False	1.021203	6.772957000000001	0.15077653674753877
ptx_ab	nvidia	ptx_ab-imm	GPU	CPU	CPU	True	7012.8094299999975	3183.317975	2.2029874128424125
ptx_ab	nvidia	ptx_ab-imm	GPU	GPU	GPU	True	0.932716	0.932716	1.0
ptx_ab	nvidia	ptx_ab-imm	GPU	GPU	GPU	True	0.481165	0.481165	1.0
ptx_ab	nvidia	ptx_ab-imm	GPU	CPU	GPU	False	0.099552	0.099552	1.0
ptx_ab	nvidia	ptx_ab-imm	GPU	GPU	GPU	True	0.478202	0.478202	1.0
ptx_ab	nvidia	ptx_ab-imm	GPU	GPU	GPU	True	0.110426	0.110426	1.0
ptx_ab	nvidia	ptx_ab-imm	GPU	GPU	GPU	True	0.287875	0.287875	1.0
ptx_ab	nvidia	ptx_ab-imm	GPU	GPU	GPU	True	5.617242	5.617242	1.0
ptx_ab	nvidia	ptx_ab-imm	GPU	GPU	GPU	True	0.132582	0.132582	1.0
ptx_ab	nvidia	ptx_ab-imm	GPU	GPU	GPU	True	0.779997	0.779997	1.0
ptx_ab	nvidia	ptx_ab-imm	GPU	CPU	CPU	True	2.140109	0.402366	5.318811728625182
ptx_ab	nvidia	ptx_ab-imm	GPU	GPU	GPU	True	0.07627	0.07627	1.0
ptx_ab	nvidia	ptx_ab-imm	GPU	GPU	GPU	True	0.124129	0.124129	1.0
ptx_ab	nvidia	ptx_ab-imm	GPU	CPU	CPU	True	6.022881	5.191868	1.1600605023086101
ptx_ab	nvidia	ptx_ab-imm	GPU	CPU	CPU	True	24.087671	23.865347	1.0093157664960832
ptx_ab	nvidia	ptx_ab-imm	GPU	CPU	CPU	True	0.151499	0.095157	1.5920951690364344
ptx_ab	nvidia	ptx_ab-imm	GPU	GPU	CPU	False	307.559469	389.4035	0.7898220457700046
ptx_ab	nvidia	ptx_ab-imm	GPU	CPU	CPU	True	89.567181	71.003148	1.2614536611813325
ptx_ab	nvidia	ptx_ab-imm	GPU	CPU	GPU	False	131.49565800000002	131.49565800000002	1.0
ptx_ab	nvidia	ptx_ab-imm	GPU	GPU	GPU	True	8.797613	8.797613	1.0
ptx_ab	nvidia	ptx_ab-imm	GPU	CPU	CPU	True	47.084806	26.949136	1.7471731190194744
ptx_ab	nvidia	ptx_ab-imm	GPU	CPU	GPU	False	42.710883	42.710883	1.0
ptx_ab	nvidia	ptx_ab-imm	GPU	CPU	CPU	True	94.198816	47.802033	1.9706027147422787
ptx_ab	nvidia	ptx_ab-imm	GPU	GPU	CPU	False	6.065048	6.393171	0.9486760169562178
ptx_ab	nvidia	ptx_ab-imm	GPU	CPU	GPU	False	6.071564	6.071564	1.0
ptx_ab	nvidia	ptx_ab-imm	GPU	CPU	GPU	False	3.390369	3.390369	1.0
ptx_ab	nvidia	ptx_ab-imm	GPU	CPU	CPU	True	3.045316	2.117275	1.4383185934751037
ptx_ab	nvidia	ptx_ab-imm	GPU	CPU	CPU	True	13.791315	6.9780789999999975	1.9763770229600448
ptx_ab	nvidia	ptx_ab-imm	GPU	CPU	CPU	True	13.761647	6.726004	2.0460361010787387
ptx_ab	nvidia	ptx_ab-imm	GPU	GPU	CPU	False	0.08784600000000001	0.156639	0.5608181870415414
ptx_ab	nvidia	ptx_ab-imm	GPU	GPU	GPU	True	0.088408	0.088408	1.0
ptx_ab	nvidia	ptx_ab-imm	GPU	GPU	GPU	True	0.12849000000000002	0.12849000000000002	1.0
ptx_ab	nvidia	ptx_ab-imm	GPU	CPU	CPU	True	0.718982	0.221967	3.239139151315286
ptx_ab	nvidia	ptx_ab-imm	GPU	GPU	GPU	True	0.07534099999999999	0.07534099999999999	1.0
ptx_ab	nvidia	ptx_ab-imm	GPU	GPU	GPU	True	1.378586	1.378586	1.0
ptx_ab	nvidia	ptx_ab-imm	GPU	GPU	GPU	True	0.096502	0.096502	1.0
ptx_ab	nvidia	ptx_ab-imm	GPU	GPU	GPU	True	0.095251	0.095251	1.0
ptx_ab	nvidia	ptx_ab-imm	GPU	GPU	GPU	True	0.089574	0.089574	1.0
ptx_ab	nvidia	ptx_ab-imm	GPU	CPU	GPU	False	0.33031	0.33031	1.0
ptx_ab	nvidia	ptx_ab-imm	GPU	GPU	GPU	True	18.557904	18.557904	1.0
ptx_ab	nvidia	ptx_ab-imm	GPU	CPU	CPU	True	1.296882	0.817419	1.586557200162952
ptx_ab	nvidia	ptx_ab-imm	GPU	GPU	GPU	True	0.079238	0.079238	1.0
ptx_ab	nvidia	ptx_ab-imm	GPU	GPU	GPU	True	0.037549	0.037549	1.0
ptx_ab	nvidia	ptx_ab-imm	GPU	GPU	GPU	True	0.045997	0.045997	1.0
ptx_ab	nvidia	ptx_ab-imm	GPU	GPU	GPU	True	0.038176	0.038176	1.0
ptx_ab	nvidia	ptx_ab-imm	GPU	GPU	GPU	True	0.05313300000000002	0.05313300000000002	1.0
ptx_ab	nvidia	ptx_ab-imm	GPU	GPU	GPU	True	0.037651	0.037651	1.0
ptx_ab	nvidia	ptx_ab-imm	GPU	CPU	GPU	False	0.160998	0.160998	1.0
ptx_ab	nvidia	ptx_ab-imm	GPU	GPU	GPU	True	0.09401	0.09401	1.0
ptx_ab	nvidia	ptx_ab-imm	GPU	CPU	GPU	False	0.202317	0.202317	1.0
ptx_ab	nvidia	ptx_ab-imm	GPU	GPU	GPU	True	0.135955	0.135955	1.0
ptx_ab	nvidia	ptx_ab-imm	GPU	GPU	GPU	True	0.07504	0.07504	1.0
ptx_ab	nvidia	ptx_ab-imm	GPU	GPU	GPU	True	6089.062272	6089.062272	1.0
ptx_ab	nvidia	ptx_ab-imm	GPU	GPU	GPU	True	205.267812	205.267812	1.0
ptx_ab	nvidia	ptx_ab-imm	GPU	GPU	GPU	True	46.953337	46.953337	1.0
ptx_ab	nvidia	ptx_ab-imm	GPU	GPU	GPU	True	2.748011	2.748011	1.0
ptx_ab	nvidia	ptx_ab-imm	GPU	GPU	GPU	True	13.439819	13.439819	1.0
ptx_ab	nvidia	ptx_ab-imm	GPU	CPU	CPU	True	7.227514	1.851308	3.9040040879205407
ptx_ab	nvidia	ptx_ab-imm	GPU	GPU	CPU	False	0.181075	0.23933	0.7565913174278194
ptx_ab	nvidia	ptx_ab-imm	GPU	CPU	CPU	True	0.174317	0.156723	1.112261761196506
ptx_ab	nvidia	ptx_ab-imm	GPU	CPU	CPU	True	0.161645	0.102889	1.5710620182915571
ptx_ab	nvidia	ptx_ab-imm	GPU	CPU	GPU	False	0.163981	0.163981	1.0
ptx_ab	nvidia	ptx_ab-imm	GPU	GPU	CPU	False	0.435158	0.722348	0.6024215475089569
ptx_ab	nvidia	ptx_ab-imm	GPU	CPU	GPU	False	0.160242	0.160242	1.0
ptx_ab	nvidia	ptx_ab-imm	GPU	GPU	GPU	True	4.4442260000000005	4.4442260000000005	1.0
ptx_ab	nvidia	ptx_ab-imm	GPU	CPU	CPU	True	882.409966	203.175957	4.343082611886012
ptx_ab	nvidia	ptx_ab-imm	GPU	CPU	CPU	True	884.5824789999997	203.979959	4.336614652422789
ptx_ab	nvidia	ptx_ab-imm	GPU	CPU	CPU	True	114.765079	29.50718	3.8893950218218074
ptx_ab	nvidia	ptx_ab-imm	GPU	CPU	CPU	True	882.724785	206.261393	4.279641343254188
ptx_ab	nvidia	ptx_ab-imm	GPU	CPU	CPU	True	882.514099	208.634422	4.229954436761159
ptx_ab	nvidia	ptx_ab-imm	GPU	CPU	CPU	True	6962.955425	1942.742741	3.5840851586020674
ptx_ab	nvidia	ptx_ab-imm	GPU	CPU	CPU	True	124.797171	35.53405	3.5120446726449703
ptx_ab	nvidia	ptx_ab-imm	GPU	GPU	GPU	True	5.73091	5.73091	1.0
ptx_ab	nvidia	ptx_ab-imm	GPU	GPU	GPU	True	0.23215	0.23215	1.0
ptx_ab	nvidia	ptx_ab-imm	GPU	GPU	GPU	True	1.978411	1.978411	1.0
ptx_ab	nvidia	ptx_ab-imm	GPU	CPU	CPU	True	184.40336	85.07130500000002	2.1676329051258816
ptx_ab	nvidia	ptx_ab-imm	GPU	GPU	GPU	True	21.030755	21.030755	1.0
ptx_ab	nvidia	ptx_ab-imm	GPU	CPU	CPU	True	0.10841	0.08354400000000001	1.2976395671741836
ptx_ab	nvidia	ptx_ab-imm	GPU	GPU	CPU	False	4.132469	5.767824	0.7164693305482276
ptx_ab	nvidia	ptx_ab-imm	GPU	CPU	CPU	True	105.938236	97.363932	1.0880644795651844
ptx_ab	nvidia	ptx_ab-imm	GPU	CPU	CPU	True	0.644093	0.520154	1.2382736651068722
ptx_ab	nvidia	ptx_ab-imm	GPU	CPU	CPU	True	373.336252	173.621273	2.150290949657995
ptx_ab	nvidia	ptx_ab-imm	GPU	CPU	CPU	True	5.3761470000000005	2.375364	2.263293962525323
ptx_ab	nvidia	ptx_ab-imm	GPU	GPU	GPU	True	6.030547	6.030547	1.0
ptx_ab	nvidia	ptx_ab-imm	GPU	GPU	GPU	True	193.700102	193.700102	1.0
ptx_ab	nvidia	ptx_ab-imm	GPU	GPU	GPU	True	8.792845	8.792845	1.0
ptx_ab	nvidia	ptx_ab-imm	GPU	GPU	GPU	True	8.822573	8.822573	1.0
ptx_ab	nvidia	ptx_ab-imm	GPU	CPU	CPU	True	33.808365	25.37265	1.3324727610241738
ptx_ab	nvidia	ptx_ab-imm	GPU	GPU	GPU	True	2185.144691	2185.144691	1.0
ptx_ab	nvidia	ptx_ab-imm	GPU	GPU	GPU	True	5.2322370000000005	5.2322370000000005	1.0
ptx_ab	nvidia	ptx_ab-imm	GPU	CPU	CPU	True	42.955298	23.390468	1.83644457220779
ptx_ab	nvidia	ptx_ab-imm	GPU	CPU	GPU	False	33.588006	33.588006	1.0
ptx_ab	nvidia	ptx_ab-imm	GPU	CPU	GPU	False	0.8596729999999999	0.8596729999999999	1.0
ptx_ab	nvidia	ptx_ab-imm	GPU	GPU	GPU	True	92.492152	92.492152	1.0
ptx_ab	nvidia	ptx_ab-imm	GPU	GPU	CPU	False	14.424173	112.114833	0.12865534928817135
ptx_ab	nvidia	ptx_ab-imm	GPU	CPU	CPU	True	13.73784	6.23194	2.204424304470197
ptx_ab	nvidia	ptx_ab-imm	GPU	CPU	GPU	False	3184.516221000001	3184.516221000001	1.0
ptx_ab	nvidia	ptx_ab-imm	GPU	GPU	CPU	False	0.31719	0.398413	0.7961336602972293
ptx_ab	nvidia	ptx_ab-imm	GPU	GPU	CPU	False	0.302221	0.37436	0.807300459450796
ptx_ab	nvidia	ptx_ab-imm	GPU	GPU	GPU	True	0.294762	0.294762	1.0
ptx_ab	nvidia	ptx_ab-imm	GPU	GPU	GPU	True	0.084941	0.084941	1.0
ptx_ab	nvidia	ptx_ab-imm	GPU	GPU	GPU	True	0.08894400000000001	0.08894400000000001	1.0
ptx_ab	nvidia	ptx_ab-imm	GPU	GPU	GPU	True	0.088336	0.088336	1.0
ptx_ab	nvidia	ptx_ab-imm	GPU	GPU	GPU	True	5.884274	5.884274	1.0
ptx_ab	nvidia	ptx_ab-imm	GPU	GPU	GPU	True	0.086755	0.086755	1.0
ptx_ab	nvidia	ptx_ab-imm	GPU	CPU	GPU	False	0.32060700000000003	0.32060700000000003	1.0
ptx_ab	nvidia	ptx_ab-imm	GPU	CPU	CPU	True	0.082006	0.070637	1.1609496439543014
ptx_ab	nvidia	ptx_ab-imm	GPU	GPU	GPU	True	0.05741900000000001	0.05741900000000001	1.0
ptx_ab	nvidia	ptx_ab-imm	GPU	GPU	GPU	True	0.169369	0.169369	1.0
ptx_ab	nvidia	ptx_ab-imm	GPU	GPU	GPU	True	0.38121	0.38121	1.0
ptx_ab	nvidia	ptx_ab-imm	GPU	GPU	GPU	True	0.038445	0.038445	1.0
ptx_ab	nvidia	ptx_ab-imm	GPU	GPU	CPU	False	933.519002	968.658729	0.9637233156033429
ptx_ab	nvidia	ptx_ab-imm	GPU	CPU	CPU	True	25.21479	24.525621	1.0280999612609198
ptx_ab	nvidia	ptx_ab-imm	GPU	GPU	GPU	True	0.120038	0.120038	1.0
ptx_ab	nvidia	ptx_ab-imm	GPU	GPU	GPU	True	16365.527872	16365.527872	1.0
ptx_ab	nvidia	ptx_ab-imm	GPU	GPU	GPU	True	2.663583	2.663583	1.0
ptx_ab	nvidia	ptx_ab-imm	GPU	GPU	GPU	True	2.897609	2.897609	1.0
ptx_ab	nvidia	ptx_ab-imm	GPU	GPU	GPU	True	0.220394	0.220394	1.0
ptx_ab	nvidia	ptx_ab-imm	GPU	GPU	GPU	True	0.272277	0.272277	1.0
ptx_ab	nvidia	ptx_ab-imm	GPU	CPU	GPU	False	0.170098	0.170098	1.0
ptx_ab	nvidia	ptx_ab-imm	GPU	CPU	CPU	True	0.762886	0.587849	1.2977584379662124
ptx_ab	nvidia	ptx_ab-imm	GPU	CPU	CPU	True	0.273766	0.213573	1.2818380600544077
ptx_ab	nvidia	ptx_ab-imm	GPU	CPU	CPU	True	2.4390560000000003	0.73456	3.3204312785885435
ptx_ab	nvidia	ptx_ab-imm	GPU	CPU	CPU	True	6.3242	2.542532	2.487362990908276
ptx_ab	nvidia	ptx_ab-imm	GPU	GPU	GPU	True	0.192883	0.192883	1.0
ptx_ab	nvidia	ptx_ab-imm	GPU	CPU	GPU	False	0.162012	0.162012	1.0
ptx_ab	nvidia	ptx_ab-imm	GPU	GPU	GPU	True	3.601496	3.601496	1.0
ptx_ab	nvidia	ptx_ab-imm	GPU	CPU	GPU	False	0.188	0.188	1.0
ptx_ab	nvidia	ptx_ab-imm	GPU	CPU	CPU	True	884.6094320000003	204.017944	4.33593935247186
ptx_ab	nvidia	ptx_ab-imm	GPU	CPU	CPU	True	114.76537	29.511387	3.888850429158074
ptx_ab	nvidia	ptx_ab-imm	GPU	CPU	CPU	True	6979.1043519999985	2160.848671	3.2297978315946576
ptx_ab	nvidia	ptx_ab-imm	GPU	CPU	CPU	True	3.122766	1.0276040000000002	3.0388807361590646
ptx_ab	nvidia	ptx_ab-imm	GPU	CPU	CPU	True	114.953475	33.428942	3.4387410466056627
ptx_ab	nvidia	ptx_ab-imm	GPU	CPU	CPU	True	114.803698	29.95948	3.8319656415932455
ptx_ab	nvidia	ptx_ab-imm	GPU	CPU	CPU	True	3.119828	1.007659	3.0961148563154794
ptx_ab	nvidia	ptx_ab-imm	GPU	CPU	CPU	True	114.780543	30.41236	3.774141270194092
ptx_ab	nvidia	ptx_ab-imm	GPU	CPU	CPU	True	125.536563	30.714688	4.087183402286229
ptx_ab	nvidia	ptx_ab-imm	GPU	GPU	GPU	True	3.648791000000001	3.648791000000001	1.0
ptx_ab	nvidia	ptx_ab-imm	GPU	GPU	GPU	True	3.018157	3.018157	1.0
ptx_ab	nvidia	ptx_ab-imm	GPU	GPU	GPU	True	0.109014	0.109014	1.0
ptx_ab	nvidia	ptx_ab-imm	GPU	CPU	CPU	True	0.196205	0.180384	1.0877073354621252
ptx_ab	nvidia	ptx_ab-imm	GPU	GPU	GPU	True	0.199507	0.199507	1.0
ptx_ab	nvidia	ptx_ab-imm	GPU	GPU	GPU	True	0.095373	0.095373	1.0
ptx_ab	nvidia	ptx_ab-imm	GPU	GPU	GPU	True	0.241425	0.241425	1.0
ptx_ab	nvidia	ptx_ab-imm	GPU	GPU	GPU	True	3.0242880000000003	3.0242880000000003	1.0
ptx_ab	nvidia	ptx_ab-imm	GPU	GPU	GPU	True	0.075807	0.075807	1.0
ptx_ab	nvidia	ptx_ab-imm	GPU	GPU	GPU	True	0.110647	0.110647	1.0
ptx_ab	nvidia	ptx_ab-imm	GPU	CPU	CPU	True	14.79776	8.938765	1.655459115437088
ptx_ab	nvidia	ptx_ab-imm	GPU	CPU	CPU	True	0.492294	0.110376	4.460154381387258
ptx_ab	nvidia	ptx_ab-imm	GPU	GPU	GPU	True	0.966128	0.966128	1.0
ptx_ab	nvidia	ptx_ab-imm	GPU	GPU	GPU	True	0.328735	0.328735	1.0
ptx_ab	nvidia	ptx_ab-imm	GPU	GPU	CPU	False	4.111482	5.766558	0.7129871927066371
ptx_ab	nvidia	ptx_ab-imm	GPU	GPU	GPU	True	60.304422	60.304422	1.0
ptx_ab	nvidia	ptx_ab-imm	GPU	CPU	CPU	True	439.536058	256.054548	1.7165719626272757
ptx_ab	nvidia	ptx_ab-imm	GPU	CPU	CPU	True	21.814216	15.51368	1.4061277530540786
ptx_ab	nvidia	ptx_ab-imm	GPU	GPU	CPU	False	86.72404499999998	100.052011	0.8667896240486359
ptx_ab	nvidia	ptx_ab-imm	GPU	GPU	GPU	True	91.805651	91.805651	1.0
ptx_ab	nvidia	ptx_ab-imm	GPU	GPU	GPU	True	99.987814	99.987814	1.0
ptx_ab	nvidia	ptx_ab-imm	GPU	CPU	GPU	False	6.038355	6.038355	1.0
ptx_ab	nvidia	ptx_ab-imm	GPU	GPU	CPU	False	5.54674	6.069057	0.9139377007004548
ptx_ab	nvidia	ptx_ab-imm	GPU	CPU	CPU	True	778.7560440000003	103.66546	7.512203621148262
ptx_ab	nvidia	ptx_ab-imm	GPU	GPU	CPU	False	13.85286	14.384527	0.9630389654105415
ptx_ab	nvidia	ptx_ab-imm	GPU	CPU	CPU	True	13.745767	6.276553	2.1900184703291763
ptx_ab	nvidia	ptx_ab-imm	GPU	CPU	CPU	True	3.6455	2.038006	1.7887582274046296
ptx_ab	nvidia	ptx_ab-imm	GPU	CPU	CPU	True	3.642489	2.03694	1.7882161477510383
ptx_ab	nvidia	ptx_ab-imm	GPU	GPU	GPU	True	0.070912	0.070912	1.0
ptx_ab	nvidia	ptx_ab-imm	GPU	GPU	GPU	True	0.259261	0.259261	1.0
ptx_ab	nvidia	ptx_ab-imm	GPU	GPU	GPU	True	0.7440140000000001	0.7440140000000001	1.0
ptx_ab	nvidia	ptx_ab-imm	GPU	CPU	GPU	False	0.10247	0.10247	1.0
ptx_ab	nvidia	ptx_ab-imm	GPU	GPU	GPU	True	0.085422	0.085422	1.0
ptx_ab	nvidia	ptx_ab-imm	GPU	GPU	GPU	True	0.07484199999999999	0.07484199999999999	1.0
ptx_ab	nvidia	ptx_ab-imm	GPU	GPU	GPU	True	0.12825599999999998	0.12825599999999998	1.0
ptx_ab	nvidia	ptx_ab-imm	GPU	GPU	GPU	True	0.08912	0.08912	1.0
ptx_ab	nvidia	ptx_ab-imm	GPU	GPU	GPU	True	0.125101	0.125101	1.0
ptx_ab	nvidia	ptx_ab-imm	GPU	CPU	CPU	True	2.904493	0.433096	6.706349169699097
ptx_ab	nvidia	ptx_ab-imm	GPU	CPU	CPU	True	108.439012	94.842892	1.1433541271601038
ptx_ab	nvidia	ptx_ab-imm	GPU	GPU	GPU	True	8.449017	8.449017	1.0
ptx_ab	nvidia	ptx_ab-imm	GPU	GPU	GPU	True	20.668229	20.668229	1.0
ptx_ab	nvidia	ptx_ab-imm	GPU	CPU	CPU	True	0.106994	0.093306	1.146700105030759
ptx_ab	nvidia	ptx_ab-imm	GPU	CPU	CPU	True	1.295833	0.7606350000000001	1.703620001709098
ptx_ab	nvidia	ptx_ab-imm	GPU	GPU	GPU	True	0.088234	0.088234	1.0
ptx_ab	nvidia	ptx_ab-imm	GPU	GPU	GPU	True	0.089533	0.089533	1.0
ptx_ab	nvidia	ptx_ab-imm	GPU	CPU	CPU	True	0.107028	0.092958	1.151358678112696
ptx_ab	nvidia	ptx_ab-imm	GPU	GPU	GPU	True	0.052912	0.052912	1.0
ptx_ab	nvidia	ptx_ab-imm	GPU	GPU	GPU	True	466.348704	466.348704	1.0
ptx_ab	nvidia	ptx_ab-imm	GPU	GPU	GPU	True	4382.712032	4382.712032	1.0
ptx_ab	nvidia	ptx_ab-imm	GPU	GPU	GPU	True	0.038317	0.038317	1.0
ptx_ab	nvidia	ptx_ab-imm	GPU	CPU	GPU	False	0.359896	0.359896	1.0
ptx_ab	nvidia	ptx_ab-imm	GPU	GPU	GPU	True	2.584282	2.584282	1.0
ptx_ab	nvidia	ptx_ab-imm	GPU	GPU	GPU	True	10.036589	10.036589	1.0
ptx_ab	nvidia	ptx_ab-imm	GPU	GPU	GPU	True	0.247171	0.247171	1.0
ptx_ab	nvidia	ptx_ab-imm	GPU	GPU	GPU	True	2.349901	2.349901	1.0
ptx_ab	nvidia	ptx_ab-imm	GPU	GPU	GPU	True	0.290554	0.290554	1.0
ptx_ab	nvidia	ptx_ab-imm	GPU	GPU	GPU	True	0.285554	0.285554	1.0
ptx_ab	nvidia	ptx_ab-imm	GPU	CPU	CPU	True	55.945395	16.298098	3.432633366175611
ptx_ab	nvidia	ptx_ab-imm	GPU	GPU	CPU	False	2.587027	3.567586	0.7251477609789925
ptx_ab	nvidia	ptx_ab-imm	GPU	CPU	GPU	False	0.169133	0.169133	1.0
ptx_ab	nvidia	ptx_ab-imm	GPU	CPU	GPU	False	0.166202	0.166202	1.0
ptx_ab	nvidia	ptx_ab-imm	GPU	CPU	GPU	False	0.174496	0.174496	1.0
ptx_ab	nvidia	ptx_ab-imm	GPU	GPU	GPU	True	0.259386	0.259386	1.0
ptx_ab	nvidia	ptx_ab-imm	GPU	CPU	CPU	True	0.163151	0.124726	1.3080753010599233
ptx_ab	nvidia	ptx_ab-imm	GPU	GPU	GPU	True	0.246694	0.246694	1.0
ptx_ab	nvidia	ptx_ab-imm	GPU	GPU	GPU	True	0.316701	0.316701	1.0
ptx_ab	nvidia	ptx_ab-imm	GPU	CPU	CPU	True	0.161327	0.12519	1.2886572409936896
ptx_ab	nvidia	ptx_ab-imm	GPU	CPU	CPU	True	882.44175	203.206624	4.342583586251598
ptx_ab	nvidia	ptx_ab-imm	GPU	CPU	CPU	True	3.119253	0.98411	3.1696182337340337
ptx_ab	nvidia	ptx_ab-imm	GPU	CPU	CPU	True	884.9154279999997	206.718894	4.280767040094553
ptx_ab	nvidia	ptx_ab-imm	GPU	CPU	CPU	True	886.631261	253.81844300000003	3.493171144383704
ptx_ab	nvidia	ptx_ab-imm	GPU	CPU	CPU	True	885.2793320000003	215.394182	4.110042916572372
ptx_ab	nvidia	ptx_ab-imm	GPU	CPU	CPU	True	114.865311	31.207518	3.680693575182749
ptx_ab	nvidia	ptx_ab-imm	GPU	CPU	CPU	True	884.923324	206.935909	4.27631592929577
ptx_ab	nvidia	ptx_ab-imm	GPU	CPU	GPU	False	7135.34553	7135.34553	1.0
ptx_ab	nvidia	ptx_ab-imm	GPU	CPU	CPU	True	4.933565	1.074993	4.589392675115093
ptx_ab	nvidia	ptx_ab-imm	GPU	GPU	GPU	True	1.274234	1.274234	1.0
ptx_ab	nvidia	ptx_ab-imm	GPU	GPU	GPU	True	0.785554	0.785554	1.0
ptx_ab	nvidia	ptx_ab-imm	GPU	GPU	GPU	True	2.283558	2.283558	1.0
ptx_ab	nvidia	ptx_ab-imm	GPU	GPU	CPU	False	41.020762	47.448023	0.8645410157552823
ptx_ab	nvidia	ptx_ab-imm	GPU	GPU	GPU	True	0.25397800000000004	0.25397800000000004	1.0
ptx_ab	nvidia	ptx_ab-imm	GPU	GPU	GPU	True	0.117267	0.117267	1.0
ptx_ab	nvidia	ptx_ab-imm	GPU	GPU	GPU	True	0.097626	0.097626	1.0
ptx_ab	nvidia	ptx_ab-imm	GPU	GPU	GPU	True	0.128928	0.128928	1.0
ptx_ab	nvidia	ptx_ab-imm	GPU	CPU	GPU	False	0.086275	0.086275	1.0
ptx_ab	nvidia	ptx_ab-imm	GPU	GPU	GPU	True	0.7817350000000001	0.7817350000000001	1.0
ptx_ab	nvidia	ptx_ab-imm	GPU	GPU	GPU	True	0.304546	0.304546	1.0
ptx_ab	nvidia	ptx_ab-imm	GPU	GPU	GPU	True	2166.647302	2166.647302	1.0
ptx_ab	nvidia	ptx_ab-imm	GPU	CPU	GPU	False	33.027296	33.027296	1.0
ptx_ab	nvidia	ptx_ab-imm	GPU	CPU	CPU	True	34.294434	13.862587	2.473884131439536
ptx_ab	nvidia	ptx_ab-imm	GPU	GPU	GPU	True	4.209037	4.209037	1.0
ptx_ab	nvidia	ptx_ab-imm	GPU	CPU	GPU	False	7.096717999999999	7.096717999999999	1.0
ptx_ab	nvidia	ptx_ab-imm	GPU	CPU	CPU	True	13.75096	6.325321	2.1739544917957523
ptx_ab	nvidia	ptx_ab-imm	GPU	GPU	GPU	True	8.607596000000001	8.607596000000001	1.0
ptx_ab	nvidia	ptx_ab-imm	GPU	CPU	GPU	False	8.478576	8.478576	1.0
ptx_ab	nvidia	ptx_ab-imm	GPU	CPU	CPU	True	48.005295	17.328426	2.770320570373789
ptx_ab	nvidia	ptx_ab-imm	GPU	GPU	GPU	True	0.07582799999999999	0.07582799999999999	1.0
ptx_ab	nvidia	ptx_ab-imm	GPU	GPU	GPU	True	0.136923	0.136923	1.0
ptx_ab	nvidia	ptx_ab-imm	GPU	GPU	GPU	True	0.4799020000000001	0.4799020000000001	1.0
ptx_ab	nvidia	ptx_ab-imm	GPU	GPU	GPU	True	0.128396	0.128396	1.0
ptx_ab	nvidia	ptx_ab-imm	GPU	GPU	GPU	True	0.21415	0.21415	1.0
ptx_ab	nvidia	ptx_ab-imm	GPU	GPU	GPU	True	0.092419	0.092419	1.0
ptx_ab	nvidia	ptx_ab-imm	GPU	GPU	GPU	True	5.6186110000000005	5.6186110000000005	1.0
ptx_ab	nvidia	ptx_ab-imm	GPU	GPU	GPU	True	0.517019	0.517019	1.0
ptx_ab	nvidia	ptx_ab-imm	GPU	GPU	GPU	True	28.769712	28.769712	1.0
ptx_ab	nvidia	ptx_ab-imm	GPU	GPU	GPU	True	28.784266	28.784266	1.0
ptx_ab	nvidia	ptx_ab-imm	GPU	GPU	GPU	True	1.12234	1.12234	1.0
ptx_ab	nvidia	ptx_ab-imm	GPU	CPU	CPU	True	29.459528	21.610194	1.3632236711988794
ptx_ab	nvidia	ptx_ab-imm	GPU	CPU	CPU	True	1.295919	0.731771	1.7709351696090718
ptx_ab	nvidia	ptx_ab-imm	GPU	GPU	GPU	True	0.058611	0.058611	1.0
ptx_ab	nvidia	ptx_ab-imm	GPU	GPU	GPU	True	0.952064	0.952064	1.0
ptx_ab	nvidia	ptx_ab-imm	GPU	GPU	GPU	True	0.037862	0.037862	1.0
ptx_ab	nvidia	ptx_ab-imm	GPU	GPU	GPU	True	0.038541000000000006	0.038541000000000006	1.0
ptx_ab	nvidia	ptx_ab-imm	GPU	CPU	GPU	False	4.545709	4.545709	1.0
ptx_ab	nvidia	ptx_ab-imm	GPU	GPU	GPU	True	0.083123	0.083123	1.0
ptx_ab	nvidia	ptx_ab-imm	GPU	CPU	CPU	True	5.335795	4.071752	1.3104420406743829
ptx_ab	nvidia	ptx_ab-imm	GPU	GPU	GPU	True	0.043706	0.043706	1.0
ptx_ab	nvidia	ptx_ab-imm	GPU	CPU	CPU	True	4.819744	1.907496	2.5267387192423993
ptx_ab	nvidia	ptx_ab-imm	GPU	GPU	GPU	True	0.224314	0.224314	1.0
ptx_ab	nvidia	ptx_ab-imm	GPU	CPU	CPU	True	0.293126	0.243562	1.2034964403314146
ptx_ab	nvidia	ptx_ab-imm	GPU	CPU	CPU	True	0.6282369999999999	0.50932	1.2334818974318698
ptx_ab	nvidia	ptx_ab-imm	GPU	CPU	CPU	True	21.515437	15.576715	1.3812563817210495
ptx_ab	nvidia	ptx_ab-imm	GPU	CPU	CPU	True	0.625075	0.505954	1.235438399538298
ptx_ab	nvidia	ptx_ab-imm	GPU	GPU	GPU	True	0.195962	0.195962	1.0
ptx_ab	nvidia	ptx_ab-imm	GPU	GPU	CPU	False	0.186502	0.275885	0.6760135563731265
ptx_ab	nvidia	ptx_ab-imm	GPU	GPU	GPU	True	5.9502	5.9502	1.0
ptx_ab	nvidia	ptx_ab-imm	GPU	GPU	GPU	True	6.364849	6.364849	1.0
ptx_ab	nvidia	ptx_ab-imm	GPU	GPU	GPU	True	0.42865	0.42865	1.0
ptx_ab	nvidia	ptx_ab-imm	GPU	GPU	GPU	True	0.273933	0.273933	1.0
ptx_ab	nvidia	ptx_ab-imm	GPU	CPU	GPU	False	0.176592	0.176592	1.0
ptx_ab	nvidia	ptx_ab-imm	GPU	GPU	GPU	True	0.16992000000000002	0.16992000000000002	1.0
ptx_ab	nvidia	ptx_ab-imm	GPU	CPU	GPU	False	0.189855	0.189855	1.0
ptx_ab	nvidia	ptx_ab-imm	GPU	GPU	GPU	True	0.584542	0.584542	1.0
ptx_ab	nvidia	ptx_ab-imm	GPU	CPU	CPU	True	114.816198	29.928851	3.8363049085980614
ptx_ab	nvidia	ptx_ab-imm	GPU	CPU	CPU	True	883.103924	214.557912	4.115923368978349
ptx_ab	nvidia	ptx_ab-imm	GPU	CPU	CPU	True	3.121093	0.997446	3.129084682278539
ptx_ab	nvidia	ptx_ab-imm	GPU	GPU	GPU	True	0.123975	0.123975	1.0
ptx_ab	nvidia	ptx_ab-imm	GPU	GPU	GPU	True	0.07645199999999999	0.07645199999999999	1.0
ptx_ab	nvidia	ptx_ab-imm	GPU	GPU	GPU	True	5.837442	5.837442	1.0
ptx_ab	nvidia	ptx_ab-imm	GPU	GPU	GPU	True	0.075241	0.075241	1.0
ptx_ab	nvidia	ptx_ab-imm	GPU	CPU	CPU	True	1.580973	0.483186	3.2719760092386783
ptx_ab	nvidia	ptx_ab-imm	GPU	GPU	CPU	False	0.59543	0.7462340000000001	0.7979132550915664
ptx_ab	nvidia	ptx_ab-imm	GPU	CPU	CPU	True	0.176877	0.17208800000000002	1.027828785272651
ptx_ab	nvidia	ptx_ab-imm	GPU	GPU	GPU	True	0.081014	0.081014	1.0
ptx_ab	nvidia	ptx_ab-imm	GPU	GPU	GPU	True	0.433421	0.433421	1.0
ptx_ab	nvidia	ptx_ab-imm	GPU	GPU	GPU	True	0.077206	0.077206	1.0
ptx_ab	nvidia	ptx_ab-imm	GPU	CPU	CPU	True	306.494944	149.31134699999996	2.0527237223303603
ptx_ab	nvidia	ptx_ab-imm	GPU	GPU	GPU	True	55.86466400000001	55.86466400000001	1.0
ptx_ab	nvidia	ptx_ab-imm	GPU	CPU	CPU	True	1.243547	0.891747	1.394506513618773
ptx_ab	nvidia	ptx_ab-imm	GPU	GPU	GPU	True	46.467942	46.467942	1.0
ptx_ab	nvidia	ptx_ab-imm	GPU	CPU	GPU	False	33.809453000000005	33.809453000000005	1.0
ptx_ab	nvidia	ptx_ab-imm	GPU	GPU	GPU	True	44.291337	44.291337	1.0
ptx_ab	nvidia	ptx_ab-imm	GPU	CPU	GPU	False	12.936256	12.936256	1.0
ptx_ab	nvidia	ptx_ab-imm	GPU	CPU	CPU	True	33.996683000000004	13.359851	2.544690281351192
ptx_ab	nvidia	ptx_ab-imm	GPU	CPU	GPU	False	6.058534	6.058534	1.0
ptx_ab	nvidia	ptx_ab-imm	GPU	GPU	GPU	True	0.7319869999999999	0.7319869999999999	1.0
ptx_ab	nvidia	ptx_ab-imm	GPU	CPU	CPU	True	95.064845	89.781172	1.0588505683574727
ptx_ab	nvidia	ptx_ab-imm	GPU	CPU	CPU	True	7.014929	3.016713	2.3253551133303034
ptx_ab	nvidia	ptx_ab-imm	GPU	CPU	CPU	True	13.743812	6.326207	2.1725201214566643
ptx_ab	nvidia	ptx_ab-imm	GPU	CPU	CPU	True	13.743028	6.321418	2.174041963369611
ptx_ab	nvidia	ptx_ab-imm	GPU	CPU	CPU	True	13.844573	8.655694	1.5994757901561676
ptx_ab	nvidia	ptx_ab-imm	GPU	CPU	CPU	True	16.880482	4.931584	3.422933077891404
ptx_ab	nvidia	ptx_ab-imm	GPU	CPU	GPU	False	3.646305	3.646305	1.0
ptx_ab	nvidia	ptx_ab-imm	GPU	GPU	CPU	False	0.152038	3.2910730000000004	0.04619709134376539
ptx_ab	nvidia	ptx_ab-imm	GPU	CPU	CPU	True	0.604686	0.283447	2.1333300405366784
ptx_ab	nvidia	ptx_ab-imm	GPU	GPU	GPU	True	0.049376	0.049376	1.0
ptx_ab	nvidia	ptx_ab-imm	GPU	GPU	GPU	True	0.081839	0.081839	1.0
ptx_ab	nvidia	ptx_ab-imm	GPU	GPU	GPU	True	1.978362	1.978362	1.0
ptx_ab	nvidia	ptx_ab-imm	GPU	GPU	GPU	True	0.477471	0.477471	1.0
ptx_ab	nvidia	ptx_ab-imm	GPU	CPU	CPU	True	11.324877	8.299583	1.3645115664244818
ptx_ab	nvidia	ptx_ab-imm	GPU	CPU	CPU	True	0.21065	0.096604	2.1805515299573517
ptx_ab	nvidia	ptx_ab-imm	GPU	GPU	GPU	True	0.087482	0.087482	1.0
ptx_ab	nvidia	ptx_ab-imm	GPU	GPU	GPU	True	1.182163	1.182163	1.0
ptx_ab	nvidia	ptx_ab-imm	GPU	GPU	GPU	True	0.173888	0.173888	1.0
ptx_ab	nvidia	ptx_ab-imm	GPU	GPU	GPU	True	31.181945	31.181945	1.0
ptx_ab	nvidia	ptx_ab-imm	GPU	CPU	CPU	True	29.463351	21.608036	1.3635367416085387
ptx_ab	nvidia	ptx_ab-imm	GPU	CPU	GPU	False	0.322296	0.322296	1.0
ptx_ab	nvidia	ptx_ab-imm	GPU	GPU	GPU	True	0.303849	0.303849	1.0
ptx_ab	nvidia	ptx_ab-imm	GPU	GPU	GPU	True	0.038394	0.038394	1.0
ptx_ab	nvidia	ptx_ab-imm	GPU	GPU	GPU	True	3632.788019	3632.788019	1.0
ptx_ab	nvidia	ptx_ab-imm	GPU	GPU	GPU	True	0.090797	0.090797	1.0
ptx_ab	nvidia	ptx_ab-imm	GPU	CPU	GPU	False	133.001152	133.001152	1.0
ptx_ab	nvidia	ptx_ab-imm	GPU	GPU	CPU	False	0.111686	0.142796	0.7821367545309391
ptx_ab	nvidia	ptx_ab-imm	GPU	GPU	GPU	True	1.383786	1.383786	1.0
ptx_ab	nvidia	ptx_ab-imm	GPU	GPU	GPU	True	47.022327	47.022327	1.0
ptx_ab	nvidia	ptx_ab-imm	GPU	GPU	GPU	True	1.525558	1.525558	1.0
ptx_ab	nvidia	ptx_ab-imm	GPU	GPU	GPU	True	0.165845	0.165845	1.0
ptx_ab	nvidia	ptx_ab-imm	GPU	GPU	GPU	True	0.22169	0.22169	1.0
ptx_ab	nvidia	ptx_ab-imm	GPU	CPU	GPU	False	0.17689000000000002	0.17689000000000002	1.0
ptx_ab	nvidia	ptx_ab-imm	GPU	GPU	CPU	False	5.836365	6.880688	0.8482240438746822
ptx_ab	nvidia	ptx_ab-imm	GPU	CPU	CPU	True	1.288864	0.336465	3.8306034803025573
ptx_ab	nvidia	ptx_ab-imm	GPU	GPU	GPU	True	1.181164	1.181164	1.0
ptx_ab	nvidia	ptx_ab-imm	GPU	GPU	GPU	True	0.241608	0.241608	1.0
ptx_ab	nvidia	ptx_ab-imm	GPU	GPU	GPU	True	0.205312	0.205312	1.0
ptx_ab	nvidia	ptx_ab-imm	GPU	GPU	GPU	True	0.214083	0.214083	1.0
ptx_ab	nvidia	ptx_ab-imm	GPU	CPU	GPU	False	0.176877	0.176877	1.0
ptx_ab	nvidia	ptx_ab-imm	GPU	CPU	CPU	True	883.759255	228.916994	3.860610082098143
ptx_ab	nvidia	ptx_ab-imm	GPU	CPU	CPU	True	920.467939	211.740111	4.347159046308424
ptx_ab	nvidia	ptx_ab-imm	GPU	CPU	CPU	True	888.3256960000001	357.668953	2.48365335752248
ptx_ab	nvidia	ptx_ab-imm	GPU	GPU	GPU	True	0.745592	0.745592	1.0
ptx_ab	nvidia	ptx_ab-imm	GPU	CPU	GPU	False	0.0993	0.0993	1.0
ptx_ab	nvidia	ptx_ab-imm	GPU	CPU	CPU	True	10.629466	8.307993	1.2794264511296531
ptx_ab	nvidia	ptx_ab-imm	GPU	GPU	GPU	True	0.22183000000000005	0.22183000000000005	1.0
ptx_ab	nvidia	ptx_ab-imm	GPU	CPU	GPU	False	0.179571	0.179571	1.0
ptx_ab	nvidia	ptx_ab-imm	GPU	GPU	GPU	True	0.615648	0.615648	1.0
ptx_ab	nvidia	ptx_ab-imm	GPU	GPU	GPU	True	3.038336	3.038336	1.0
ptx_ab	nvidia	ptx_ab-imm	GPU	GPU	GPU	True	7.256386999999997	7.256386999999997	1.0
ptx_ab	nvidia	ptx_ab-imm	GPU	GPU	GPU	True	1.184432	1.184432	1.0
ptx_ab	nvidia	ptx_ab-imm	GPU	CPU	GPU	False	0.086464	0.086464	1.0
ptx_ab	nvidia	ptx_ab-imm	GPU	GPU	GPU	True	0.19385	0.19385	1.0
ptx_ab	nvidia	ptx_ab-imm	GPU	GPU	GPU	True	0.241792	0.241792	1.0
ptx_ab	nvidia	ptx_ab-imm	GPU	GPU	CPU	False	22.752406	25.753387	0.8834723758859369
ptx_ab	nvidia	ptx_ab-imm	GPU	CPU	CPU	True	31.087238	22.445654	1.3850003212203128
ptx_ab	nvidia	ptx_ab-imm	GPU	GPU	GPU	True	308.408134	308.408134	1.0
ptx_ab	nvidia	ptx_ab-imm	GPU	GPU	CPU	False	305.658541	330.279325	0.9254546617472954
ptx_ab	nvidia	ptx_ab-imm	GPU	GPU	GPU	True	5.166842	5.166842	1.0
ptx_ab	nvidia	ptx_ab-imm	GPU	CPU	CPU	True	5.43015	2.760186	1.9673130723799048
ptx_ab	nvidia	ptx_ab-imm	GPU	GPU	GPU	True	483.754477	483.754477	1.0
ptx_ab	nvidia	ptx_ab-imm	GPU	CPU	CPU	True	130.420241	61.52784000000001	2.119694775568263
ptx_ab	nvidia	ptx_ab-imm	GPU	CPU	CPU	True	33.622797	24.214302	1.3885511546027631
ptx_ab	nvidia	ptx_ab-imm	GPU	GPU	GPU	True	6.129908	6.129908	1.0
ptx_ab	nvidia	ptx_ab-imm	GPU	CPU	CPU	True	7.095425	4.234063	1.6757958018102235
ptx_ab	nvidia	ptx_ab-imm	GPU	CPU	CPU	True	13.735407	7.021933	1.9560720673353051
ptx_ab	nvidia	ptx_ab-imm	GPU	CPU	CPU	True	13.821892000000002	8.661719999999999	1.5957444941651315
ptx_ab	nvidia	ptx_ab-imm	GPU	CPU	CPU	True	13.734796	7.514782	1.827703850890152
ptx_ab	nvidia	ptx_ab-imm	GPU	CPU	CPU	True	13.73514	6.149749	2.2334472512617993
ptx_ab	nvidia	ptx_ab-imm	GPU	CPU	CPU	True	13.744202	6.3012489999999985	2.1811869361137775
ptx_ab	nvidia	ptx_ab-imm	GPU	CPU	CPU	True	13.745042000000002	6.285722	2.1867085435849694
ptx_ab	nvidia	ptx_ab-imm	GPU	CPU	CPU	True	13.74134	6.107217	2.2500166606164473
ptx_ab	nvidia	ptx_ab-imm	GPU	CPU	GPU	False	16.875218	16.875218	1.0
ptx_ab	nvidia	ptx_ab-imm	GPU	GPU	GPU	True	0.440564	0.440564	1.0
ptx_ab	nvidia	ptx_ab-imm	GPU	GPU	GPU	True	0.784433	0.784433	1.0
ptx_ab	nvidia	ptx_ab-imm	GPU	GPU	GPU	True	0.642886	0.642886	1.0
ptx_ab	nvidia	ptx_ab-imm	GPU	GPU	CPU	False	0.29880300000000004	0.373186	0.8006811616727316
ptx_ab	nvidia	ptx_ab-imm	GPU	GPU	GPU	True	0.251021	0.251021	1.0
ptx_ab	nvidia	ptx_ab-imm	GPU	GPU	GPU	True	0.856083	0.856083	1.0
ptx_ab	nvidia	ptx_ab-imm	GPU	GPU	GPU	True	0.092416	0.092416	1.0
ptx_ab	nvidia	ptx_ab-imm	GPU	GPU	GPU	True	0.132512	0.132512	1.0
ptx_ab	nvidia	ptx_ab-imm	GPU	GPU	GPU	True	0.088314	0.088314	1.0
ptx_ab	nvidia	ptx_ab-imm	GPU	GPU	GPU	True	9.228643	9.228643	1.0
ptx_ab	nvidia	ptx_ab-imm	GPU	GPU	GPU	True	0.478074	0.478074	1.0
ptx_ab	nvidia	ptx_ab-imm	GPU	CPU	CPU	True	0.107067	0.094021	1.1387562353091332
ptx_ab	nvidia	ptx_ab-imm	GPU	GPU	GPU	True	0.071405	0.071405	1.0
ptx_ab	nvidia	ptx_ab-imm	GPU	GPU	GPU	True	0.038903	0.038903	1.0
ptx_ab	nvidia	ptx_ab-imm	GPU	GPU	GPU	True	0.175341	0.175341	1.0
ptx_ab	nvidia	ptx_ab-imm	GPU	CPU	CPU	True	66.14110699999999	65.613714	1.0080378470878815
ptx_ab	nvidia	ptx_ab-imm	GPU	CPU	GPU	False	0.262285	0.262285	1.0
ptx_ab	nvidia	ptx_ab-imm	GPU	GPU	GPU	True	0.09072	0.09072	1.0
ptx_ab	nvidia	ptx_ab-imm	GPU	GPU	GPU	True	0.112224	0.112224	1.0
ptx_ab	nvidia	ptx_ab-imm	GPU	CPU	GPU	False	42.989216	42.989216	1.0
ptx_ab	nvidia	ptx_ab-imm	GPU	CPU	GPU	False	115.036614	115.036614	1.0
ptx_ab	nvidia	ptx_ab-imm	GPU	CPU	GPU	False	1.218061	1.218061	1.0
ptx_ab	nvidia	ptx_ab-imm	GPU	GPU	GPU	True	0.038906	0.038906	1.0
ptx_ab	nvidia	ptx_ab-imm	GPU	GPU	GPU	True	443.39946900000007	443.39946900000007	1.0
ptx_ab	nvidia	ptx_ab-imm	GPU	GPU	GPU	True	322.8932200000001	322.8932200000001	1.0
ptx_ab	nvidia	ptx_ab-imm	GPU	GPU	GPU	True	1.960557	1.960557	1.0
ptx_ab	nvidia	ptx_ab-imm	GPU	CPU	CPU	True	287.201542	67.24642	4.270882256631654
ptx_ab	nvidia	ptx_ab-imm	GPU	CPU	CPU	True	21.518656	13.7885	1.5606234180657794
ptx_ab	nvidia	ptx_ab-imm	GPU	GPU	CPU	False	2.604698	3.393711	0.7675073098445919
ptx_ab	nvidia	ptx_ab-imm	GPU	CPU	CPU	True	24.046861	7.058781	3.4066591667881467
ptx_ab	nvidia	ptx_ab-imm	GPU	CPU	CPU	True	0.272243	0.136022	2.001462998632574
ptx_ab	nvidia	ptx_ab-imm	GPU	CPU	CPU	True	0.176467	0.171724	1.0276199017027325
ptx_ab	nvidia	ptx_ab-imm	GPU	GPU	GPU	True	6.287163	6.287163	1.0
ptx_ab	nvidia	ptx_ab-imm	GPU	GPU	GPU	True	1.344019	1.344019	1.0
ptx_ab	nvidia	ptx_ab-imm	GPU	GPU	GPU	True	6.128413	6.128413	1.0
ptx_ab	nvidia	ptx_ab-imm	GPU	GPU	GPU	True	20.615395	20.615395	1.0
ptx_ab	nvidia	ptx_ab-imm	GPU	CPU	CPU	True	6962.979051	1929.547511	3.6086072052153786
ptx_ab	nvidia	ptx_ab-imm	GPU	CPU	CPU	True	882.409502	203.161518	4.343388997516744
ptx_ab	nvidia	ptx_ab-imm	GPU	CPU	CPU	True	6962.6981799999985	1929.262778	3.6089942020329584
ptx_ab	nvidia	ptx_ab-imm	GPU	CPU	CPU	True	927.306134	251.57118	3.686058689234594
ptx_ab	nvidia	ptx_ab-imm	GPU	CPU	CPU	True	929.330448	252.558668	3.6796616618202944
ptx_ab	nvidia	ptx_ab-imm	GPU	CPU	CPU	True	922.649565	212.766326	4.336445443909202
ptx_ab	nvidia	ptx_ab-imm	GPU	CPU	CPU	True	890.5120130000001	358.171733	2.4862710564599473
ptx_ab	nvidia	ptx_ab-imm	GPU	GPU	GPU	True	0.264244	0.264244	1.0
ptx_ab	nvidia	ptx_ab-imm	GPU	GPU	GPU	True	0.114882	0.114882	1.0
ptx_ab	nvidia	ptx_ab-imm	GPU	GPU	GPU	True	5.836749	5.836749	1.0
ptx_ab	nvidia	ptx_ab-imm	GPU	GPU	GPU	True	0.084749	0.084749	1.0
ptx_ab	nvidia	ptx_ab-imm	GPU	GPU	GPU	True	0.112019	0.112019	1.0
ptx_ab	nvidia	ptx_ab-imm	GPU	CPU	CPU	True	7.35584	5.104108	1.4411607277902425
ptx_ab	nvidia	ptx_ab-imm	GPU	GPU	GPU	True	0.788794	0.788794	1.0
ptx_ab	nvidia	ptx_ab-imm	GPU	GPU	GPU	True	0.075776	0.075776	1.0
ptx_ab	nvidia	ptx_ab-imm	GPU	GPU	GPU	True	0.095882	0.095882	1.0
ptx_ab	nvidia	ptx_ab-imm	GPU	GPU	GPU	True	0.12595499999999998	0.12595499999999998	1.0
ptx_ab	nvidia	ptx_ab-imm	GPU	GPU	GPU	True	0.074913	0.074913	1.0
ptx_ab	nvidia	ptx_ab-imm	GPU	GPU	GPU	True	0.11736	0.11736	1.0
ptx_ab	nvidia	ptx_ab-imm	GPU	CPU	GPU	False	0.6440239999999999	0.6440239999999999	1.0
ptx_ab	nvidia	ptx_ab-imm	GPU	GPU	GPU	True	59.399565	59.399565	1.0
ptx_ab	nvidia	ptx_ab-imm	GPU	CPU	CPU	True	102.191889	61.124127	1.6718748228502307
ptx_ab	nvidia	ptx_ab-imm	GPU	CPU	CPU	True	33.287757	30.556461	1.0893852203630519
ptx_ab	nvidia	ptx_ab-imm	GPU	GPU	CPU	False	9.991411	1024.542367	0.009752072068289586
ptx_ab	nvidia	ptx_ab-imm	GPU	CPU	GPU	False	5.537408	5.537408	1.0
ptx_ab	nvidia	ptx_ab-imm	GPU	CPU	GPU	False	5.538377	5.538377	1.0
ptx_ab	nvidia	ptx_ab-imm	GPU	CPU	CPU	True	0.457363	0.417144	1.096415146807817
ptx_ab	nvidia	ptx_ab-imm	GPU	CPU	CPU	True	17.951209	15.326464	1.1712557443125824
ptx_ab	nvidia	ptx_ab-imm	GPU	CPU	GPU	False	13.833279999999998	13.833279999999998	1.0
ptx_ab	nvidia	ptx_ab-imm	GPU	CPU	CPU	True	13.727387	5.994753	2.2899003511904494
ptx_ab	nvidia	ptx_ab-imm	GPU	CPU	CPU	True	8.459673	1.885541	4.4866025188526795
