{
    "ab_granularity": "coarse",
    "approach": "ptx_ab",
    "batch_size": 64,
    "benchmark": "nvidia",
    "dense_layer_size": 32,
    "emb_size": 64,
    "epochs": 50,
    "imm": true,
    "lstm_size": 64,
    "seed": 484,
    "vocab_idx": {
        "add": 7,
        "add.f": 13,
        "and": 26,
        "bfe": 53,
        "bra": 22,
        "call": 4,
        "cvt": 5,
        "cvt.f": 14,
        "cvta.global": 47,
        "cvta.local": 34,
        "div": 39,
        "div.f": 23,
        "fma.f": 12,
        "ld": 29,
        "ld.f": 8,
        "ld.global": 51,
        "ld.global.f": 43,
        "ld.local": 46,
        "ld.local.f": 36,
        "ld.param": 1,
        "ld.param.f": 17,
        "mad": 28,
        "max": 31,
        "max.f": 19,
        "min": 32,
        "mov": 2,
        "mov.f": 9,
        "mul": 35,
        "mul.f": 11,
        "neg": 49,
        "neg.f": 18,
        "not": 48,
        "or": 40,
        "rcp.f": 15,
        "rem": 41,
        "ret": 24,
        "selp": 30,
        "selp.f": 38,
        "setp": 21,
        "setp.f": 37,
        "shl": 6,
        "shr": 27,
        "st": 33,
        "st.f": 20,
        "st.global": 42,
        "st.global.f": 52,
        "st.local": 44,
        "st.local.f": 45,
        "st.param": 3,
        "st.param.f": 16,
        "sub": 25,
        "sub.f": 10,
        "xor": 50
    }
}