{
    "cutoff": 300,
    "unk_stmt_idx": 692,
    "ab_granularity": "finest",
    "vocab_idx": {
        "ld.param.u64\t<REG>, [<PARAM>]": 0,
        "ld.param.u32\t<REG>, [<PARAM>]": 1,
        "mov.u32\t<REG>, <SREG>": 2,
        "mul.lo.s32\t<REG>, <REG>, <REG>": 3,
        "setp.lt.s32\t<REG>, <REG>, <INT>": 4,
        "cvta.to.global.u64\t<REG>, <REG>": 5,
        "mul.wide.u32\t<REG>, <REG>, <INT>": 6,
        "and.b32\t<REG>, <REG>, <INT>": 7,
        "mov.f32\t<REG>, <FLOAT>": 8,
        "mov.u32\t<REG>, <INT>": 9,
        "setp.eq.s32\t<REG>, <REG>, <INT>": 10,
        "bra.uni\t<LBL>": 11,
        "mov.f32\t<REG>, <REG>": 12,
        "shl.b64\t<REG>, <REG>, <INT>": 13,
        "ld.global.f32\t<REG>, [<REG>]": 14,
        "cvt.u64.u32\t<REG>, <REG>": 15,
        "cvt.s64.s32\t<REG>, <REG>": 16,
        "setp.lt.u32\t<REG>, <REG>, <INT>": 17,
        "mul.wide.s32\t<REG>, <REG>, <INT>": 18,
        "add.s64\t<REG>, <REG>, <REG>": 19,
        "ret": 20,
        "setp.lt.s32\t<REG>, <REG>, <REG>": 21,
        "setp.ge.u32\t<REG>, <REG>, <REG>": 22,
        "mad.lo.s32\t<REG>, <REG>, <REG>, <REG>": 23,
        "@<REG> bra\t<LBL>": 24,
        "add.f32\t<REG>, <REG>, <REG>": 25,
        "setp.lt.f32\t<REG>, <REG>, <REG>": 26,
        "setp.ge.f32\t<REG>, <REG>, <REG>": 27,
        "add.f32\t<REG>, <REG>, <FLOAT>": 28,
        "setp.ge.f32\t<REG>, <REG>, <FLOAT>": 29,
        "and.pred\t<REG>, <REG>, <REG>": 30,
        "selp.u32\t<REG>, <INT>, <INT>, <REG>": 31,
        "st.global.u32\t[<REG>], <REG>": 32,
        "add.s32\t<REG>, <REG>, <INT>": 33,
        "ld.global.f32\t<REG>, [<REG>+<INT>]": 34,
        "st.global.u32\t[<REG>+<INT>], <REG>": 35,
        "add.s64\t<REG>, <REG>, <INT>": 36,
        "setp.lt.u32\t<REG>, <REG>, <REG>": 37,
        "add.s32\t<REG>, <REG>, <REG>": 38,
        "mul.f32\t<REG>, <REG>, <FLOAT>": 39,
        "ex2.approx.f32\t<REG>, <REG>": 40,
        "st.global.f32\t[<REG>], <REG>": 41,
        "div.approx.f32\t<REG>, <REG>, <REG>": 42,
        "cvt.u32.u64\t<REG>, <REG>": 43,
        "rem.s32\t<REG>, <REG>, <REG>": 44,
        "div.s32\t<REG>, <REG>, <REG>": 45,
        "shl.b32\t<REG>, <REG>, <INT>": 46,
        "mov.u32\t<REG>, <L_VAR>": 47,
        "mov.u32\t<REG>, <REG>": 48,
        "setp.gt.s32\t<REG>, <REG>, <INT>": 49,
        "setp.ge.s32\t<REG>, <REG>, <REG>": 50,
        "bar.sync\t<INT>": 51,
        "ld.shared.f32\t<REG>, [<REG>]": 52,
        "ld.shared.f32\t<REG>, [<REG>+<INT>]": 53,
        "shr.s32\t<REG>, <REG>, <INT>": 54,
        "div.u32\t<REG>, <REG>, <REG>": 55,
        "rem.u32\t<REG>, <REG>, <REG>": 56,
        "shr.u32\t<REG>, <REG>, <INT>": 57,
        "sub.s32\t<REG>, <REG>, <REG>": 58,
        "fma.rn.f32\t<REG>, <REG>, <REG>, <REG>": 59,
        "st.shared.f32\t[<REG>], <REG>": 60,
        "st.shared.u32\t[<REG>], <REG>": 61,
        "ld.shared.u32\t<REG>, [<REG>]": 62,
        "ld.shared.u32\t<REG>, [<REG>+<INT>]": 63,
        "ld.param.f32\t<REG>, [<PARAM>]": 64,
        "mad.lo.s32\t<REG>, <REG>, <INT>, <REG>": 65,
        "mul.lo.s32\t<REG>, <REG>, <INT>": 66,
        "mul.f32\t<REG>, <REG>, <REG>": 67,
        "st.shared.f32\t[<REG>+<INT>], <REG>": 68,
        "st.shared.u32\t[<REG>+<INT>], <REG>": 69,
        "bfe.u32\t<REG>, <REG>, <INT>, <INT>": 70,
        "or.pred\t<REG>, <REG>, <REG>": 71,
        "st.global.f32\t[<REG>+<INT>], <REG>": 72,
        "selp.b32\t<REG>, <REG>, <REG>, <REG>": 73,
        "@!<REG> bra\t<LBL>": 74,
        "mov.u64\t<REG>, <G_VAR>": 75,
        "ld.const.u32\t<REG>, [<G_VAR>+<INT>]": 76,
        "ld.const.v2.u32\t{<REG>, <REG>}, [<G_VAR>+<INT>]": 77,
        "ld.shared.u32\t<REG>, [<L_VAR>]": 78,
        "ld.shared.u32\t<REG>, [<L_VAR>+<INT>]": 79,
        "mov.u64\t<REG>, <INT>": 80,
        "ld.const.u32\t<REG>, [<G_VAR>]": 81,
        "setp.gt.u32\t<REG>, <REG>, <INT>": 82,
        "ld.const.u32\t<REG>, [<REG>]": 83,
        "shf.wrap.b32\t<REG>, <REG>, <REG>, <REG>": 84,
        "and.b32\t<REG>, <REG>, <REG>": 85,
        "or.b32\t<REG>, <REG>, <REG>": 86,
        "and.b64\t<REG>, <REG>, <REG>": 87,
        "xor.b64\t<REG>, <REG>, <REG>": 88,
        "xor.b32\t<REG>, <REG>, <REG>": 89,
        "xor.b32\t<REG>, <REG>, <INT>": 90,
        "mov.b64\t<REG>, {<REG>, <REG>}": 91,
        "mov.b64\t<REG>, <REG>": 92,
        "mov.b64\t{<REG>, <REG>}, <REG>": 93,
        "prmt.b32\t<REG>, <REG>, <REG>, <REG>": 94,
        "setp.gt.u64\t<REG>, <REG>, <REG>": 95,
        "ld.const.v2.u32\t{<REG>, <REG>}, [<REG>+<INT>]": 96,
        "shf.l.wrap.b32\t<REG>, <REG>, <REG>, <REG>": 97,
        "not.b32\t<REG>, <REG>": 98,
        "mov.b64\t<REG>,{<REG>,<REG>}": 99,
        "ld.global.u64\t<REG>, [<REG>]": 100,
        "st.global.u64\t[<REG>], <REG>": 101,
        "mov.b64\t{<REG>,<REG>},<REG>": 102,
        "cvt.rn.f32.s32\t<REG>, <REG>": 103,
        "neg.s32\t<REG>, <REG>": 104,
        "mov.u64\t<REG>, <REG>": 105,
        "setp.geu.f32\t<REG>, <REG>, <REG>": 106,
        "min.s32\t<REG>, <REG>, <REG>": 107,
        "selp.f32\t<REG>, <REG>, <REG>, <REG>": 108,
        "setp.ltu.f32\t<REG>, <REG>, <FLOAT>": 109,
        "cvt.rmi.f32.f32\t<REG>, <REG>": 110,
        "cvt.rzi.s32.f32\t<REG>, <REG>": 111,
        "sub.f32\t<REG>, <REG>, <REG>": 112,
        "abs.f32\t<REG>, <REG>": 113,
        "setp.eq.s32\t<REG>, <REG>, <REG>": 114,
        "setp.ne.s32\t<REG>, <REG>, <REG>": 115,
        "not.pred\t<REG>, <REG>": 116,
        "setp.gt.s32\t<REG>, <REG>, <REG>": 117,
        "setp.lt.f32\t<REG>, <REG>, <FLOAT>": 118,
        "max.f32\t<REG>, <REG>, <REG>": 119,
        "setp.geu.f32\t<REG>, <REG>, <FLOAT>": 120,
        "atom.global.add.f32\t<REG>, [<REG>], <REG>": 121,
        "setp.ne.s32\t<REG>, <REG>, <INT>": 122,
        "selp.f32\t<REG>, <FLOAT>, <REG>, <REG>": 123,
        "neg.f32\t<REG>, <REG>": 124,
        "fma.rn.f32\t<REG>, <REG>, <REG>, <FLOAT>": 125,
        "and.b64\t<REG>, <REG>, <INT>": 126,
        "setp.eq.s64\t<REG>, <REG>, <INT>": 127,
        "or.b64\t<REG>, <REG>, <REG>": 128,
        "setp.gt.f32\t<REG>, <REG>, <FLOAT>": 129,
        "setp.lt.u64\t<REG>, <REG>, <INT>": 130,
        "setp.ge.s64\t<REG>, <REG>, <REG>": 131,
        "setp.lt.s64\t<REG>, <REG>, <INT>": 132,
        "setp.lt.s64\t<REG>, <REG>, <REG>": 133,
        "cvt.rzi.f32.f32\t<REG>, <REG>": 134,
        "ex2.approx.ftz.f32\t<REG>, <REG>": 135,
        "ld.param.s8\t<REG>, [<PARAM>]": 136,
        "mul.lo.s64\t<REG>, <REG>, <REG>": 137,
        "setp.gt.f32\t<REG>, <REG>, <REG>": 138,
        "selp.f32\t<REG>, <FLOAT>, <FLOAT>, <REG>": 139,
        "fma.rn.f32\t<REG>, <REG>, <FLOAT>, <FLOAT>": 140,
        "ld.global.nc.f32\t<REG>, [<REG>]": 141,
        "ld.shared.f32\t<REG>, [<L_VAR>]": 142,
        "shr.s64\t<REG>, <REG>, <INT>": 143,
        "div.rn.f32\t<REG>, <REG>, <REG>": 144,
        "shr.u64\t<REG>, <REG>, <INT>": 145,
        "and.b16\t<REG>, <REG>, <INT>": 146,
        "setp.eq.s16\t<REG>, <REG>, <INT>": 147,
        "sqrt.rn.f32\t<REG>, <REG>": 148,
        "setp.leu.f32\t<REG>, <REG>, <FLOAT>": 149,
        "mul.rn.f32\t<REG>, <REG>, <REG>": 150,
        "cvt.rni.f32.f32\t<REG>, <REG>": 151,
        "selp.f32\t<REG>, <REG>, <FLOAT>, <REG>": 152,
        "sub.s64\t<REG>, <REG>, <REG>": 153,
        "selp.b32\t<REG>, <INT>, <REG>, <REG>": 154,
        "setp.leu.f32\t<REG>, <REG>, <REG>": 155,
        "mov.u64\t<REG>, <L_VAR>": 156,
        "ld.param.u64\t<REG>, [<PARAM>+<INT>]": 157,
        "ld.param.u32\t<REG>, [<PARAM>+<INT>]": 158,
        "setp.eq.f32\t<REG>, <REG>, <FLOAT>": 159,
        "mov.b32\t<REG>, <REG>": 160,
        "st.local.u32\t[<REG>+<INT>], <REG>": 161,
        "shl.b32\t<REG>, <REG>, <REG>": 162,
        "ld.local.u32\t<REG>, [<REG>+<INT>]": 163,
        "add.u64\t<REG>, <REG>, <INT>": 164,
        "tex.2d.v4.f32.f32\t{<REG>, <REG>, <REG>, <REG>}, [<REG>, {<REG>, <REG>}]": 165,
        "setp.le.s32\t<REG>, <REG>, <REG>": 166,
        "or.b32\t<REG>, <REG>, <INT>": 167,
        "mad.lo.cc.u32\t<REG>, <REG>, <REG>, <REG>": 168,
        "madc.hi.u32\t<REG>, <REG>, <REG>, <INT>": 169,
        "st.local.u32\t[<REG>], <REG>": 170,
        "ld.local.u32\t<REG>, [<REG>]": 171,
        "shr.u32\t<REG>, <REG>, <REG>": 172,
        "bfi.b64\t<REG>, <REG>, <REG>, <INT>, <INT>": 173,
        "cvt.rn.f64.s64\t<REG>, <REG>": 174,
        "mul.f64\t<REG>, <REG>, <FLOAT>": 175,
        "cvt.rn.f32.f64\t<REG>, <REG>": 176,
        "st.global.v2.f32\t[<REG>], {<REG>, <REG>}": 177,
        "setp.eq.b32\t<REG>, <REG>, <INT>": 178,
        "ld.global.v2.f32\t{<REG>, <REG>}, [<REG>]": 179,
        "ld.shared.f32\t<REG>, [<L_VAR>+<INT>]": 180,
        "ld.const.f32\t<REG>, [<G_VAR>+<INT>]": 181,
        "mov.u32\t<REG>, <G_VAR>": 182,
        "ld.shared.f32\t<REG>, [<G_VAR>]": 183,
        "ld.shared.f32\t<REG>, [<G_VAR>+<INT>]": 184,
        "st.shared.u32\t[<L_VAR>], <REG>": 185,
        "setp.lt.u16\t<REG>, <REG>, <REG>": 186,
        "cvt.u32.u16\t<REG>, <REG>": 187,
        "cvt.rn.f32.u32\t<REG>, <REG>": 188,
        "tex.2d.v4.u32.f32\t{<REG>, <REG>, <REG>, <REG>}, [<G_VAR>, {<REG>, <REG>}]": 189,
        "rcp.rn.f32\t<REG>, <REG>": 190,
        "setp.neu.f32\t<REG>, <REG>, <FLOAT>": 191,
        "ld.const.u8\t<REG>, [<REG>]": 192,
        "ld.const.u8\t<REG>, [<REG>+<INT>]": 193,
        "mul.wide.u16\t<REG>, <REG>, <INT>": 194,
        "st.global.v2.u32\t[<REG>], {<REG>, <REG>}": 195,
        "ld.global.u32\t<REG>, [<REG>]": 196,
        "ld.const.f32\t<REG>, [<REG>]": 197,
        "cvt.sat.f32.f32\t<REG>, <REG>": 198,
        "cvt.rni.u32.f32\t<REG>, <REG>": 199,
        "cvt.u16.u32\t<REG>, <REG>": 200,
        "div.rn.f32\t<REG>, <REG>, <FLOAT>": 201,
        "fma.rn.f32\t<REG>, <REG>, <FLOAT>, <REG>": 202,
        "selp.b16\t<REG>, <REG>, <REG>, <REG>": 203,
        "or.b16\t<REG>, <REG>, <REG>": 204,
        "setp.gt.u16\t<REG>, <REG>, <REG>": 205,
        "prmt.b32\t<REG>, <REG>, <REG>, <INT>": 206,
        "setp.gt.u32\t<REG>, <REG>, <REG>": 207,
        "mul24.lo.s32\t<REG>, <REG>, <REG>": 208,
        "bfi.b32\t<REG>, <REG>, <REG>, <INT>, <INT>": 209,
        "selp.b32\t<REG>, <INT>, <INT>, <REG>": 210,
        "setp.eq.s16\t<REG>, <REG>, <REG>": 211,
        "st.shared.v2.f32\t[<REG>], {<REG>, <REG>}": 212,
        "selp.b32\t<REG>, <REG>, <INT>, <REG>": 213,
        "rsqrt.approx.f32\t<REG>, <REG>": 214,
        "tex.1d.v4.s32.s32\t{<REG>, <REG>, <REG>, <REG>}, [<G_VAR>, {<REG>}]": 215,
        "tex.1d.v4.f32.s32\t{<REG>, <REG>, <REG>, <REG>}, [<G_VAR>, {<REG>}]": 216,
        "st.global.v4.f32\t[<REG>], {<REG>, <REG>, <REG>, <REG>}": 217,
        "st.global.v4.f32\t[<REG>+<INT>], {<REG>, <REG>, <REG>, <REG>}": 218,
        "cvt.f64.f32\t<REG>, <REG>": 219,
        "mul.f64\t<REG>, <REG>, <REG>": 220,
        "add.f64\t<REG>, <REG>, <REG>": 221,
        "mov.f64\t<REG>, <FLOAT>": 222,
        "sub.f64\t<REG>, <REG>, <REG>": 223,
        "div.rn.f64\t<REG>, <REG>, <REG>": 224,
        "add.f64\t<REG>, <REG>, <FLOAT>": 225,
        "fma.rn.f64\t<REG>, <REG>, <REG>, <REG>": 226,
        "setp.le.f32\t<REG>, <REG>, <FLOAT>": 227,
        "mov.u16\t<REG>, <INT>": 228,
        "mov.pred\t<REG>, <INT>": 229,
        "ld.shared.u8\t<REG>, [<REG>]": 230,
        "st.shared.u8\t[<REG>], <REG>": 231,
        "st.local.v4.f32\t[<REG>], {<REG>, <REG>, <REG>, <REG>}": 232,
        "st.local.v4.f32\t[<REG>+<INT>], {<REG>, <REG>, <REG>, <REG>}": 233,
        "ld.local.f32\t<REG>, [<REG>]": 234,
        "ld.local.f32\t<REG>, [<REG>+<INT>]": 235,
        "shl.b64\t<REG>, <REG>, <REG>": 236,
        "min.f32\t<REG>, <REG>, <REG>": 237,
        "selp.b64\t<REG>, <REG>, <INT>, <REG>": 238,
        "cvta.global.u64\t<REG>, <REG>": 239,
        "st.param.b64\t[<L_VAR>+<INT>], <REG>": 240,
        "st.param.b32\t[<L_VAR>+<INT>], <REG>": 241,
        "call.uni\t<EXT_FUNC>, ( <L_VAR>, <L_VAR>, <L_VAR>, <L_VAR>, <L_VAR> )": 242,
        "ld.global.u64\t<REG>, [<REG>+<INT>]": 243,
        "ld.u32\t<REG>, [<REG>]": 244,
        "ld.global.nc.u16\t<REG>, [<REG>]": 245,
        "st.global.u8\t[<REG>], <REG>": 246,
        "cvt.u64.u16\t<REG>, <REG>": 247,
        "setp.ne.s16\t<REG>, <REG>, <INT>": 248,
        "mul.lo.s64\t<REG>, <REG>, <INT>": 249,
        "ld.global.nc.u32\t<REG>, [<REG>]": 250,
        "ld.global.nc.u32\t<REG>, [<REG>+<INT>]": 251,
        "ld.u32\t<REG>, [<REG>+<INT>]": 252,
        "setp.ne.s64\t<REG>, <REG>, <INT>": 253,
        "st.u32\t[<REG>+<INT>], <REG>": 254,
        "st.v4.u32\t[<REG>], {<REG>, <REG>, <REG>, <REG>}": 255,
        "setp.le.s64\t<REG>, <REG>, <REG>": 256,
        "ld.param.b32\t<REG>, [<L_VAR>+<INT>]": 257,
        "ld.u8\t<REG>, [<REG>]": 258,
        "ld.local.v4.u32\t{<REG>, <REG>, <REG>, <REG>}, [<REG>+<INT>]": 259,
        "ld.local.v2.u32\t{<REG>, <REG>}, [<REG>+<INT>]": 260,
        "shf.l.wrap.b32\t<REG>, <REG>, <REG>, <INT>": 261,
        "ld.global.u32\t<REG>, [<REG>+<INT>]": 262,
        "st.local.v4.u32\t[<REG>+<INT>], {<REG>, <REG>, <REG>, <REG>}": 263,
        "st.local.v2.u32\t[<REG>+<INT>], {<REG>, <REG>}": 264,
        "max.s32\t<REG>, <REG>, <REG>": 265,
        "call.uni\t(<L_VAR>), <EXT_FUNC>, ( <L_VAR>, <L_VAR> )": 266,
        "st.u32\t[<REG>], <REG>": 267,
        "shr.u64\t<REG>, <REG>, <REG>": 268,
        "mov.u16\t<REG>, <REG>": 269,
        "mov.b32\t<REG>, {<REG>, <REG>}": 270,
        "setp.ne.s64\t<REG>, <REG>, <REG>": 271,
        "setp.eq.s64\t<REG>, <REG>, <REG>": 272,
        "ld.global.nc.u64\t<REG>, [<REG>]": 273,
        "ld.global.u16\t<REG>, [<REG>]": 274,
        "st.global.u64\t[<REG>+<INT>], <REG>": 275,
        "ld.global.v4.f32\t{<REG>, <REG>, <REG>, <REG>}, [<REG>]": 276,
        "ld.param.f32\t<REG>, [<PARAM>+<INT>]": 277,
        "setp.gtu.f32\t<REG>, <REG>, <REG>": 278,
        "setp.ltu.f32\t<REG>, <REG>, <REG>": 279,
        "ld.global.v4.f32\t{<REG>, <REG>, <REG>, <REG>}, [<REG>+<INT>]": 280,
        "ld.global.u8\t<REG>, [<REG>]": 281,
        "ld.global.u8\t<REG>, [<REG>+<INT>]": 282,
        "cvt.rn.f32.u16\t<REG>, <REG>": 283,
        "ld.global.v4.u32\t{<REG>, <REG>, <REG>, <REG>}, [<REG>]": 284,
        "st.global.v4.u32\t[<REG>], {<REG>, <REG>, <REG>, <REG>}": 285,
        "cvt.rzi.u32.f32\t<REG>, <REG>": 286,
        "ld.global.v4.u8\t{<REG>, <REG>, <REG>, <REG>}, [<REG>]": 287,
        "st.global.v4.u16\t[<REG>], {<REG>, <REG>, <REG>, <REG>}": 288,
        "ld.global.v4.u8\t{<REG>, <REG>, <REG>, <REG>}, [<REG>+<INT>]": 289,
        "st.global.u8\t[<REG>+<INT>], <REG>": 290,
        "mul.hi.s32\t<REG>, <REG>, <INT>": 291,
        "ld.global.f64\t<REG>, [<REG>]": 292,
        "st.global.f64\t[<REG>], <REG>": 293,
        "ld.param.f32\t<REG>, [<REG>+<INT>]": 294,
        "ld.param.v2.f32\t{<REG>, <REG>}, [<REG>+<INT>]": 295,
        "mul.hi.u32\t<REG>, <REG>, <REG>": 296,
        "cvta.to.local.u64\t<REG>, <REG>": 297,
        "setp.gtu.f32\t<REG>, <REG>, <FLOAT>": 298,
        "ld.param.v2.u32\t{<REG>, <REG>}, [<REG>+<INT>]": 299,
        "rcp.approx.ftz.f32\t<REG>,<REG>": 300,
        "add.rn.f32\t<REG>, <REG>, <REG>": 301,
        "ld.param.u64\t<REG>, [<REG>+<INT>]": 302,
        "setp.ge.u64\t<REG>, <REG>, <REG>": 303,
        "setp.lt.u64\t<REG>, <REG>, <REG>": 304,
        "setp.lt.f64\t<REG>, <REG>, <FLOAT>": 305,
        "neg.f64\t<REG>, <REG>": 306,
        "selp.f64\t<REG>, <REG>, <REG>, <REG>": 307,
        "atom.global.add.u32\t<REG>, [<REG>], <REG>": 308,
        "atom.shared.add.f32\t<REG>, [<REG>], <REG>": 309,
        "add.rz.f32\t<REG>, <REG>, <REG>": 310,
        "ld.param.f64\t<REG>, [<PARAM>]": 311,
        "selp.f64\t<REG>, <FLOAT>, <REG>, <REG>": 312,
        "setp.gt.f64\t<REG>, <REG>, <FLOAT>": 313,
        "add.rn.f64\t<REG>, <REG>, <REG>": 314,
        "rcp.rn.f64\t<REG>, <REG>": 315,
        "selp.f64\t<REG>, <REG>, <FLOAT>, <REG>": 316,
        "fma.rn.f64\t<REG>, <REG>, <REG>, <FLOAT>": 317,
        "min.f64\t<REG>, <REG>, <REG>": 318,
        "ld.param.f64\t<REG>, [<L_VAR>+<INT>]": 319,
        "st.param.f64\t[<L_VAR>+<INT>], <REG>": 320,
        "selp.b64\t<REG>, <REG>, <REG>, <REG>": 321,
        "neg.s64\t<REG>, <REG>": 322,
        "setp.neu.f32\t<REG>, <REG>, <REG>": 323,
        "ld.local.v2.u32\t{<REG>, <REG>}, [<REG>]": 324,
        "st.global.v2.u32\t[<REG>+<INT>], {<REG>, <REG>}": 325,
        "ld.global.v2.u32\t{<REG>, <REG>}, [<REG>+<INT>]": 326,
        "ld.global.v2.u32\t{<REG>, <REG>}, [<REG>]": 327,
        "ld.global.f64\t<REG>, [<REG>+<INT>]": 328,
        "sqrt.rn.f64\t<REG>, <REG>": 329,
        "mov.f64\t<REG>, <REG>": 330,
        "cvt.rzi.s32.f64\t<REG>, <REG>": 331,
        "cvt.rzi.f64.f64\t<REG>, <REG>": 332,
        "setp.ltu.f64\t<REG>, <REG>, <FLOAT>": 333,
        "setp.neu.f64\t<REG>, <REG>, <REG>": 334,
        "mul.rn.f64\t<REG>, <REG>, <REG>": 335,
        "xor.b64\t<REG>, <REG>, <INT>": 336,
        "setp.le.f32\t<REG>, <REG>, <REG>": 337,
        "setp.eq.f32\t<REG>, <REG>, <REG>": 338,
        "atom.global.add.u32\t<REG>, [<REG>], <INT>": 339,
        "max.u32\t<REG>, <REG>, <REG>": 340,
        "ld.local.u8\t<REG>, [<REG>]": 341,
        "st.local.f32\t[<REG>], <REG>": 342,
        "ld.shared.v4.u32\t{<REG>, <REG>, <REG>, <REG>}, [<L_VAR>+<INT>]": 343,
        "st.shared.u32\t[<L_VAR>+<INT>], <REG>": 344,
        "ld.shared.u16\t<REG>, [<REG>]": 345,
        "shfl.sync.idx.b32\t<REG>, <REG>, <REG>, <REG>, <REG>": 346,
        "bfe.u32\t<REG>, <REG>, <REG>, <REG>": 347,
        "shfl.sync.up.b32\t<REG>|<REG>, <REG>, <REG>, <REG>, <REG>": 348,
        "st.shared.u16\t[<REG>], <REG>": 349,
        "add.u32\t<REG>, <REG>, <REG>": 350,
        "ld.shared.v4.u8\t{<REG>, <REG>, <REG>, <REG>}, [<REG>]": 351,
        "ld.shared.v4.u8\t{<REG>, <REG>, <REG>, <REG>}, [<REG>+<INT>]": 352,
        "st.shared.v4.u32\t[<REG>], {<REG>, <REG>, <REG>, <REG>}": 353,
        "st.shared.v4.u32\t[<REG>+<INT>], {<REG>, <REG>, <REG>, <REG>}": 354,
        "add.s16\t<REG>, <REG>, <INT>": 355,
        "mov.s32\t<REG>, <REG>": 356,
        "bar.warp.sync\t<INT>": 357,
        "setp.ne.u32\t<REG>, <REG>, <INT>": 358,
        "popc.b32\t<REG>, <REG>": 359,
        "ld.shared.v4.u32\t{<REG>, <REG>, <REG>, <REG>}, [<L_VAR>]": 360,
        "bar.red.and.pred\t<REG>, <INT>, <REG>": 361,
        "setp.eq.u32\t<REG>, <REG>, <REG>": 362,
        "vote.ballot.sync.b32\t<REG>, <REG>, <INT>": 363,
        "ld.volatile.shared.u32\t<REG>, [<REG>+<INT>]": 364,
        "st.volatile.shared.u32\t[<REG>], <REG>": 365,
        "ld.volatile.shared.u32\t<REG>, [<REG>]": 366,
        "or.b64\t<REG>, <REG>, <INT>": 367,
        "st.shared.u64\t[<REG>], <REG>": 368,
        "ld.shared.u64\t<REG>, [<REG>]": 369,
        "ld.shared.u64\t<REG>, [<REG>+<INT>]": 370,
        "ld.shared.f64\t<REG>, [<REG>]": 371,
        "ld.shared.f64\t<REG>, [<REG>+<INT>]": 372,
        "st.shared.u64\t[<REG>+<INT>], <REG>": 373,
        "st.shared.f64\t[<REG>], <REG>": 374,
        "st.global.f64\t[<REG>+<INT>], <REG>": 375,
        "st.shared.f64\t[<REG>+<INT>], <REG>": 376,
        "st.volatile.shared.u32\t[<REG>+<INT>], <REG>": 377,
        "min.s64\t<REG>, <REG>, <REG>": 378,
        "min.u32\t<REG>, <REG>, <REG>": 379,
        "mov.pred\t<REG>, <REG>": 380,
        "ld.shared.v4.u32\t{<REG>, <REG>, <REG>, <REG>}, [<REG>]": 381,
        "ld.shared.v4.u32\t{<REG>, <REG>, <REG>, <REG>}, [<REG>+<INT>]": 382,
        "selp.u16\t<REG>, <INT>, <INT>, <REG>": 383,
        "ld.const.f32\t<REG>, [<REG>+<INT>]": 384,
        "setp.gt.s64\t<REG>, <REG>, <REG>": 385,
        "fma.rn.f64\t<REG>, <REG>, <FLOAT>, <REG>": 386,
        "ld.const.u64\t<REG>, [<REG>+<INT>]": 387,
        "st.local.f32\t[<REG>+<INT>], <REG>": 388,
        "ld.local.v2.f32\t{<REG>, <REG>}, [<REG>]": 389,
        "ld.const.u64\t<REG>, [<REG>]": 390,
        "st.local.v2.f32\t[<REG>], {<REG>, <REG>}": 391,
        "ld.local.v2.f32\t{<REG>, <REG>}, [<REG>+<INT>]": 392,
        "xor.pred\t<REG>, <REG>, <REG>": 393,
        "st.local.v2.u32\t[<REG>], {<REG>, <REG>}": 394,
        "ld.local.v4.f32\t{<REG>, <REG>, <REG>, <REG>}, [<REG>+<INT>]": 395,
        "ld.volatile.shared.f32\t<REG>, [<REG>]": 396,
        "ld.volatile.shared.f32\t<REG>, [<REG>+<INT>]": 397,
        "st.volatile.shared.f32\t[<REG>], <REG>": 398,
        "shfl.sync.down.b32\t<REG>|<REG>, <REG>, <REG>, <REG>, <REG>": 399,
        "mov.b64\t<REG>, <PARAM>": 400,
        "ld.param.s32\t<REG>, [<REG>+<INT>]": 401,
        "cvt.rn.f64.s32\t<REG>, <REG>": 402,
        "cvt.rpi.f32.f32\t<REG>, <REG>": 403,
        "tex.3d.v4.f32.f32\t{<REG>, <REG>, <REG>, <REG>}, [<G_VAR>, {<REG>, <REG>, <REG>, <REG>}]": 404,
        "setp.geu.f64\t<REG>, <REG>, <REG>": 405,
        "cvt.rn.f32.u64\t<REG>, <REG>": 406,
        "tex.3d.v4.f32.f32\t{<REG>, <REG>, <REG>, <REG>}, [<REG>, {<REG>, <REG>, <REG>, <REG>}]": 407,
        "ld.const.u32\t<REG>, [<REG>+<INT>]": 408,
        "mad.lo.s32\t<REG>, <REG>, <INT>, <INT>": 409,
        "setp.gt.f64\t<REG>, <REG>, <REG>": 410,
        "setp.lt.f64\t<REG>, <REG>, <REG>": 411,
        "abs.f64\t<REG>, <REG>": 412,
        "max.f64\t<REG>, <REG>, <REG>": 413,
        "ld.shared.u64\t<REG>, [<G_VAR>+<INT>]": 414,
        "shfl.sync.down.b32\t<REG>, <REG>, <REG>, <REG>, <REG>": 415,
        "st.shared.u64\t[<G_VAR>+<INT>], <REG>": 416,
        "setp.leu.f64\t<REG>, <REG>, <REG>": 417,
        "st.shared.u32\t[<G_VAR>+<INT>], <REG>": 418,
        "membar.cta": 419,
        "ld.cg.u64\t<REG>, [<REG>]": 420,
        "ld.shared.u32\t<REG>, [<G_VAR>+<INT>]": 421,
        "vote.sync.any.pred\t<REG>, <REG>, <REG>": 422,
        "vote.sync.ballot.b32\t<REG>, <REG>, <REG>": 423,
        "vote.sync.all.pred\t<REG>, <REG>, <REG>": 424,
        "st.cg.u64\t[<REG>], <REG>": 425,
        "brev.b32\t<REG>, <REG>": 426,
        "clz.b32\t<REG>, <REG>": 427,
        "st.volatile.global.u32\t[<REG>], <REG>": 428,
        "ld.global.nc.f32\t<REG>, [<REG>+<INT>]": 429,
        "setp.gtu.f64\t<REG>, <REG>, <FLOAT>": 430,
        "setp.eq.f64\t<REG>, <REG>, <FLOAT>": 431,
        "call.uni\t(<L_VAR>), <FUNC>, ( <L_VAR>, <L_VAR> )": 432,
        "setp.neu.f64\t<REG>, <REG>, <FLOAT>": 433,
        "setp.le.u32\t<REG>, <REG>, <REG>": 434,
        "ld.global.nc.v2.u64\t{<REG>, <REG>}, [<REG>]": 435,
        "min.u64\t<REG>, <REG>, <REG>": 436,
        "lg2.approx.f32\t<REG>, <REG>": 437,
        "st.volatile.global.f32\t[<REG>+<INT>], <REG>": 438,
        "call.uni\t(<L_VAR>), <FUNC>, ( <L_VAR> )": 439,
        "st.volatile.global.u32\t[<REG>+<INT>], <REG>": 440,
        "st.shared.u16\t[<REG>+<INT>], <REG>": 441,
        "shfl.sync.idx.b32\t<REG>|<REG>, <REG>, <REG>, <REG>, <REG>": 442,
        "ld.shared.u16\t<REG>, [<REG>+<INT>]": 443,
        "ld.shared.v4.f32\t{<REG>, <REG>, <REG>, <REG>}, [<REG>]": 444,
        "ld.shared.v4.f32\t{<REG>, <REG>, <REG>, <REG>}, [<REG>+<INT>]": 445,
        "bfe.s32\t<REG>, <REG>, <INT>, <INT>": 446,
        "ld.global.v4.u32\t{<REG>, <REG>, <REG>, <REG>}, [<REG>+<INT>]": 447,
        "atom.global.exch.b32\t<REG>, [<REG>], <INT>": 448,
        "cvt.rn.f16.f32\t<REG>, <REG>": 449,
        "st.global.u16\t[<REG>], <REG>": 450,
        "selp.f64\t<REG>, <FLOAT>, <FLOAT>, <REG>": 451,
        "ld.const.f64\t<REG>, [<REG>+<INT>]": 452,
        "mov.b64\t{<REG>,<REG>}, <REG>": 453,
        "st.local.u64\t[<REG>], <REG>": 454,
        "ld.local.u64\t<REG>, [<REG>+<INT>]": 455,
        "mov.b64\t<REG>, {<REG>,<REG>}": 456,
        "subc.cc.u32\t<REG>, <REG>, <REG>": 457,
        "add.cc.u32\t<REG>, <REG>, <REG>": 458,
        "addc.cc.u32\t<REG>, <REG>, <REG>": 459,
        "ld.global.v2.f64\t{<REG>, <REG>}, [<REG>]": 460,
        "setp.ge.f64\t<REG>, <REG>, <REG>": 461,
        "ld.param.u16\t<REG>, [<PARAM>]": 462,
        "ld.volatile.shared.f64\t<REG>, [<REG>]": 463,
        "ld.volatile.shared.f64\t<REG>, [<REG>+<INT>]": 464,
        "st.volatile.shared.f64\t[<REG>], <REG>": 465,
        "setp.ltu.f64\t<REG>, <REG>, <REG>": 466,
        "st.global.v2.f64\t[<REG>], {<REG>, <REG>}": 467,
        "ld.const.v2.f32\t{<REG>, <REG>}, [<G_VAR>+<INT>]": 468,
        "shl.b16\t<REG>, <REG>, <INT>": 469,
        "ld.const.f64\t<REG>, [<G_VAR>+<INT>]": 470,
        "atom.shared.add.u32\t<REG>, [<REG>], <INT>": 471,
        "ld.global.v2.f32\t{<REG>, <REG>}, [<REG>+<INT>]": 472,
        "ld.global.u16\t<REG>, [<REG>+<INT>]": 473,
        "setp.ne.s16\t<REG>, <REG>, <REG>": 474,
        "ld.param.u8\t<REG>, [<PARAM>]": 475,
        "selp.b16\t<REG>, <REG>, <INT>, <REG>": 476,
        "ld.global.v2.f64\t{<REG>, <REG>}, [<REG>+<INT>]": 477,
        "tex.2d.v4.u32.f32\t{<REG>, <REG>, <REG>, <REG>}, [<REG>, {<REG>, <REG>}]": 478,
        "st.global.v2.u8\t[<REG>], {<REG>, <REG>}": 479,
        "st.global.v4.u8\t[<REG>], {<REG>, <REG>, <REG>, <REG>}": 480,
        "st.global.v2.u16\t[<REG>], {<REG>, <REG>}": 481,
        "abs.s32\t<REG>, <REG>": 482,
        "mul24.lo.u32\t<REG>, <REG>, <REG>": 483,
        "st.global.v2.f32\t[<REG>+<INT>], {<REG>, <REG>}": 484,
        "ld.shared.u64\t<REG>, [<L_VAR>]": 485,
        "ld.shared.u64\t<REG>, [<L_VAR>+<INT>]": 486,
        "st.shared.v2.f32\t[<REG>+<INT>], {<REG>, <REG>}": 487,
        "st.shared.v4.f32\t[<REG>], {<REG>, <REG>, <REG>, <REG>}": 488,
        "ld.shared.u8\t<REG>, [<REG>+<INT>]": 489,
        "st.shared.u8\t[<REG>+<INT>], <REG>": 490,
        "ld.local.f64\t<REG>, [<REG>]": 491,
        "ld.local.f64\t<REG>, [<REG>+<INT>]": 492,
        "st.local.f64\t[<REG>], <REG>": 493,
        "st.local.f64\t[<REG>+<INT>], <REG>": 494,
        "ld.f64\t<REG>, [<REG>]": 495,
        "st.f64\t[<REG>], <REG>": 496,
        "st.local.u64\t[<REG>+<INT>], <REG>": 497,
        "shr.s32\t<REG>, <REG>, <REG>": 498,
        "membar.gl": 499,
        "activemask.b32\t<REG>": 500,
        "st.global.u16\t[<REG>+<INT>], <REG>": 501,
        "tex.2d.v4.f32.f32\t{<REG>, <REG>, <REG>, <REG>}, [<G_VAR>, {<REG>, <REG>}]": 502,
        "selp.b64\t<REG>, <INT>, <REG>, <REG>": 503,
        "st.local.v4.u32\t[<REG>], {<REG>, <REG>, <REG>, <REG>}": 504,
        "selp.b16\t<REG>, <INT>, <REG>, <REG>": 505,
        "atom.shared.add.u32\t<REG>, [<REG>], <REG>": 506,
        "setp.ge.u16\t<REG>, <REG>, <REG>": 507,
        "setp.le.u16\t<REG>, <REG>, <REG>": 508,
        "st.local.u8\t[<REG>], <REG>": 509,
        "st.local.u8\t[<REG>+<INT>], <REG>": 510,
        "ld.local.u8\t<REG>, [<REG>+<INT>]": 511,
        "st.local.v4.u8\t[<REG>], {<REG>, <REG>, <REG>, <REG>}": 512,
        "setp.le.u64\t<REG>, <REG>, <REG>": 513,
        "selp.u64\t<REG>, <INT>, <INT>, <REG>": 514,
        "setp.gt.s16\t<REG>, <REG>, <REG>": 515,
        "setp.ge.s16\t<REG>, <REG>, <REG>": 516,
        "setp.lt.s16\t<REG>, <REG>, <REG>": 517,
        "setp.le.s16\t<REG>, <REG>, <REG>": 518,
        "ld.local.v4.u8\t{<REG>, <REG>, <REG>, <REG>}, [<REG>]": 519,
        "st.global.v4.u32\t[<REG>+<INT>], {<REG>, <REG>, <REG>, <REG>}": 520,
        "st.shared.v2.u32\t[<REG>], {<REG>, <REG>}": 521,
        "st.shared.v2.u32\t[<REG>+<INT>], {<REG>, <REG>}": 522,
        "ld.shared.v2.u32\t{<REG>, <REG>}, [<REG>]": 523,
        "bfe.u32\t<REG>, <REG>, <INT>, <REG>": 524,
        "atom.shared.exch.b32\t<REG>, [<REG>], <REG>": 525,
        "ld.f32\t<REG>, [<REG>]": 526,
        "st.f32\t[<REG>], <REG>": 527,
        "not.b64\t<REG>, <REG>": 528,
        "ld.f32\t<REG>, [<REG>+<INT>]": 529,
        "trap": 530,
        "st.global.v4.u8\t[<REG>+<INT>], {<REG>, <REG>, <REG>, <REG>}": 531,
        "st.global.v2.f64\t[<REG>+<INT>], {<REG>, <REG>}": 532,
        "ld.param.u16\t<REG>, [<PARAM>+<INT>]": 533,
        "shfl.sync.bfly.b32\t<REG>|<REG>, <REG>, <REG>, <REG>, <REG>": 534,
        "st.volatile.shared.f64\t[<REG>+<INT>], <REG>": 535,
        "st.volatile.shared.f32\t[<REG>+<INT>], <REG>": 536,
        "ld.volatile.global.u32\t<REG>, [<REG>]": 537,
        "ld.global.nc.u8\t<REG>, [<REG>]": 538,
        "ld.volatile.global.u32\t<REG>, [<REG>+<INT>]": 539,
        "xor.b16\t<REG>, <REG>, <INT>": 540,
        "shfl.sync.up.b32\t<REG>, <REG>, <REG>, <REG>, <REG>": 541,
        "atom.shared.add.f64\t<REG>, [<REG>], <REG>": 542,
        "atom.global.add.f64\t<REG>, [<REG>], <REG>": 543,
        "st.shared.v2.f64\t[<REG>], {<REG>, <REG>}": 544,
        "st.shared.v2.f64\t[<REG>+<INT>], {<REG>, <REG>}": 545,
        "ld.shared.v2.f64\t{<REG>, <REG>}, [<REG>]": 546,
        "ld.shared.v2.u32\t{<REG>, <REG>}, [<REG>+<INT>]": 547,
        "ld.global.nc.s32\t<REG>, [<REG>]": 548,
        "st.volatile.shared.u8\t[<REG>], <REG>": 549,
        "ld.volatile.shared.u8\t<REG>, [<REG>]": 550,
        "cvt.s32.s8\t<REG>, <REG>": 551,
        "ld.shared.u8\t<REG>, [<L_VAR>+<INT>]": 552,
        "cvt.u16.u64\t<REG>, <REG>": 553,
        "add.f16x2\t<REG>,<REG>,<REG>": 554,
        "mov.b32\t{<REG>,<REG>},<REG>": 555,
        "cvt.f32.f16\t<REG>, <REG>": 556,
        "mov.b32\t<REG>, {<REG>,<REG>}": 557,
        "wmma.mma.sync.aligned.row.col.m16n16k16.s32.u8.u8.s32\t{<REG>, <REG>, <REG>, <REG>, <REG>, <REG>, <REG>, <REG>}, {<REG>, <REG>}, {<REG>, <REG>}, {<REG>, <REG>, <REG>, <REG>, <REG>, <REG>, <REG>, <REG>}": 558,
        "barrier.sync\t<INT>": 559,
        "shr.u16\t<REG>, <REG>, <INT>": 560,
        "wmma.mma.sync.aligned.row.col.m16n16k16.f32.f32\t{<REG>, <REG>, <REG>, <REG>, <REG>, <REG>, <REG>, <REG>}, {<REG>, <REG>, <REG>, <REG>, <REG>, <REG>, <REG>, <REG>}, {<REG>, <REG>, <REG>, <REG>, <REG>, <REG>, <REG>, <REG>}, {<REG>, <REG>, <REG>, <REG>, <REG>, <REG>, <REG>, <REG>}": 561,
        "wmma.load.sync.aligned.col.m16n16k16.global.f16\t{<REG>, <REG>, <REG>, <REG>, <REG>, <REG>, <REG>, <REG>}, [<REG>], <REG>": 562,
        "ld.global.v2.u64\t{<REG>, <REG>}, [<REG>]": 563,
        "ld.global.v2.u8\t{<REG>, <REG>}, [<REG>]": 564,
        "st.global.v2.u64\t[<REG>], {<REG>, <REG>}": 565,
        "fma.rn.f16x2\t<REG>,<REG>,<REG>,<REG>": 566,
        "mov.b32\t{<REG>, <REG>}, <REG>": 567,
        "add.f16\t<REG>,<REG>,<REG>": 568,
        "ld.shared.v2.u32\t{<REG>, <REG>}, [<L_VAR>+<INT>]": 569,
        "cvt.u16.u8\t<REG>, <REG>": 570,
        "tex.3d.v4.u32.f32\t{<REG>, <REG>, <REG>, <REG>}, [<REG>, {<REG>, <REG>, <REG>, <REG>}]": 571,
        "ld.shared.v2.u8\t{<REG>, <REG>}, [<REG>]": 572,
        "ld.shared.v2.u8\t{<REG>, <REG>}, [<REG>+<INT>]": 573,
        "st.shared.v4.u8\t[<REG>], {<REG>, <REG>, <REG>, <REG>}": 574,
        "st.shared.v4.u8\t[<REG>+<INT>], {<REG>, <REG>, <REG>, <REG>}": 575,
        "ld.const.v4.f32\t{<REG>, <REG>, <REG>, <REG>}, [<G_VAR>+<INT>]": 576,
        "ld.const.u64\t<REG>, [<G_VAR>+<INT>]": 577,
        "ld.shared.v4.u8\t{<REG>, <REG>, <REG>, <REG>}, [<L_VAR>+<INT>]": 578,
        "st.shared.u8\t[<L_VAR>+<INT>], <REG>": 579,
        "st.shared.v4.u8\t[<L_VAR>+<INT>], {<REG>, <REG>, <REG>, <REG>}": 580,
        "cvt.s16.s8\t<REG>, <REG>": 581,
        "ld.shared.s8\t<REG>, [<L_VAR>+<INT>]": 582,
        "ld.shared.u16\t<REG>, [<L_VAR>+<INT>]": 583,
        "st.shared.u16\t[<L_VAR>+<INT>], <REG>": 584,
        "ld.cg.v2.u64\t{<REG>, <REG>}, [<REG>]": 585,
        "st.cg.v2.u64\t[<REG>], {<REG>, <REG>}": 586,
        "st.shared.v2.u32\t[<L_VAR>+<INT>], {<REG>, <REG>}": 587,
        "st.shared.u64\t[<L_VAR>+<INT>], <REG>": 588,
        "ld.shared.f64\t<REG>, [<L_VAR>+<INT>]": 589,
        "ld.shared.v2.u8\t{<REG>, <REG>}, [<L_VAR>+<INT>]": 590,
        "st.shared.v2.u8\t[<L_VAR>+<INT>], {<REG>, <REG>}": 591,
        "ld.cg.u8\t<REG>, [<REG>]": 592,
        "st.shared.v2.u8\t[<REG>+<INT>], {<REG>, <REG>}": 593,
        "st.cg.u32\t[<REG>], <REG>": 594,
        "st.cg.u8\t[<REG>], <REG>": 595,
        "cvt.u8.u16\t<REG>, <REG>": 596,
        "ld.cg.u32\t<REG>, [<REG>]": 597,
        "st.global.v2.u8\t[<REG>+<INT>], {<REG>, <REG>}": 598,
        "st.shared.v4.u32\t[<L_VAR>+<INT>], {<REG>, <REG>, <REG>, <REG>}": 599,
        "st.shared.v2.u64\t[<REG>+<INT>], {<REG>, <REG>}": 600,
        "ld.shared.v2.u64\t{<REG>, <REG>}, [<L_VAR>+<INT>]": 601,
        "st.shared.v2.u64\t[<L_VAR>+<INT>], {<REG>, <REG>}": 602,
        "st.global.v2.u64\t[<REG>+<INT>], {<REG>, <REG>}": 603,
        "ld.shared.v2.u64\t{<REG>, <REG>}, [<REG>+<INT>]": 604,
        "ld.local.u64\t<REG>, [<REG>]": 605,
        "st.local.v4.u8\t[<REG>+<INT>], {<REG>, <REG>, <REG>, <REG>}": 606,
        "setp.eq.f64\t<REG>, <REG>, <REG>": 607,
        "st.shared.v2.u8\t[<REG>], {<REG>, <REG>}": 608,
        "ld.shared.v2.u64\t{<REG>, <REG>}, [<REG>]": 609,
        "st.shared.v2.u64\t[<REG>], {<REG>, <REG>}": 610,
        "st.volatile.shared.u32\t[<L_VAR>+<INT>], <REG>": 611,
        "ld.volatile.shared.u32\t<REG>, [<L_VAR>+<INT>]": 612,
        "ld.cg.u16\t<REG>, [<REG>]": 613,
        "st.cg.u16\t[<REG>], <REG>": 614,
        "ld.shared.v4.u16\t{<REG>, <REG>, <REG>, <REG>}, [<L_VAR>+<INT>]": 615,
        "add.u64\t<REG>, <REG>, <REG>": 616,
        "max.u64\t<REG>, <REG>, <REG>": 617,
        "ld.param.u8\t<REG>, [<PARAM>+<INT>]": 618,
        "ld.global.v2.u8\t{<REG>, <REG>}, [<REG>+<INT>]": 619,
        "ld.global.v2.u16\t{<REG>, <REG>}, [<REG>+<INT>]": 620,
        "st.shared.v2.u16\t[<L_VAR>+<INT>], {<REG>, <REG>}": 621,
        "st.global.v2.u16\t[<REG>+<INT>], {<REG>, <REG>}": 622,
        "st.shared.v2.u16\t[<REG>], {<REG>, <REG>}": 623,
        "st.shared.v2.u16\t[<REG>+<INT>], {<REG>, <REG>}": 624,
        "ld.shared.v2.u16\t{<REG>, <REG>}, [<REG>+<INT>]": 625,
        "ld.global.v2.u64\t{<REG>, <REG>}, [<REG>+<INT>]": 626,
        "ld.global.v4.u16\t{<REG>, <REG>, <REG>, <REG>}, [<REG>+<INT>]": 627,
        "st.global.v4.u16\t[<REG>+<INT>], {<REG>, <REG>, <REG>, <REG>}": 628,
        "ld.global.v4.u16\t{<REG>, <REG>, <REG>, <REG>}, [<REG>]": 629,
        "st.shared.v4.u16\t[<REG>], {<REG>, <REG>, <REG>, <REG>}": 630,
        "st.shared.v4.u16\t[<REG>+<INT>], {<REG>, <REG>, <REG>, <REG>}": 631,
        "ld.shared.v4.u16\t{<REG>, <REG>, <REG>, <REG>}, [<REG>+<INT>]": 632,
        "st.cg.v4.u16\t[<REG>], {<REG>, <REG>, <REG>, <REG>}": 633,
        "ld.shared.v4.u16\t{<REG>, <REG>, <REG>, <REG>}, [<REG>]": 634,
        "st.cg.v4.u32\t[<REG>], {<REG>, <REG>, <REG>, <REG>}": 635,
        "ld.local.v4.u8\t{<REG>, <REG>, <REG>, <REG>}, [<REG>+<INT>]": 636,
        "tex.1d.v4.u32.s32\t{<REG>, <REG>, <REG>, <REG>}, [<G_VAR>, {<REG>}]": 637,
        "ld.volatile.global.f32\t<REG>, [<REG>+<INT>]": 638,
        "ld.shared.v4.u32\t{<REG>, <REG>, <REG>, <REG>}, [<G_VAR>]": 639,
        "ld.shared.v2.f64\t{<REG>, <REG>}, [<REG>+<INT>]": 640,
        "ld.volatile.shared.u8\t<REG>, [<REG>+<INT>]": 641,
        "ld.volatile.shared.u16\t<REG>, [<REG>+<INT>]": 642,
        "st.volatile.shared.u16\t[<REG>], <REG>": 643,
        "ld.volatile.shared.u64\t<REG>, [<REG>+<INT>]": 644,
        "st.volatile.shared.u64\t[<REG>], <REG>": 645,
        "st.volatile.shared.u64\t[<REG>+<INT>], <REG>": 646,
        "ld.volatile.shared.u64\t<REG>, [<REG>]": 647,
        "ld.global.nc.u8\t<REG>, [<REG>+<INT>]": 648,
        "ld.global.nc.u64\t<REG>, [<REG>+<INT>]": 649,
        "ld.global.nc.v2.u64\t{<REG>, <REG>}, [<REG>+<INT>]": 650,
        "ld.global.nc.v2.f64\t{<REG>, <REG>}, [<REG>]": 651,
        "ld.global.nc.v2.f64\t{<REG>, <REG>}, [<REG>+<INT>]": 652,
        "ld.global.nc.u16\t<REG>, [<REG>+<INT>]": 653,
        "ld.global.nc.v2.u8\t{<REG>, <REG>}, [<REG>+<INT>]": 654,
        "mul.wide.s16\t<REG>, <REG>, <INT>": 655,
        "setp.lt.s16\t<REG>, <REG>, <INT>": 656,
        "xor.b16\t<REG>, <REG>, <REG>": 657,
        "ld.global.s8\t<REG>, [<REG>+<INT>]": 658,
        "ld.global.s8\t<REG>, [<REG>]": 659,
        "shf.l.clamp.b32\t<REG>, <REG>, <REG>, <REG>": 660,
        "shf.clamp.b32\t<REG>,<REG>,<REG>,<REG>": 661,
        "shr.b32\t<REG>,<REG>,<REG>": 662,
        "vshl.u32.u32.u32.clamp.add\t<REG>, <REG>, <INT>, <REG>": 663,
        "ld.const.v4.u32\t{<REG>, <REG>, <REG>, <REG>}, [<REG>+<INT>]": 664,
        "shr.b32\t<REG>, <REG>, <INT>": 665,
        "ld.const.v4.u32\t{<REG>, <REG>, <REG>, <REG>}, [<G_VAR>+<INT>]": 666,
        "prmt.b32\t<REG>, <REG>, <INT>, <INT>": 667,
        "shr.b64\t<REG>,<REG>,<REG>": 668,
        "ld.global.nc.v2.u32\t{<REG>,<REG>}, [<REG>]": 669,
        "tex.1d.v4.f32.s32\t{<REG>, <REG>, <REG>, <REG>}, [<REG>, {<REG>}]": 670,
        "st.local.v2.f64\t[<REG>], {<REG>, <REG>}": 671,
        "st.local.v2.f64\t[<REG>+<INT>], {<REG>, <REG>}": 672,
        "shr.b64\t<REG>, <REG>, <INT>": 673,
        "shf.wrap.b32\t<REG>, <REG>, <REG>, <INT>": 674,
        "lop3.b32\t<REG>, <REG>, <REG>, <REG>, <INT>": 675,
        "st.volatile.global.f64\t[<REG>+<INT>], <REG>": 676,
        "cvt.rm.f16.s32\t<REG>, <REG>": 677,
        "set.eq.f16x2.f16x2\t<REG>,<REG>,<REG>": 678,
        "ld.local.v2.u8\t{<REG>, <REG>}, [<REG>+<INT>]": 679,
        "mul.hi.u64\t<REG>, <REG>, <REG>": 680,
        "tex.cube.v4.f32.f32\t{<REG>, <REG>, <REG>, <REG>}, [<G_VAR>, {<REG>, <REG>, <REG>, <REG>}]": 681,
        "tex.2d.v4.s32.f32\t{<REG>, <REG>, <REG>, <REG>}, [<REG>, {<REG>, <REG>}]": 682,
        "wmma.mma.sync.aligned.col.col.m16n16k16.f32.f32\t{<REG>, <REG>, <REG>, <REG>, <REG>, <REG>, <REG>, <REG>}, {<REG>, <REG>, <REG>, <REG>, <REG>, <REG>, <REG>, <REG>}, {<REG>, <REG>, <REG>, <REG>, <REG>, <REG>, <REG>, <REG>}, {<REG>, <REG>, <REG>, <REG>, <REG>, <REG>, <REG>, <REG>}": 683,
        "ld.shared.v4.u32\t{<REG>, <REG>, <REG>, <REG>}, [<G_VAR>+<INT>]": 684,
        "mul24.hi.u32\t<REG>, <REG>, <REG>": 685,
        "fma.rm.f32\t<REG>, <REG>, <REG>, <REG>": 686,
        "ld.shared.v2.u64\t{<REG>, <REG>}, [<G_VAR>+<INT>]": 687,
        "add.cc.u32\t<REG>,<REG>,<REG>": 688,
        "addc.u32\t<REG>,<REG>,<REG>": 689,
        "atom.shared.or.b32\t<REG>, [<REG>], <REG>": 690,
        "ld.local.v2.u8\t{<REG>, <REG>}, [<REG>]": 691,
        "UNK_STMT": 692
    }
}
