{
    "@!<REG> bra\t<LBL>": 49001,
    "@<REG> bra\t<LBL>": 610624,
    "abs.f32\t<REG>, <REG>": 7099,
    "abs.f64\t<REG>, <REG>": 3795,
    "abs.s32\t<REG>, <REG>": 911,
    "abs.s64\t<REG>, <REG>": 24,
    "activemask.b32\t<REG>": 1810,
    "add.cc.u32\t<REG>, <REG>, <REG>": 1060,
    "add.cc.u32\t<REG>,<REG>,<REG>": 1612,
    "add.f16\t<REG>,<REG>,<REG>": 440,
    "add.f16x2\t<REG>,<REG>,<REG>": 1576,
    "add.f32\t<REG>, <REG>, <FLOAT>": 17810,
    "add.f32\t<REG>, <REG>, <REG>": 153811,
    "add.f64\t<REG>, <REG>, <FLOAT>": 3638,
    "add.f64\t<REG>, <REG>, <REG>": 58446,
    "add.rn.f32\t<REG>, <REG>, <REG>": 4734,
    "add.rn.f64\t<REG>, <REG>, <REG>": 450,
    "add.rz.f32\t<REG>, <REG>, <REG>": 502,
    "add.rz.f64\t<REG>, <REG>, <REG>": 56,
    "add.s16\t<REG>, <REG>, <INT>": 19525,
    "add.s16\t<REG>, <REG>, <REG>": 1,
    "add.s32\t<REG>, <REG>, <INT>": 593386,
    "add.s32\t<REG>, <REG>, <REG>": 2144726,
    "add.s64\t<REG>, <REG>, <INT>": 96187,
    "add.s64\t<REG>, <REG>, <REG>": 967366,
    "add.u32\t<REG>, <REG>, <REG>": 24737,
    "add.u64\t<REG>, <REG>, <INT>": 5199,
    "add.u64\t<REG>, <REG>, <REG>": 1528,
    "addc.cc.u32\t<REG>, <REG>, <REG>": 1402,
    "addc.u32\t<REG>, <INT>, <INT>": 2,
    "addc.u32\t<REG>, <REG>, <INT>": 62,
    "addc.u32\t<REG>, <REG>, <REG>": 76,
    "addc.u32\t<REG>,<REG>,<REG>": 1612,
    "and.b16\t<REG>, <REG>, <INT>": 150579,
    "and.b16\t<REG>, <REG>, <REG>": 224,
    "and.b32\t<REG>, <REG>, <INT>": 246338,
    "and.b32\t<REG>, <REG>, <REG>": 491043,
    "and.b64\t<REG>, <REG>, <INT>": 22157,
    "and.b64\t<REG>, <REG>, <REG>": 21196,
    "and.pred\t<REG>, <REG>, <REG>": 124034,
    "atom.add.f32\t<REG>, [<REG>], <FLOAT>": 3,
    "atom.add.u32\t<REG>, [<REG>], <INT>": 78,
    "atom.add.u32\t<REG>, [<REG>], <REG>": 60,
    "atom.global.add.f32\t<REG>, [<REG>], <FLOAT>": 54,
    "atom.global.add.f32\t<REG>, [<REG>], <REG>": 5851,
    "atom.global.add.f64\t<REG>, [<REG>], <REG>": 1299,
    "atom.global.add.u32\t<REG>, [<REG>], <INT>": 84195,
    "atom.global.add.u32\t<REG>, [<REG>], <REG>": 5558,
    "atom.global.add.u64\t<REG>, [<REG>], <INT>": 21,
    "atom.global.add.u64\t<REG>, [<REG>], <REG>": 56,
    "atom.global.and.b32\t<REG>, [<REG>], <REG>": 60,
    "atom.global.and.b64\t<REG>, [<REG>], <REG>": 4,
    "atom.global.cas.b32\t<REG>, [<REG>], <REG>, <REG>": 170,
    "atom.global.cas.b64\t<REG>, [<REG>], <REG>, <REG>": 41,
    "atom.global.dec.u32\t<REG>, [<REG>], <INT>": 18,
    "atom.global.exch.b32\t<REG>, [<REG>], <INT>": 334,
    "atom.global.exch.b32\t<REG>, [<REG>], <REG>": 116,
    "atom.global.exch.b64\t<REG>, [<REG>], <REG>": 8,
    "atom.global.inc.u32\t<REG>, [<REG>], <INT>": 90,
    "atom.global.inc.u32\t<REG>, [<REG>], <REG>": 244,
    "atom.global.max.s32\t<REG>, [<REG>], <REG>": 49,
    "atom.global.max.u32\t<REG>, [<REG>], <REG>": 70,
    "atom.global.max.u64\t<REG>, [<REG>], <REG>": 4,
    "atom.global.min.s32\t<REG>, [<REG>], <REG>": 236,
    "atom.global.min.u32\t<REG>, [<REG>], <REG>": 207,
    "atom.global.min.u64\t<REG>, [<REG>], <REG>": 4,
    "atom.global.or.b32\t<REG>, [<REG>], <INT>": 6,
    "atom.global.or.b32\t<REG>, [<REG>], <REG>": 20,
    "atom.global.or.b64\t<REG>, [<REG>], <REG>": 4,
    "atom.global.sys.add.f64\t<REG>, [<REG>], <REG>": 15,
    "atom.global.sys.add.u32\t<REG>, [<REG>], <INT>": 40,
    "atom.global.sys.and.b32\t<REG>, [<REG>], <REG>": 50,
    "atom.global.sys.cas.b32\t<REG>, [<REG>], <REG>, <REG>": 60,
    "atom.global.sys.cas.b64\t<REG>, [<REG>], <REG>, <INT>": 10,
    "atom.global.sys.dec.u32\t<REG>, [<REG>], <INT>": 40,
    "atom.global.sys.exch.b32\t<REG>, [<REG>], <REG>": 40,
    "atom.global.sys.inc.u32\t<REG>, [<REG>], <INT>": 40,
    "atom.global.sys.max.s32\t<REG>, [<REG>], <REG>": 40,
    "atom.global.sys.min.s32\t<REG>, [<REG>], <REG>": 40,
    "atom.global.sys.or.b32\t<REG>, [<REG>], <REG>": 50,
    "atom.global.sys.xor.b32\t<REG>, [<REG>], <REG>": 50,
    "atom.global.xor.b32\t<REG>, [<REG>], <REG>": 20,
    "atom.global.xor.b64\t<REG>, [<REG>], <REG>": 4,
    "atom.or.b32\t<REG>, [<REG>], <REG>": 16,
    "atom.shared.add.f32\t<REG>, [<REG>], <FLOAT>": 90,
    "atom.shared.add.f32\t<REG>, [<REG>], <REG>": 816,
    "atom.shared.add.f64\t<REG>, [<REG>], <REG>": 580,
    "atom.shared.add.u32\t<REG>, [<REG>], <INT>": 3159,
    "atom.shared.add.u32\t<REG>, [<REG>], <REG>": 9656,
    "atom.shared.cas.b32\t<REG>, [<REG>], <REG>, <REG>": 172,
    "atom.shared.cas.b64\t<REG>, [<REG>], <REG>, <REG>": 97,
    "atom.shared.exch.b32\t<REG>, [<REG>], <REG>": 528,
    "atom.shared.inc.u32\t<REG>, [<REG>], <INT>": 30,
    "atom.shared.max.s32\t<REG>, [<REG>], <REG>": 24,
    "atom.shared.max.u32\t<REG>, [<REG>], <REG>": 5,
    "atom.shared.min.s32\t<REG>, [<REG>], <REG>": 32,
    "atom.shared.or.b32\t<REG>, [<REG>], <REG>": 908,
    "bar.red.and.pred\t<REG>, <INT>, <REG>": 380,
    "bar.sync\t<INT>": 109229,
    "bar.sync\t<REG>, <REG>": 55,
    "bar.warp.sync\t<INT>": 29889,
    "barrier.sync\t<INT>": 465,
    "bfe.s32\t<REG>, <REG>, <INT>, <INT>": 336,
    "bfe.s64\t<REG>, <REG>, <INT>, <INT>": 114,
    "bfe.u32\t<REG>, <REG>, <INT>, <INT>": 19220,
    "bfe.u32\t<REG>, <REG>, <INT>, <REG>": 1468,
    "bfe.u32\t<REG>, <REG>, <REG>, <REG>": 150315,
    "bfe.u64\t<REG>, <REG>, <INT>, <INT>": 73,
    "bfi.b32\t<REG>, <REG>, <REG>, <INT>, <INT>": 3106,
    "bfi.b64\t<REG>, <REG>, <REG>, <INT>, <INT>": 5400,
    "bfind.u32\t<REG>, <REG>": 225,
    "bra.uni\t<LBL>": 172507,
    "brev.b32\t<REG>, <REG>": 3005,
    "call\t(<L_VAR>), <REG>, ( <L_VAR> ), <LBL>": 22,
    "call\t(<L_VAR>), <REG>, ( <L_VAR>, <L_VAR> ), <LBL>": 6,
    "call\t(<L_VAR>), <REG>, ( <L_VAR>, <L_VAR>, <L_VAR>, <L_VAR> ), <LBL>": 8,
    "call.uni\t(<L_VAR>), <EXT_FUNC>, ( <L_VAR> )": 88,
    "call.uni\t(<L_VAR>), <EXT_FUNC>, ( <L_VAR>, <L_VAR> )": 446,
    "call.uni\t(<L_VAR>), <EXT_FUNC>, ( <L_VAR>, <L_VAR>, <L_VAR> )": 3,
    "call.uni\t(<L_VAR>), <EXT_FUNC>, ( <L_VAR>, <L_VAR>, <L_VAR>, <L_VAR>, <L_VAR> )": 5,
    "call.uni\t(<L_VAR>), <FUNC>, ( <L_VAR> )": 312,
    "call.uni\t(<L_VAR>), <FUNC>, ( <L_VAR>, <L_VAR> )": 462,
    "call.uni\t(<L_VAR>), <FUNC>, ( <L_VAR>, <L_VAR>, <L_VAR>, <L_VAR>, <L_VAR>, <L_VAR>, <L_VAR>, <L_VAR>, <L_VAR>, <L_VAR>, <L_VAR> )": 48,
    "call.uni\t(<L_VAR>), <FUNC>, ( <L_VAR>, <L_VAR>, <L_VAR>, <L_VAR>, <L_VAR>, <L_VAR>, <L_VAR>, <L_VAR>, <L_VAR>, <L_VAR>, <L_VAR>, <L_VAR>, <L_VAR>, <L_VAR>, <L_VAR>, <L_VAR>, <L_VAR>, <L_VAR> )": 20,
    "call.uni\t<EXT_FUNC>, ( <L_VAR> )": 256,
    "call.uni\t<EXT_FUNC>, ( <L_VAR>, <L_VAR>, <L_VAR>, <L_VAR>, <L_VAR> )": 6822,
    "call.uni\t<EXT_FUNC>, ( <L_VAR>, <L_VAR>, <L_VAR>, <L_VAR>, <L_VAR>, <L_VAR> )": 1,
    "call.uni\t<EXT_FUNC>, ( <L_VAR>, <L_VAR>, <L_VAR>, <L_VAR>, <L_VAR>, <L_VAR>, <L_VAR>, <L_VAR> )": 1,
    "call.uni\t<FUNC>, ( <L_VAR> )": 2,
    "call.uni\t<FUNC>, ( <L_VAR>, <L_VAR> )": 13,
    "call.uni\t<FUNC>, ( <L_VAR>, <L_VAR>, <L_VAR> )": 22,
    "call.uni\t<FUNC>, ( <L_VAR>, <L_VAR>, <L_VAR>, <L_VAR>, <L_VAR>, <L_VAR> )": 10,
    "clz.b32\t<REG>, <REG>": 3063,
    "clz.b64\t<REG>, <REG>": 60,
    "cos.approx.f32\t<REG>, <REG>": 49,
    "cvt.f32.f16\t<REG>, <REG>": 851,
    "cvt.f64.f32\t<REG>, <REG>": 9473,
    "cvt.rm.f16.s32\t<REG>, <REG>": 363,
    "cvt.rm.f32.s32\t<REG>, <REG>": 2,
    "cvt.rmi.f32.f32\t<REG>, <REG>": 1222,
    "cvt.rmi.f64.f64\t<REG>, <REG>": 81,
    "cvt.rmi.s32.f32\t<REG>, <REG>": 44,
    "cvt.rn.f16.f32\t<REG>, <REG>": 588,
    "cvt.rn.f16.s32\t<REG>, <REG>": 2,
    "cvt.rn.f32.f64\t<REG>, <REG>": 6851,
    "cvt.rn.f32.s16\t<REG>, <REG>": 296,
    "cvt.rn.f32.s32\t<REG>, <REG>": 49000,
    "cvt.rn.f32.s64\t<REG>, <REG>": 138,
    "cvt.rn.f32.u16\t<REG>, <REG>": 96316,
    "cvt.rn.f32.u32\t<REG>, <REG>": 2613,
    "cvt.rn.f32.u64\t<REG>, <REG>": 1577,
    "cvt.rn.f64.s16\t<REG>, <REG>": 28,
    "cvt.rn.f64.s32\t<REG>, <REG>": 2303,
    "cvt.rn.f64.s64\t<REG>, <REG>": 443,
    "cvt.rn.f64.u16\t<REG>, <REG>": 73,
    "cvt.rn.f64.u32\t<REG>, <REG>": 108,
    "cvt.rn.f64.u64\t<REG>, <REG>": 32,
    "cvt.rni.f32.f32\t<REG>, <REG>": 552,
    "cvt.rni.f64.f64\t<REG>, <REG>": 6,
    "cvt.rni.s32.f32\t<REG>, <REG>": 260,
    "cvt.rni.s32.f64\t<REG>, <REG>": 166,
    "cvt.rni.s64.f32\t<REG>, <REG>": 75,
    "cvt.rni.s64.f64\t<REG>, <REG>": 52,
    "cvt.rni.u32.f32\t<REG>, <REG>": 761,
    "cvt.rpi.f32.f32\t<REG>, <REG>": 494,
    "cvt.rpi.f64.f64\t<REG>, <REG>": 12,
    "cvt.rzi.f32.f32\t<REG>, <REG>": 3633,
    "cvt.rzi.f64.f64\t<REG>, <REG>": 1206,
    "cvt.rzi.s32.f32\t<REG>, <REG>": 7051,
    "cvt.rzi.s32.f64\t<REG>, <REG>": 664,
    "cvt.rzi.s64.f32\t<REG>, <REG>": 59,
    "cvt.rzi.s64.f64\t<REG>, <REG>": 71,
    "cvt.rzi.u32.f32\t<REG>, <REG>": 1541,
    "cvt.rzi.u32.f64\t<REG>, <REG>": 173,
    "cvt.rzi.u64.f32\t<REG>, <REG>": 28,
    "cvt.s16.s8\t<REG>, <REG>": 37737,
    "cvt.s32.s16\t<REG>, <REG>": 250,
    "cvt.s32.s8\t<REG>, <REG>": 3055,
    "cvt.s64.s16\t<REG>, <REG>": 11,
    "cvt.s64.s32\t<REG>, <REG>": 103719,
    "cvt.s64.s8\t<REG>, <REG>": 63,
    "cvt.sat.f32.f32\t<REG>, <REG>": 788,
    "cvt.sat.f64.f64\t<REG>, <REG>": 4,
    "cvt.u16.u32\t<REG>, <REG>": 140056,
    "cvt.u16.u64\t<REG>, <REG>": 3137,
    "cvt.u16.u8\t<REG>, <REG>": 7716,
    "cvt.u32.u16\t<REG>, <REG>": 161586,
    "cvt.u32.u64\t<REG>, <REG>": 68148,
    "cvt.u64.u16\t<REG>, <REG>": 1202,
    "cvt.u64.u32\t<REG>, <REG>": 59687,
    "cvt.u8.u16\t<REG>, <REG>": 907,
    "cvta.const.u64\t<REG>, <REG>": 5,
    "cvta.global.u64\t<REG>, <REG>": 20898,
    "cvta.local.u64\t<REG>, <REG>": 278,
    "cvta.shared.u64\t<REG>, <REG>": 255,
    "cvta.to.global.u64\t<REG>, <REG>": 176114,
    "cvta.to.local.u64\t<REG>, <REG>": 1091,
    "cvta.to.shared.u64\t<REG>, <REG>": 29,
    "div.approx.f32\t<REG>, <REG>, <REG>": 4184,
    "div.rn.f32\t<REG>, <REG>, <FLOAT>": 15248,
    "div.rn.f32\t<REG>, <REG>, <REG>": 44275,
    "div.rn.f64\t<REG>, <REG>, <FLOAT>": 274,
    "div.rn.f64\t<REG>, <REG>, <REG>": 7937,
    "div.s32\t<REG>, <REG>, <REG>": 25795,
    "div.s64\t<REG>, <REG>, <REG>": 204,
    "div.u16\t<REG>, <REG>, <REG>": 4,
    "div.u32\t<REG>, <REG>, <REG>": 10020,
    "div.u64\t<REG>, <REG>, <REG>": 87,
    "dp2a.lo.s32.s32\t<REG>, <REG>, <REG>, <REG>": 3,
    "dp2a.lo.u32.s32\t<REG>, <REG>, <REG>, <REG>": 12,
    "dp2a.lo.u32.u32\t<REG>, <REG>, <REG>, <REG>": 231,
    "dp4a.s32.s32\t<REG>, <REG>, <REG>, <REG>": 6,
    "dp4a.u32.u32\t<REG>, <REG>, <REG>, <REG>": 141,
    "ex2.approx.f32\t<REG>, <REG>": 3272,
    "ex2.approx.f32.ftz\t<REG>, <REG>": 6,
    "ex2.approx.ftz.f32\t<REG>, <REG>": 1731,
    "fma.rm.f32\t<REG>, <REG>, <REG>, <REG>": 580,
    "fma.rn.f16\t<REG>,<REG>,<REG>,<REG>": 15,
    "fma.rn.f16x2\t<REG>,<REG>,<REG>,<REG>": 31871,
    "fma.rn.f32\t<REG>, <REG>, <FLOAT>, <FLOAT>": 1514,
    "fma.rn.f32\t<REG>, <REG>, <FLOAT>, <REG>": 7144,
    "fma.rn.f32\t<REG>, <REG>, <REG>, <FLOAT>": 11250,
    "fma.rn.f32\t<REG>, <REG>, <REG>, <REG>": 1222635,
    "fma.rn.f64\t<REG>, <REG>, <FLOAT>, <FLOAT>": 291,
    "fma.rn.f64\t<REG>, <REG>, <FLOAT>, <REG>": 826,
    "fma.rn.f64\t<REG>, <REG>, <REG>, <FLOAT>": 1785,
    "fma.rn.f64\t<REG>, <REG>, <REG>, <REG>": 77567,
    "fns.b32\t<REG>, <REG>, <INT>, <REG>": 3,
    "ld.ca.u16\t<REG>, [<REG>]": 40,
    "ld.ca.u32\t<REG>, [<REG>]": 80,
    "ld.ca.u64\t<REG>, [<REG>]": 152,
    "ld.ca.u8\t<REG>, [<REG>]": 32,
    "ld.ca.v2.u64\t{<REG>, <REG>}, [<REG>]": 176,
    "ld.cg.u16\t<REG>, [<REG>]": 654,
    "ld.cg.u32\t<REG>, [<REG>]": 947,
    "ld.cg.u64\t<REG>, [<REG>]": 3340,
    "ld.cg.u8\t<REG>, [<REG>]": 1442,
    "ld.cg.v2.u64\t{<REG>, <REG>}, [<REG>]": 2944,
    "ld.const.f32\t<REG>, [<G_VAR>+<INT>]": 4929,
    "ld.const.f32\t<REG>, [<G_VAR>]": 241,
    "ld.const.f32\t<REG>, [<REG>+<INT>]": 731,
    "ld.const.f32\t<REG>, [<REG>]": 914,
    "ld.const.f64\t<REG>, [<G_VAR>+<INT>]": 1234,
    "ld.const.f64\t<REG>, [<G_VAR>]": 6,
    "ld.const.f64\t<REG>, [<REG>+<INT>]": 873,
    "ld.const.f64\t<REG>, [<REG>]": 77,
    "ld.const.s32\t<REG>, [<REG>+<INT>]": 2,
    "ld.const.s32\t<REG>, [<REG>]": 3,
    "ld.const.s8\t<REG>, [<REG>]": 2,
    "ld.const.u16\t<REG>, [<G_VAR>]": 49,
    "ld.const.u16\t<REG>, [<REG>+<INT>]": 39,
    "ld.const.u16\t<REG>, [<REG>]": 31,
    "ld.const.u32\t<REG>, [<G_VAR>+<INT>]": 8040,
    "ld.const.u32\t<REG>, [<G_VAR>]": 669,
    "ld.const.u32\t<REG>, [<REG>+<INT>]": 17385,
    "ld.const.u32\t<REG>, [<REG>]": 20537,
    "ld.const.u64\t<REG>, [<G_VAR>+<INT>]": 1781,
    "ld.const.u64\t<REG>, [<G_VAR>]": 164,
    "ld.const.u64\t<REG>, [<REG>+<INT>]": 782,
    "ld.const.u64\t<REG>, [<REG>]": 564,
    "ld.const.u8\t<REG>, [<REG>+<INT>]": 2425,
    "ld.const.u8\t<REG>, [<REG>]": 1422,
    "ld.const.v2.f32\t{<REG>, <REG>}, [<G_VAR>+<INT>]": 2000,
    "ld.const.v2.f32\t{<REG>, <REG>}, [<G_VAR>]": 2,
    "ld.const.v2.u32\t{<REG>, <REG>}, [<G_VAR>+<INT>]": 1282,
    "ld.const.v2.u32\t{<REG>, <REG>}, [<G_VAR>]": 78,
    "ld.const.v2.u32\t{<REG>, <REG>}, [<REG>+<INT>]": 464,
    "ld.const.v2.u32\t{<REG>, <REG>}, [<REG>]": 76,
    "ld.const.v4.f32\t{<REG>, <REG>, <REG>, <REG>}, [<G_VAR>+<INT>]": 408,
    "ld.const.v4.f32\t{<REG>, <REG>, <REG>, <REG>}, [<G_VAR>]": 4,
    "ld.const.v4.f32\t{<REG>, <REG>, <REG>, <REG>}, [<REG>+<INT>]": 136,
    "ld.const.v4.f32\t{<REG>, <REG>, <REG>, <REG>}, [<REG>]": 60,
    "ld.const.v4.u32\t{<REG>, <REG>, <REG>, <REG>}, [<G_VAR>+<INT>]": 320,
    "ld.const.v4.u32\t{<REG>, <REG>, <REG>, <REG>}, [<G_VAR>]": 88,
    "ld.const.v4.u32\t{<REG>, <REG>, <REG>, <REG>}, [<REG>+<INT>]": 832,
    "ld.const.v4.u32\t{<REG>, <REG>, <REG>, <REG>}, [<REG>]": 64,
    "ld.cs.u16\t<REG>, [<REG>]": 40,
    "ld.cs.u32\t<REG>, [<REG>]": 80,
    "ld.cs.u64\t<REG>, [<REG>]": 152,
    "ld.cs.u8\t<REG>, [<REG>]": 32,
    "ld.cs.v2.u64\t{<REG>, <REG>}, [<REG>]": 176,
    "ld.cv.u16\t<REG>, [<REG>]": 40,
    "ld.cv.u32\t<REG>, [<REG>]": 80,
    "ld.cv.u64\t<REG>, [<REG>]": 152,
    "ld.cv.u8\t<REG>, [<REG>]": 32,
    "ld.cv.v2.f64\t{<REG>,<REG>}, [<REG>]": 12,
    "ld.cv.v2.u64\t{<REG>, <REG>}, [<REG>]": 176,
    "ld.f32\t<REG>, [<REG>+<INT>]": 869,
    "ld.f32\t<REG>, [<REG>]": 679,
    "ld.f64\t<REG>, [<REG>+<INT>]": 163,
    "ld.f64\t<REG>, [<REG>]": 1128,
    "ld.global.ca.f32\t<REG>, [<REG>]": 12,
    "ld.global.ca.f64\t<REG>, [<REG>]": 12,
    "ld.global.ca.s32\t<REG>, [<REG>]": 200,
    "ld.global.ca.v2.f32\t{<REG>, <REG>}, [<REG>]": 24,
    "ld.global.ca.v2.f64\t{<REG>, <REG>}, [<REG>]": 24,
    "ld.global.cg.s32\t<REG>, [<REG>]": 76,
    "ld.global.cs.nc.u32\t{<REG>}, [<REG> + <INT>]": 60,
    "ld.global.cs.nc.v2.u32\t{<REG>, <REG>}, [<REG> + <INT>]": 120,
    "ld.global.cs.nc.v4.u32\t{<REG>, <REG>, <REG>, <REG>}, [<REG> + <INT>]": 176,
    "ld.global.cs.nc.v4.u32\t{<REG>, <REG>, <REG>, <REG>}, [<REG>]": 64,
    "ld.global.cs.u16\t{<REG>}, [<REG>]": 4,
    "ld.global.cs.u32\t{<REG>}, [<REG>]": 4,
    "ld.global.cs.u8\t{<REG>}, [<REG> + <INT>]": 12,
    "ld.global.cs.u8\t{<REG>}, [<REG>]": 4,
    "ld.global.cs.v2.u32\t{<REG>, <REG>}, [<REG>]": 8,
    "ld.global.cs.v4.u32\t{<REG>, <REG>, <REG>, <REG>}, [<REG>]": 16,
    "ld.global.f32\t<REG>, [<G_VAR>+<INT>]": 18,
    "ld.global.f32\t<REG>, [<G_VAR>]": 59,
    "ld.global.f32\t<REG>, [<REG>+<INT>]": 32832,
    "ld.global.f32\t<REG>, [<REG>]": 58589,
    "ld.global.f64\t<REG>, [<G_VAR>]": 3,
    "ld.global.f64\t<REG>, [<REG>+<INT>]": 5825,
    "ld.global.f64\t<REG>, [<REG>]": 8920,
    "ld.global.nc.b32\t<REG>, [<REG>]": 4,
    "ld.global.nc.f32\t<REG>, [<REG>+<INT>]": 594,
    "ld.global.nc.f32\t<REG>, [<REG>]": 1659,
    "ld.global.nc.f64\t<REG>, [<REG>+<INT>]": 143,
    "ld.global.nc.f64\t<REG>, [<REG>]": 224,
    "ld.global.nc.s32\t<REG>, [<REG>]": 310,
    "ld.global.nc.u16\t<REG>, [<REG>+<INT>]": 1223,
    "ld.global.nc.u16\t<REG>, [<REG>]": 1879,
    "ld.global.nc.u32\t<REG>, [<REG>+<INT>]": 4422,
    "ld.global.nc.u32\t<REG>, [<REG>]": 12053,
    "ld.global.nc.u64\t<REG>, [<REG>+<INT>]": 3049,
    "ld.global.nc.u64\t<REG>, [<REG>]": 5509,
    "ld.global.nc.u8\t<REG>, [<REG>+<INT>]": 980,
    "ld.global.nc.u8\t<REG>, [<REG>]": 7666,
    "ld.global.nc.v2.f32\t{<REG>, <REG>}, [<REG>+<INT>]": 16,
    "ld.global.nc.v2.f32\t{<REG>, <REG>}, [<REG>]": 16,
    "ld.global.nc.v2.f32\t{<REG>,<REG>}, [<REG>]": 100,
    "ld.global.nc.v2.f64\t{<REG>, <REG>}, [<REG>+<INT>]": 1804,
    "ld.global.nc.v2.f64\t{<REG>, <REG>}, [<REG>]": 652,
    "ld.global.nc.v2.f64\t{<REG>,<REG>}, [<REG>]": 164,
    "ld.global.nc.v2.u32\t{<REG>,<REG>}, [<REG>]": 2302,
    "ld.global.nc.v2.u64\t{<REG>, <REG>}, [<REG>+<INT>]": 2110,
    "ld.global.nc.v2.u64\t{<REG>, <REG>}, [<REG>]": 2306,
    "ld.global.nc.v2.u8\t{<REG>, <REG>}, [<REG>+<INT>]": 2446,
    "ld.global.nc.v4.f32\t{<REG>, <REG>, <REG>, <REG>}, [<REG>]": 28,
    "ld.global.nc.v4.u32\t{<REG>, <REG>, <REG>, <REG>}, [<REG>]": 20,
    "ld.global.nc.v4.u32\t{<REG>,<REG>,<REG>,<REG>}, [<REG>+<INT>]": 288,
    "ld.global.nc.v4.u32\t{<REG>,<REG>,<REG>,<REG>}, [<REG>]": 288,
    "ld.global.s16\t<REG>, [<REG>+<INT>]": 19,
    "ld.global.s16\t<REG>, [<REG>]": 75,
    "ld.global.s32\t<REG>, [<REG>+<INT>]": 72,
    "ld.global.s32\t<REG>, [<REG>]": 57,
    "ld.global.s8\t<REG>, [<REG>+<INT>]": 570,
    "ld.global.s8\t<REG>, [<REG>]": 734,
    "ld.global.u16\t<REG>, [<REG>+<INT>]": 25256,
    "ld.global.u16\t<REG>, [<REG>]": 6021,
    "ld.global.u32\t<REG>, [<G_VAR>+<INT>]": 47,
    "ld.global.u32\t<REG>, [<G_VAR>]": 10,
    "ld.global.u32\t<REG>, [<REG>+<INT>]": 147521,
    "ld.global.u32\t<REG>, [<REG>]": 50465,
    "ld.global.u64\t<REG>, [<G_VAR>+<INT>]": 5,
    "ld.global.u64\t<REG>, [<G_VAR>]": 140,
    "ld.global.u64\t<REG>, [<REG>+<INT>]": 82576,
    "ld.global.u64\t<REG>, [<REG>]": 14896,
    "ld.global.u8\t<REG>, [<REG>+<INT>]": 37378,
    "ld.global.u8\t<REG>, [<REG>]": 11019,
    "ld.global.v2.f32\t{<REG>, <REG>}, [<REG>+<INT>]": 866,
    "ld.global.v2.f32\t{<REG>, <REG>}, [<REG>]": 2712,
    "ld.global.v2.f64\t{<REG>, <REG>}, [<REG>+<INT>]": 3752,
    "ld.global.v2.f64\t{<REG>, <REG>}, [<REG>]": 3344,
    "ld.global.v2.u16\t{<REG>, <REG>}, [<REG>+<INT>]": 708,
    "ld.global.v2.u16\t{<REG>, <REG>}, [<REG>]": 298,
    "ld.global.v2.u32\t{<REG>, <REG>}, [<G_VAR>+<INT>]": 2,
    "ld.global.v2.u32\t{<REG>, <REG>}, [<REG>+<INT>]": 4154,
    "ld.global.v2.u32\t{<REG>, <REG>}, [<REG>]": 4264,
    "ld.global.v2.u64\t{<REG>, <REG>}, [<REG>+<INT>]": 4650,
    "ld.global.v2.u64\t{<REG>, <REG>}, [<REG>]": 1982,
    "ld.global.v2.u8\t{<REG>, <REG>}, [<REG>+<INT>]": 21678,
    "ld.global.v2.u8\t{<REG>, <REG>}, [<REG>]": 350,
    "ld.global.v4.f32\t{<REG>, <REG>, <REG>, <REG>}, [<G_VAR>+<INT>]": 8,
    "ld.global.v4.f32\t{<REG>, <REG>, <REG>, <REG>}, [<REG>+<INT>]": 1312,
    "ld.global.v4.f32\t{<REG>, <REG>, <REG>, <REG>}, [<REG>]": 7760,
    "ld.global.v4.u16\t{<REG>, <REG>, <REG>, <REG>}, [<REG>+<INT>]": 1176,
    "ld.global.v4.u16\t{<REG>, <REG>, <REG>, <REG>}, [<REG>]": 416,
    "ld.global.v4.u32\t{<REG>, <REG>, <REG>, <REG>}, [<REG>+<INT>]": 3856,
    "ld.global.v4.u32\t{<REG>, <REG>, <REG>, <REG>}, [<REG>]": 4012,
    "ld.global.v4.u8\t{<REG>, <REG>, <REG>, <REG>}, [<REG>+<INT>]": 2744,
    "ld.global.v4.u8\t{<REG>, <REG>, <REG>, <REG>}, [<REG>]": 676,
    "ld.local.f32\t<REG>, [<REG>+<INT>]": 2466,
    "ld.local.f32\t<REG>, [<REG>]": 1589,
    "ld.local.f64\t<REG>, [<REG>+<INT>]": 2380,
    "ld.local.f64\t<REG>, [<REG>]": 2150,
    "ld.local.s8\t<REG>, [<REG>]": 2,
    "ld.local.u16\t<REG>, [<REG>+<INT>]": 86,
    "ld.local.u16\t<REG>, [<REG>]": 150,
    "ld.local.u32\t<REG>, [<REG>+<INT>]": 14877,
    "ld.local.u32\t<REG>, [<REG>]": 3866,
    "ld.local.u64\t<REG>, [<REG>+<INT>]": 2456,
    "ld.local.u64\t<REG>, [<REG>]": 1889,
    "ld.local.u8\t<REG>, [<REG>+<INT>]": 9548,
    "ld.local.u8\t<REG>, [<REG>]": 458,
    "ld.local.v2.f32\t{<REG>, <REG>}, [<REG>+<INT>]": 920,
    "ld.local.v2.f32\t{<REG>, <REG>}, [<REG>]": 698,
    "ld.local.v2.f64\t{<REG>, <REG>}, [<REG>+<INT>]": 96,
    "ld.local.v2.f64\t{<REG>, <REG>}, [<REG>]": 52,
    "ld.local.v2.u16\t{<REG>, <REG>}, [<REG>]": 12,
    "ld.local.v2.u32\t{<REG>, <REG>}, [<REG>+<INT>]": 6612,
    "ld.local.v2.u32\t{<REG>, <REG>}, [<REG>]": 2330,
    "ld.local.v2.u64\t{<REG>, <REG>}, [<REG>+<INT>]": 282,
    "ld.local.v2.u64\t{<REG>, <REG>}, [<REG>]": 10,
    "ld.local.v2.u8\t{<REG>, <REG>}, [<REG>+<INT>]": 426,
    "ld.local.v2.u8\t{<REG>, <REG>}, [<REG>]": 546,
    "ld.local.v4.f32\t{<REG>, <REG>, <REG>, <REG>}, [<REG>+<INT>]": 536,
    "ld.local.v4.f32\t{<REG>, <REG>, <REG>, <REG>}, [<REG>]": 172,
    "ld.local.v4.u16\t{<REG>, <REG>, <REG>, <REG>}, [<REG>+<INT>]": 48,
    "ld.local.v4.u16\t{<REG>, <REG>, <REG>, <REG>}, [<REG>]": 32,
    "ld.local.v4.u32\t{<REG>, <REG>, <REG>, <REG>}, [<REG>+<INT>]": 1948,
    "ld.local.v4.u32\t{<REG>, <REG>, <REG>, <REG>}, [<REG>]": 284,
    "ld.local.v4.u8\t{<REG>, <REG>, <REG>, <REG>}, [<REG>+<INT>]": 1928,
    "ld.local.v4.u8\t{<REG>, <REG>, <REG>, <REG>}, [<REG>]": 1516,
    "ld.param.b32\t<REG>, [<L_VAR>+<INT>]": 555,
    "ld.param.b64\t<REG>, [<L_VAR>+<INT>]": 76,
    "ld.param.b8\t<REG>, [<L_VAR>+<INT>]": 24,
    "ld.param.f32\t<REG>, [<L_VAR>+<INT>]": 26,
    "ld.param.f32\t<REG>, [<PARAM>+<INT>]": 932,
    "ld.param.f32\t<REG>, [<PARAM>]": 9662,
    "ld.param.f32\t<REG>, [<REG>+<INT>]": 2249,
    "ld.param.f64\t<REG>, [<L_VAR>+<INT>]": 776,
    "ld.param.f64\t<REG>, [<PARAM>+<INT>]": 286,
    "ld.param.f64\t<REG>, [<PARAM>]": 1465,
    "ld.param.f64\t<REG>, [<REG>+<INT>]": 36,
    "ld.param.f64\t<REG>, [<REG>]": 4,
    "ld.param.s32\t<REG>, [<PARAM>+<INT>]": 10,
    "ld.param.s32\t<REG>, [<PARAM>]": 26,
    "ld.param.s32\t<REG>, [<REG>+<INT>]": 460,
    "ld.param.s8\t<REG>, [<PARAM>]": 732,
    "ld.param.u16\t<REG>, [<PARAM>+<INT>]": 355,
    "ld.param.u16\t<REG>, [<PARAM>]": 304,
    "ld.param.u32\t<REG>, [<PARAM>+<INT>]": 19426,
    "ld.param.u32\t<REG>, [<PARAM>]": 91171,
    "ld.param.u32\t<REG>, [<REG>+<INT>]": 38,
    "ld.param.u32\t<REG>, [<REG>]": 9,
    "ld.param.u64\t<REG>, [<PARAM>+<INT>]": 13539,
    "ld.param.u64\t<REG>, [<PARAM>]": 84806,
    "ld.param.u64\t<REG>, [<REG>+<INT>]": 29001,
    "ld.param.u64\t<REG>, [<REG>]": 3,
    "ld.param.u8\t<REG>, [<PARAM>+<INT>]": 1018,
    "ld.param.u8\t<REG>, [<PARAM>]": 771,
    "ld.param.u8\t<REG>, [<REG>+<INT>]": 12,
    "ld.param.u8\t<REG>, [<REG>]": 2,
    "ld.param.v2.f32\t{<REG>, <REG>}, [<PARAM>+<INT>]": 24,
    "ld.param.v2.f32\t{<REG>, <REG>}, [<REG>+<INT>]": 43204,
    "ld.param.v2.f32\t{<REG>, <REG>}, [<REG>]": 4,
    "ld.param.v2.u32\t{<REG>, <REG>}, [<PARAM>+<INT>]": 50,
    "ld.param.v2.u32\t{<REG>, <REG>}, [<PARAM>]": 40,
    "ld.param.v2.u32\t{<REG>, <REG>}, [<REG>+<INT>]": 2964,
    "ld.param.v2.u32\t{<REG>, <REG>}, [<REG>]": 18,
    "ld.s16\t<REG>, [<REG>+<INT>]": 6,
    "ld.s16\t<REG>, [<REG>]": 7,
    "ld.s32\t<REG>, [<REG>]": 16,
    "ld.s8\t<REG>, [<REG>]": 33,
    "ld.shared.f32\t<REG>, [<G_VAR>+<INT>]": 690,
    "ld.shared.f32\t<REG>, [<G_VAR>]": 597,
    "ld.shared.f32\t<REG>, [<L_VAR>+<INT>]": 7261,
    "ld.shared.f32\t<REG>, [<L_VAR>]": 742,
    "ld.shared.f32\t<REG>, [<REG>+<INT>]": 325827,
    "ld.shared.f32\t<REG>, [<REG>]": 34324,
    "ld.shared.f64\t<REG>, [<G_VAR>+<INT>]": 228,
    "ld.shared.f64\t<REG>, [<G_VAR>]": 215,
    "ld.shared.f64\t<REG>, [<L_VAR>+<INT>]": 677,
    "ld.shared.f64\t<REG>, [<L_VAR>]": 150,
    "ld.shared.f64\t<REG>, [<REG>+<INT>]": 10005,
    "ld.shared.f64\t<REG>, [<REG>]": 3096,
    "ld.shared.s16\t<REG>, [<REG>+<INT>]": 5,
    "ld.shared.s16\t<REG>, [<REG>]": 1,
    "ld.shared.s8\t<REG>, [<L_VAR>+<INT>]": 526,
    "ld.shared.s8\t<REG>, [<REG>+<INT>]": 45,
    "ld.shared.s8\t<REG>, [<REG>]": 217,
    "ld.shared.u16\t<REG>, [<G_VAR>+<INT>]": 4,
    "ld.shared.u16\t<REG>, [<L_VAR>+<INT>]": 388,
    "ld.shared.u16\t<REG>, [<L_VAR>]": 2,
    "ld.shared.u16\t<REG>, [<REG>+<INT>]": 35154,
    "ld.shared.u16\t<REG>, [<REG>]": 107663,
    "ld.shared.u32\t<REG>, [<G_VAR>+<INT>]": 2260,
    "ld.shared.u32\t<REG>, [<G_VAR>]": 262,
    "ld.shared.u32\t<REG>, [<L_VAR>+<INT>]": 14204,
    "ld.shared.u32\t<REG>, [<L_VAR>]": 881,
    "ld.shared.u32\t<REG>, [<REG>+<INT>]": 282693,
    "ld.shared.u32\t<REG>, [<REG>]": 57251,
    "ld.shared.u64\t<REG>, [<G_VAR>+<INT>]": 1301,
    "ld.shared.u64\t<REG>, [<G_VAR>]": 3,
    "ld.shared.u64\t<REG>, [<L_VAR>+<INT>]": 1423,
    "ld.shared.u64\t<REG>, [<L_VAR>]": 772,
    "ld.shared.u64\t<REG>, [<REG>+<INT>]": 74927,
    "ld.shared.u64\t<REG>, [<REG>]": 14896,
    "ld.shared.u8\t<REG>, [<G_VAR>+<INT>]": 6,
    "ld.shared.u8\t<REG>, [<G_VAR>]": 1,
    "ld.shared.u8\t<REG>, [<L_VAR>+<INT>]": 1686,
    "ld.shared.u8\t<REG>, [<L_VAR>]": 79,
    "ld.shared.u8\t<REG>, [<REG>+<INT>]": 40304,
    "ld.shared.u8\t<REG>, [<REG>]": 28891,
    "ld.shared.v2.f32\t{<REG>, <REG>}, [<G_VAR>]": 12,
    "ld.shared.v2.f32\t{<REG>, <REG>}, [<L_VAR>+<INT>]": 288,
    "ld.shared.v2.f32\t{<REG>, <REG>}, [<L_VAR>]": 66,
    "ld.shared.v2.f32\t{<REG>, <REG>}, [<REG>+<INT>]": 296,
    "ld.shared.v2.f32\t{<REG>, <REG>}, [<REG>]": 292,
    "ld.shared.v2.f64\t{<REG>, <REG>}, [<L_VAR>+<INT>]": 30,
    "ld.shared.v2.f64\t{<REG>, <REG>}, [<L_VAR>]": 32,
    "ld.shared.v2.f64\t{<REG>, <REG>}, [<REG>+<INT>]": 9316,
    "ld.shared.v2.f64\t{<REG>, <REG>}, [<REG>]": 3414,
    "ld.shared.v2.u16\t{<REG>, <REG>}, [<L_VAR>+<INT>]": 144,
    "ld.shared.v2.u16\t{<REG>, <REG>}, [<REG>+<INT>]": 2542,
    "ld.shared.v2.u16\t{<REG>, <REG>}, [<REG>]": 218,
    "ld.shared.v2.u32\t{<REG>, <REG>}, [<G_VAR>+<INT>]": 84,
    "ld.shared.v2.u32\t{<REG>, <REG>}, [<G_VAR>]": 40,
    "ld.shared.v2.u32\t{<REG>, <REG>}, [<L_VAR>+<INT>]": 2288,
    "ld.shared.v2.u32\t{<REG>, <REG>}, [<L_VAR>]": 4,
    "ld.shared.v2.u32\t{<REG>, <REG>}, [<REG>+<INT>]": 10278,
    "ld.shared.v2.u32\t{<REG>, <REG>}, [<REG>]": 11114,
    "ld.shared.v2.u64\t{<REG>, <REG>}, [<G_VAR>+<INT>]": 496,
    "ld.shared.v2.u64\t{<REG>, <REG>}, [<G_VAR>]": 112,
    "ld.shared.v2.u64\t{<REG>, <REG>}, [<L_VAR>+<INT>]": 872,
    "ld.shared.v2.u64\t{<REG>, <REG>}, [<REG>+<INT>]": 11986,
    "ld.shared.v2.u64\t{<REG>, <REG>}, [<REG>]": 4706,
    "ld.shared.v2.u8\t{<REG>, <REG>}, [<L_VAR>+<INT>]": 596,
    "ld.shared.v2.u8\t{<REG>, <REG>}, [<REG>+<INT>]": 38196,
    "ld.shared.v2.u8\t{<REG>, <REG>}, [<REG>]": 334,
    "ld.shared.v4.f32\t{<REG>, <REG>, <REG>, <REG>}, [<REG>+<INT>]": 924,
    "ld.shared.v4.f32\t{<REG>, <REG>, <REG>, <REG>}, [<REG>]": 2176,
    "ld.shared.v4.u16\t{<REG>, <REG>, <REG>, <REG>}, [<L_VAR>+<INT>]": 1248,
    "ld.shared.v4.u16\t{<REG>, <REG>, <REG>, <REG>}, [<REG>+<INT>]": 2096,
    "ld.shared.v4.u16\t{<REG>, <REG>, <REG>, <REG>}, [<REG>]": 2376,
    "ld.shared.v4.u32\t{<REG>, <REG>, <REG>, <REG>}, [<G_VAR>+<INT>]": 336,
    "ld.shared.v4.u32\t{<REG>, <REG>, <REG>, <REG>}, [<G_VAR>]": 2784,
    "ld.shared.v4.u32\t{<REG>, <REG>, <REG>, <REG>}, [<L_VAR>+<INT>]": 8340,
    "ld.shared.v4.u32\t{<REG>, <REG>, <REG>, <REG>}, [<L_VAR>]": 2996,
    "ld.shared.v4.u32\t{<REG>, <REG>, <REG>, <REG>}, [<REG>+<INT>]": 10196,
    "ld.shared.v4.u32\t{<REG>, <REG>, <REG>, <REG>}, [<REG>]": 8456,
    "ld.shared.v4.u8\t{<REG>, <REG>, <REG>, <REG>}, [<L_VAR>+<INT>]": 2552,
    "ld.shared.v4.u8\t{<REG>, <REG>, <REG>, <REG>}, [<REG>+<INT>]": 117348,
    "ld.shared.v4.u8\t{<REG>, <REG>, <REG>, <REG>}, [<REG>]": 11500,
    "ld.u16\t<REG>, [<REG>+<INT>]": 17,
    "ld.u16\t<REG>, [<REG>]": 20,
    "ld.u32\t<REG>, [<REG>+<INT>]": 2089,
    "ld.u32\t<REG>, [<REG>]": 6695,
    "ld.u64\t<REG>, [<REG>+<INT>]": 82,
    "ld.u64\t<REG>, [<REG>]": 64,
    "ld.u8\t<REG>, [<REG>+<INT>]": 201,
    "ld.u8\t<REG>, [<REG>]": 345,
    "ld.v2.f32\t{<REG>, <REG>}, [<REG>+<INT>]": 28,
    "ld.v2.u16\t{<REG>, <REG>}, [<REG>+<INT>]": 4,
    "ld.v2.u32\t{<REG>, <REG>}, [<REG>]": 92,
    "ld.v2.u8\t{<REG>, <REG>}, [<REG>]": 4,
    "ld.v4.f32\t{<REG>, <REG>, <REG>, <REG>}, [<REG>+<INT>]": 24,
    "ld.v4.f32\t{<REG>, <REG>, <REG>, <REG>}, [<REG>]": 32,
    "ld.v4.u32\t{<REG>, <REG>, <REG>, <REG>}, [<REG>+<INT>]": 8,
    "ld.v4.u32\t{<REG>, <REG>, <REG>, <REG>}, [<REG>]": 80,
    "ld.volatile.global.f32\t<REG>, [<REG>+<INT>]": 454,
    "ld.volatile.global.f32\t<REG>, [<REG>]": 85,
    "ld.volatile.global.f64\t<REG>, [<REG>+<INT>]": 229,
    "ld.volatile.global.f64\t<REG>, [<REG>]": 41,
    "ld.volatile.global.u16\t<REG>, [<REG>+<INT>]": 28,
    "ld.volatile.global.u16\t<REG>, [<REG>]": 12,
    "ld.volatile.global.u32\t<REG>, [<G_VAR>]": 10,
    "ld.volatile.global.u32\t<REG>, [<REG>+<INT>]": 945,
    "ld.volatile.global.u32\t<REG>, [<REG>]": 2340,
    "ld.volatile.global.u64\t<REG>, [<REG>+<INT>]": 248,
    "ld.volatile.global.u64\t<REG>, [<REG>]": 78,
    "ld.volatile.global.u8\t<REG>, [<REG>+<INT>]": 58,
    "ld.volatile.global.u8\t<REG>, [<REG>]": 18,
    "ld.volatile.shared.f32\t<REG>, [<L_VAR>+<INT>]": 21,
    "ld.volatile.shared.f32\t<REG>, [<L_VAR>]": 6,
    "ld.volatile.shared.f32\t<REG>, [<REG>+<INT>]": 7465,
    "ld.volatile.shared.f32\t<REG>, [<REG>]": 3556,
    "ld.volatile.shared.f64\t<REG>, [<G_VAR>+<INT>]": 3,
    "ld.volatile.shared.f64\t<REG>, [<G_VAR>]": 3,
    "ld.volatile.shared.f64\t<REG>, [<REG>+<INT>]": 2455,
    "ld.volatile.shared.f64\t<REG>, [<REG>]": 449,
    "ld.volatile.shared.s32\t<REG>, [<REG>]": 2,
    "ld.volatile.shared.s8\t<REG>, [<REG>]": 192,
    "ld.volatile.shared.u16\t<REG>, [<REG>+<INT>]": 805,
    "ld.volatile.shared.u16\t<REG>, [<REG>]": 32,
    "ld.volatile.shared.u32\t<REG>, [<G_VAR>+<INT>]": 153,
    "ld.volatile.shared.u32\t<REG>, [<L_VAR>+<INT>]": 1518,
    "ld.volatile.shared.u32\t<REG>, [<L_VAR>]": 21,
    "ld.volatile.shared.u32\t<REG>, [<REG>+<INT>]": 15333,
    "ld.volatile.shared.u32\t<REG>, [<REG>]": 10468,
    "ld.volatile.shared.u64\t<REG>, [<REG>+<INT>]": 4806,
    "ld.volatile.shared.u64\t<REG>, [<REG>]": 338,
    "ld.volatile.shared.u8\t<REG>, [<G_VAR>]": 2,
    "ld.volatile.shared.u8\t<REG>, [<REG>+<INT>]": 787,
    "ld.volatile.shared.u8\t<REG>, [<REG>]": 468,
    "ld.volatile.u16\t<REG>, [<REG>+<INT>]": 9,
    "ld.volatile.u16\t<REG>, [<REG>]": 6,
    "lg2.approx.f32\t<REG>, <REG>": 1969,
    "lg2.approx.f32.ftz\t<REG>, <REG>": 5,
    "lg2.approx.ftz.f32\t<REG>, <REG>": 9,
    "lop3.b32\t<REG>, <REG>, <REG>, <REG>, <INT>": 25766,
    "mad.lo.cc.u32\t<REG>, <REG>, <REG>, <REG>": 1335,
    "mad.lo.s32\t<REG>, <REG>, <INT>, <INT>": 3167,
    "mad.lo.s32\t<REG>, <REG>, <INT>, <REG>": 95596,
    "mad.lo.s32\t<REG>, <REG>, <REG>, <INT>": 181,
    "mad.lo.s32\t<REG>, <REG>, <REG>, <REG>": 211550,
    "madc.hi.cc.u32\t<REG>, <REG>, <REG>, <REG>": 189,
    "madc.hi.u32\t<REG>, <REG>, <REG>, <INT>": 872,
    "madc.lo.cc.u32\t<REG>, <REG>, <REG>, <REG>": 54,
    "max.f32\t<REG>, <REG>, <REG>": 15796,
    "max.f64\t<REG>, <REG>, <REG>": 8090,
    "max.s32\t<REG>, <REG>, <REG>": 42695,
    "max.s64\t<REG>, <REG>, <REG>": 289,
    "max.u32\t<REG>, <REG>, <REG>": 2187,
    "max.u64\t<REG>, <REG>, <REG>": 1030,
    "membar.cta": 9163,
    "membar.gl": 1501,
    "membar.sys": 1,
    "min.f32\t<REG>, <REG>, <REG>": 7079,
    "min.f64\t<REG>, <REG>, <REG>": 469,
    "min.s32\t<REG>, <REG>, <REG>": 32652,
    "min.s64\t<REG>, <REG>, <REG>": 16766,
    "min.u32\t<REG>, <REG>, <REG>": 4770,
    "min.u64\t<REG>, <REG>, <REG>": 606,
    "mov.b16\t<REG>, <REG>": 28,
    "mov.b32\t<REG>, <INT>": 20,
    "mov.b32\t<REG>, <REG>": 95384,
    "mov.b32\t<REG>, {<REG>, <REG>}": 8701,
    "mov.b32\t<REG>, {<REG>,<REG>}": 608,
    "mov.b32\t{<REG>, <REG>}, <REG>": 11904,
    "mov.b32\t{<REG>,<REG>}, <REG>": 72,
    "mov.b32\t{<REG>,<REG>},<REG>": 408,
    "mov.b64\t<REG>, <PARAM>": 2374,
    "mov.b64\t<REG>, <REG>": 74850,
    "mov.b64\t<REG>, {<REG>, <REG>}": 197504,
    "mov.b64\t<REG>, {<REG>,<REG>}": 1732,
    "mov.b64\t<REG>,{<REG>,<REG>}": 3352,
    "mov.b64\t{<REG>, <REG>}, <REG>": 194794,
    "mov.b64\t{<REG>,<REG>}, <REG>": 5942,
    "mov.b64\t{<REG>,<REG>},<REG>": 53786,
    "mov.f32\t<REG>, <FLOAT>": 30892,
    "mov.f32\t<REG>, <REG>": 78047,
    "mov.f64\t<REG>, <FLOAT>": 12969,
    "mov.f64\t<REG>, <REG>": 18465,
    "mov.pred\t<REG>, <INT>": 7257,
    "mov.pred\t<REG>, <REG>": 4693,
    "mov.s32\t<REG>, <REG>": 15520,
    "mov.s64\t<REG>, <REG>": 140,
    "mov.u16\t<REG>, <INT>": 26257,
    "mov.u16\t<REG>, <REG>": 57008,
    "mov.u32\t<REG>, <G_VAR>": 5007,
    "mov.u32\t<REG>, <INT>": 182956,
    "mov.u32\t<REG>, <L_VAR>": 38558,
    "mov.u32\t<REG>, <REG>": 391378,
    "mov.u32\t<REG>, <SREG>": 137658,
    "mov.u64\t<REG>, <FUNC>": 16,
    "mov.u64\t<REG>, <G_VAR>": 23148,
    "mov.u64\t<REG>, <INT>": 18839,
    "mov.u64\t<REG>, <L_VAR>": 638,
    "mov.u64\t<REG>, <PARAM>": 20,
    "mov.u64\t<REG>, <REG>": 48052,
    "mov.u64\t<REG>, <SREG>": 58,
    "mul.f16\t<REG>,<REG>,<REG>": 100,
    "mul.f16x2\t<REG>,<REG>,<REG>": 101,
    "mul.f32\t<REG>, <REG>, <FLOAT>": 15412,
    "mul.f32\t<REG>, <REG>, <REG>": 281667,
    "mul.f64\t<REG>, <REG>, <FLOAT>": 2639,
    "mul.f64\t<REG>, <REG>, <REG>": 25380,
    "mul.hi.s32\t<REG>, <REG>, <INT>": 2792,
    "mul.hi.s64\t<REG>, <REG>, <INT>": 186,
    "mul.hi.u32\t<REG>, <REG>, <REG>": 3283,
    "mul.hi.u64\t<REG>, <REG>, <INT>": 2,
    "mul.hi.u64\t<REG>, <REG>, <REG>": 390,
    "mul.lo.s32\t<REG>, <REG>, <INT>": 42193,
    "mul.lo.s32\t<REG>, <REG>, <REG>": 121625,
    "mul.lo.s64\t<REG>, <REG>, <INT>": 5471,
    "mul.lo.s64\t<REG>, <REG>, <REG>": 9861,
    "mul.lo.u32\t<REG>, <REG>, <REG>": 54,
    "mul.rn.f32\t<REG>, <REG>, <REG>": 20055,
    "mul.rn.f64\t<REG>, <REG>, <REG>": 9360,
    "mul.rz.f32\t<REG>, <REG>, <REG>": 183,
    "mul.wide.s16\t<REG>, <REG>, <INT>": 338,
    "mul.wide.s16\t<REG>, <REG>, <REG>": 52,
    "mul.wide.s32\t<REG>, <REG>, <INT>": 179080,
    "mul.wide.s32\t<REG>, <REG>, <REG>": 84,
    "mul.wide.u16\t<REG>, <REG>, <INT>": 3525,
    "mul.wide.u16\t<REG>, <REG>, <REG>": 90,
    "mul.wide.u32\t<REG>, <REG>, <INT>": 73583,
    "mul.wide.u32\t<REG>, <REG>, <REG>": 92,
    "mul24.hi.u32\t<REG>, <REG>, <REG>": 804,
    "mul24.lo.s32\t<REG>, <REG>, <REG>": 1574,
    "mul24.lo.u32\t<REG>, <REG>, <REG>": 1280,
    "neg.f32\t<REG>, <REG>": 7225,
    "neg.f64\t<REG>, <REG>": 2502,
    "neg.s32\t<REG>, <REG>": 9377,
    "neg.s64\t<REG>, <REG>": 729,
    "not.b32\t<REG>, <REG>": 96165,
    "not.b32\t<REG>,<REG>": 30,
    "not.b64\t<REG>, <REG>": 3203,
    "not.pred\t<REG>, <REG>": 6443,
    "or.b16\t<REG>, <REG>, <INT>": 219,
    "or.b16\t<REG>, <REG>, <REG>": 528,
    "or.b32\t<REG>, <REG>, <INT>": 15344,
    "or.b32\t<REG>, <REG>, <REG>": 132505,
    "or.b64\t<REG>, <REG>, <INT>": 6820,
    "or.b64\t<REG>, <REG>, <REG>": 9795,
    "or.pred\t<REG>, <REG>, <REG>": 118958,
    "popc.b32\t<REG>, <REG>": 29401,
    "prmt.b32\t<REG>, <REG>, <INT>, <INT>": 824,
    "prmt.b32\t<REG>, <REG>, <REG>, <INT>": 12545,
    "prmt.b32\t<REG>, <REG>, <REG>, <REG>": 193206,
    "prmt.b32\t<REG>,<REG>,<INT>,<INT>": 30,
    "rcp.approx.f32.ftz\t<REG>, <REG>": 6,
    "rcp.approx.ftz.f32\t<REG>,<REG>": 948,
    "rcp.approx.ftz.f64\t<REG>, <REG>": 215,
    "rcp.rm.f32\t<REG>, <REG>": 256,
    "rcp.rn.f32\t<REG>, <REG>": 1277,
    "rcp.rn.f64\t<REG>, <REG>": 394,
    "rem.s32\t<REG>, <REG>, <REG>": 18149,
    "rem.s64\t<REG>, <REG>, <REG>": 87,
    "rem.u32\t<REG>, <REG>, <REG>": 11137,
    "rem.u64\t<REG>, <REG>, <REG>": 146,
    "ret": 27491,
    "rsqrt.approx.f32\t<REG>, <REG>": 397,
    "rsqrt.approx.f32.ftz\t<REG>, <REG>": 6,
    "rsqrt.approx.ftz.f32\t<REG>, <REG>": 20,
    "rsqrt.approx.ftz.f64\t<REG>, <REG>": 30,
    "selp.b16\t<REG>, <INT>, <INT>, <REG>": 52,
    "selp.b16\t<REG>, <INT>, <REG>, <REG>": 5321,
    "selp.b16\t<REG>, <REG>, <INT>, <REG>": 8138,
    "selp.b16\t<REG>, <REG>, <REG>, <REG>": 133300,
    "selp.b32\t<REG>, <INT>, <INT>, <REG>": 5543,
    "selp.b32\t<REG>, <INT>, <REG>, <REG>": 48633,
    "selp.b32\t<REG>, <REG>, <INT>, <REG>": 23835,
    "selp.b32\t<REG>, <REG>, <REG>, <REG>": 352616,
    "selp.b64\t<REG>, <INT>, <INT>, <REG>": 37,
    "selp.b64\t<REG>, <INT>, <REG>, <REG>": 8381,
    "selp.b64\t<REG>, <REG>, <INT>, <REG>": 9223,
    "selp.b64\t<REG>, <REG>, <REG>, <REG>": 72786,
    "selp.f32\t<REG>, <FLOAT>, <FLOAT>, <REG>": 3169,
    "selp.f32\t<REG>, <FLOAT>, <REG>, <REG>": 12758,
    "selp.f32\t<REG>, <REG>, <FLOAT>, <REG>": 3994,
    "selp.f32\t<REG>, <REG>, <REG>, <REG>": 165264,
    "selp.f64\t<REG>, <FLOAT>, <FLOAT>, <REG>": 389,
    "selp.f64\t<REG>, <FLOAT>, <REG>, <REG>": 2651,
    "selp.f64\t<REG>, <REG>, <FLOAT>, <REG>": 566,
    "selp.f64\t<REG>, <REG>, <REG>, <REG>": 17699,
    "selp.s16\t<REG>, <INT>, <INT>, <REG>": 1,
    "selp.s32\t<REG>, <INT>, <INT>, <REG>": 18,
    "selp.u16\t<REG>, <INT>, <INT>, <REG>": 17667,
    "selp.u32\t<REG>, <INT>, <INT>, <REG>": 14760,
    "selp.u64\t<REG>, <INT>, <INT>, <REG>": 2048,
    "set.eq.f16x2.f16x2\t<REG>,<REG>,<REG>": 600,
    "setp.eq.b16\t<REG>, <REG>, <INT>": 14,
    "setp.eq.b32\t<REG>, <REG>, <INT>": 1868,
    "setp.eq.b64\t<REG>, <REG>, <INT>": 22,
    "setp.eq.f16\t<REG>, <REG>, <REG>": 2,
    "setp.eq.f32\t<REG>, <REG>, <FLOAT>": 17383,
    "setp.eq.f32\t<REG>, <REG>, <REG>": 2877,
    "setp.eq.f64\t<REG>, <REG>, <FLOAT>": 6251,
    "setp.eq.f64\t<REG>, <REG>, <REG>": 546,
    "setp.eq.s16\t<REG>, <REG>, <INT>": 40013,
    "setp.eq.s16\t<REG>, <REG>, <REG>": 7931,
    "setp.eq.s32\t<REG>, <REG>, <INT>": 178866,
    "setp.eq.s32\t<REG>, <REG>, <REG>": 40089,
    "setp.eq.s64\t<REG>, <REG>, <INT>": 13627,
    "setp.eq.s64\t<REG>, <REG>, <REG>": 2739,
    "setp.eq.u32\t<REG>, <REG>, <REG>": 111512,
    "setp.equ.f64\t<REG>, <REG>, <FLOAT>": 4,
    "setp.ge.f32\t<REG>, <REG>, <FLOAT>": 501,
    "setp.ge.f32\t<REG>, <REG>, <REG>": 611,
    "setp.ge.f64\t<REG>, <REG>, <FLOAT>": 256,
    "setp.ge.f64\t<REG>, <REG>, <REG>": 395,
    "setp.ge.s16\t<REG>, <REG>, <REG>": 454,
    "setp.ge.s32\t<REG>, <REG>, <INT>": 2,
    "setp.ge.s32\t<REG>, <REG>, <REG>": 267025,
    "setp.ge.s64\t<REG>, <REG>, <REG>": 5459,
    "setp.ge.u16\t<REG>, <REG>, <REG>": 1182,
    "setp.ge.u32\t<REG>, <REG>, <REG>": 20687,
    "setp.ge.u64\t<REG>, <REG>, <REG>": 7415,
    "setp.geu.f32\t<REG>, <REG>, <FLOAT>": 2454,
    "setp.geu.f32\t<REG>, <REG>, <REG>": 7539,
    "setp.geu.f64\t<REG>, <REG>, <FLOAT>": 189,
    "setp.geu.f64\t<REG>, <REG>, <REG>": 645,
    "setp.gt.f16\t<REG>, <REG>, <REG>": 4,
    "setp.gt.f32\t<REG>, <REG>, <FLOAT>": 8297,
    "setp.gt.f32\t<REG>, <REG>, <REG>": 76530,
    "setp.gt.f64\t<REG>, <REG>, <FLOAT>": 2117,
    "setp.gt.f64\t<REG>, <REG>, <REG>": 3525,
    "setp.gt.s16\t<REG>, <REG>, <INT>": 215,
    "setp.gt.s16\t<REG>, <REG>, <REG>": 32381,
    "setp.gt.s32\t<REG>, <REG>, <INT>": 31943,
    "setp.gt.s32\t<REG>, <REG>, <REG>": 64251,
    "setp.gt.s64\t<REG>, <REG>, <INT>": 264,
    "setp.gt.s64\t<REG>, <REG>, <REG>": 7813,
    "setp.gt.u16\t<REG>, <REG>, <INT>": 257,
    "setp.gt.u16\t<REG>, <REG>, <REG>": 59181,
    "setp.gt.u32\t<REG>, <REG>, <INT>": 16063,
    "setp.gt.u32\t<REG>, <REG>, <REG>": 55813,
    "setp.gt.u64\t<REG>, <REG>, <INT>": 104,
    "setp.gt.u64\t<REG>, <REG>, <REG>": 14324,
    "setp.gtu.f32\t<REG>, <REG>, <FLOAT>": 3452,
    "setp.gtu.f32\t<REG>, <REG>, <REG>": 2231,
    "setp.gtu.f64\t<REG>, <REG>, <FLOAT>": 1231,
    "setp.gtu.f64\t<REG>, <REG>, <REG>": 182,
    "setp.le.f32\t<REG>, <REG>, <FLOAT>": 305,
    "setp.le.f32\t<REG>, <REG>, <REG>": 1529,
    "setp.le.f64\t<REG>, <REG>, <FLOAT>": 22,
    "setp.le.f64\t<REG>, <REG>, <REG>": 162,
    "setp.le.s16\t<REG>, <REG>, <REG>": 2922,
    "setp.le.s32\t<REG>, <REG>, <REG>": 16360,
    "setp.le.s64\t<REG>, <REG>, <REG>": 565,
    "setp.le.u16\t<REG>, <REG>, <REG>": 4650,
    "setp.le.u32\t<REG>, <REG>, <REG>": 15799,
    "setp.le.u64\t<REG>, <REG>, <REG>": 2254,
    "setp.leu.f32\t<REG>, <REG>, <FLOAT>": 1039,
    "setp.leu.f32\t<REG>, <REG>, <REG>": 1880,
    "setp.leu.f64\t<REG>, <REG>, <FLOAT>": 68,
    "setp.leu.f64\t<REG>, <REG>, <REG>": 593,
    "setp.lt.f16\t<REG>, <REG>, <REG>": 4,
    "setp.lt.f32\t<REG>, <REG>, <FLOAT>": 9028,
    "setp.lt.f32\t<REG>, <REG>, <REG>": 65076,
    "setp.lt.f64\t<REG>, <REG>, <FLOAT>": 801,
    "setp.lt.f64\t<REG>, <REG>, <REG>": 3304,
    "setp.lt.s16\t<REG>, <REG>, <INT>": 3115,
    "setp.lt.s16\t<REG>, <REG>, <REG>": 6176,
    "setp.lt.s32\t<REG>, <REG>, <INT>": 47334,
    "setp.lt.s32\t<REG>, <REG>, <REG>": 206062,
    "setp.lt.s64\t<REG>, <REG>, <INT>": 755,
    "setp.lt.s64\t<REG>, <REG>, <REG>": 14567,
    "setp.lt.u16\t<REG>, <REG>, <INT>": 37,
    "setp.lt.u16\t<REG>, <REG>, <REG>": 7484,
    "setp.lt.u32\t<REG>, <REG>, <INT>": 37433,
    "setp.lt.u32\t<REG>, <REG>, <REG>": 14837,
    "setp.lt.u64\t<REG>, <REG>, <INT>": 1472,
    "setp.lt.u64\t<REG>, <REG>, <REG>": 2920,
    "setp.ltu.f32\t<REG>, <REG>, <FLOAT>": 2705,
    "setp.ltu.f32\t<REG>, <REG>, <REG>": 3136,
    "setp.ltu.f64\t<REG>, <REG>, <FLOAT>": 394,
    "setp.ltu.f64\t<REG>, <REG>, <REG>": 407,
    "setp.nan.f32\t<REG>, <REG>, <REG>": 76,
    "setp.nan.f64\t<REG>, <REG>, <REG>": 85,
    "setp.ne.s16\t<REG>, <REG>, <INT>": 17666,
    "setp.ne.s16\t<REG>, <REG>, <REG>": 5635,
    "setp.ne.s32\t<REG>, <REG>, <INT>": 80327,
    "setp.ne.s32\t<REG>, <REG>, <REG>": 35279,
    "setp.ne.s64\t<REG>, <REG>, <INT>": 2379,
    "setp.ne.s64\t<REG>, <REG>, <REG>": 1545,
    "setp.ne.u32\t<REG>, <REG>, <INT>": 719,
    "setp.neu.f32\t<REG>, <REG>, <FLOAT>": 2881,
    "setp.neu.f32\t<REG>, <REG>, <REG>": 2853,
    "setp.neu.f64\t<REG>, <REG>, <FLOAT>": 1064,
    "setp.neu.f64\t<REG>, <REG>, <REG>": 1451,
    "setp.num.f32\t<REG>, <REG>, <REG>": 13,
    "setp.num.f64\t<REG>, <REG>, <REG>": 58,
    "shf.clamp.b32\t<REG>,<REG>,<REG>,<REG>": 2988,
    "shf.l.clamp.b32\t<REG>, <INT>, <REG>, <INT>": 2,
    "shf.l.clamp.b32\t<REG>, <REG>, <REG>, <INT>": 12,
    "shf.l.clamp.b32\t<REG>, <REG>, <REG>, <REG>": 1980,
    "shf.l.wrap.b32\t<REG>, <REG>, <REG>, <INT>": 41285,
    "shf.l.wrap.b32\t<REG>, <REG>, <REG>, <REG>": 234098,
    "shf.wrap.b32\t<REG>, <REG>, <REG>, <INT>": 1920,
    "shf.wrap.b32\t<REG>, <REG>, <REG>, <REG>": 72764,
    "shfl.sync.bfly.b32\t<REG>|<REG>, <REG>, <REG>, <REG>, <REG>": 668368,
    "shfl.sync.down.b32\t<REG>, <REG>, <REG>, <REG>, <REG>": 177987,
    "shfl.sync.down.b32\t<REG>|<REG>, <REG>, <REG>, <REG>, <REG>": 12786,
    "shfl.sync.idx.b32\t<REG>, <REG>, <REG>, <REG>, <REG>": 22577,
    "shfl.sync.idx.b32\t<REG>|<REG>, <REG>, <REG>, <REG>, <REG>": 132118,
    "shfl.sync.up.b32\t<REG>, <REG>, <REG>, <REG>, <REG>": 91887,
    "shfl.sync.up.b32\t<REG>|<REG>, <REG>, <REG>, <REG>, <REG>": 203632,
    "shl.b16\t<REG>, <REG>, <INT>": 317,
    "shl.b32\t<REG>, <REG>, <INT>": 426789,
    "shl.b32\t<REG>, <REG>, <REG>": 12397,
    "shl.b64\t<REG>, <REG>, <INT>": 88820,
    "shl.b64\t<REG>, <REG>, <REG>": 9282,
    "shr.b32\t<REG>, <REG>, <INT>": 768,
    "shr.b32\t<REG>,<REG>,<REG>": 1992,
    "shr.b64\t<REG>, <REG>, <INT>": 644,
    "shr.b64\t<REG>, <REG>, <REG>": 116,
    "shr.b64\t<REG>,<REG>,<REG>": 1280,
    "shr.s16\t<REG>, <REG>, <INT>": 164,
    "shr.s32\t<REG>, <REG>, <INT>": 48581,
    "shr.s32\t<REG>, <REG>, <REG>": 588,
    "shr.s64\t<REG>, <REG>, <INT>": 15585,
    "shr.s64\t<REG>, <REG>, <REG>": 4,
    "shr.u16\t<REG>, <REG>, <INT>": 4227,
    "shr.u32\t<REG>, <REG>, <INT>": 170398,
    "shr.u32\t<REG>, <REG>, <REG>": 7889,
    "shr.u64\t<REG>, <REG>, <INT>": 20117,
    "shr.u64\t<REG>, <REG>, <REG>": 83917,
    "sin.approx.f32\t<REG>, <REG>": 62,
    "sqrt.approx.f32\t<REG>, <REG>": 4,
    "sqrt.rm.f32\t<REG>, <REG>": 256,
    "sqrt.rn.f32\t<REG>, <REG>": 4108,
    "sqrt.rn.f64\t<REG>, <REG>": 805,
    "st.cg.u16\t[<REG>], <REG>": 820,
    "st.cg.u32\t[<REG>], <REG>": 1230,
    "st.cg.u64\t[<REG>], <REG>": 4594,
    "st.cg.u8\t[<REG>], <REG>": 1814,
    "st.cg.v2.u32\t[<REG>], {<REG>, <REG>}": 180,
    "st.cg.v2.u64\t[<REG>], {<REG>, <REG>}": 3159,
    "st.cg.v4.u16\t[<REG>], {<REG>, <REG>, <REG>, <REG>}": 300,
    "st.cg.v4.u32\t[<REG>], {<REG>, <REG>, <REG>, <REG>}": 300,
    "st.f32\t[<REG>+<INT>], <REG>": 140,
    "st.f32\t[<REG>], <REG>": 597,
    "st.f64\t[<REG>+<INT>], <REG>": 6,
    "st.f64\t[<REG>], <REG>": 1184,
    "st.global.f32\t[<G_VAR>], <REG>": 116,
    "st.global.f32\t[<REG>+<INT>], <REG>": 38639,
    "st.global.f32\t[<REG>], <REG>": 75903,
    "st.global.f64\t[<REG>+<INT>], <REG>": 5368,
    "st.global.f64\t[<REG>], <REG>": 8123,
    "st.global.u16\t[<REG>+<INT>], <REG>": 36556,
    "st.global.u16\t[<REG>], <REG>": 12298,
    "st.global.u32\t[<G_VAR>], <REG>": 112,
    "st.global.u32\t[<REG>+<INT>], <REG>": 115851,
    "st.global.u32\t[<REG>], <REG>": 63898,
    "st.global.u64\t[<G_VAR>], <REG>": 6,
    "st.global.u64\t[<REG>+<INT>], <REG>": 83585,
    "st.global.u64\t[<REG>], <REG>": 62277,
    "st.global.u8\t[<REG>+<INT>], <REG>": 62050,
    "st.global.u8\t[<REG>], <REG>": 28507,
    "st.global.v2.f32\t[<REG>+<INT>], {<REG>, <REG>}": 337,
    "st.global.v2.f32\t[<REG>], {<REG>, <REG>}": 1628,
    "st.global.v2.f64\t[<REG>+<INT>], {<REG>, <REG>}": 3019,
    "st.global.v2.f64\t[<REG>], {<REG>, <REG>}": 4085,
    "st.global.v2.u16\t[<REG>+<INT>], {<REG>, <REG>}": 1245,
    "st.global.v2.u16\t[<REG>], {<REG>, <REG>}": 1071,
    "st.global.v2.u32\t[<REG>+<INT>], {<REG>, <REG>}": 4186,
    "st.global.v2.u32\t[<REG>], {<REG>, <REG>}": 6344,
    "st.global.v2.u64\t[<REG>+<INT>], {<REG>, <REG>}": 5361,
    "st.global.v2.u64\t[<REG>], {<REG>, <REG>}": 4884,
    "st.global.v2.u8\t[<REG>+<INT>], {<REG>, <REG>}": 32205,
    "st.global.v2.u8\t[<REG>], {<REG>, <REG>}": 1454,
    "st.global.v4.f32\t[<REG>+<INT>], {<REG>, <REG>, <REG>, <REG>}": 2110,
    "st.global.v4.f32\t[<REG>], {<REG>, <REG>, <REG>, <REG>}": 3285,
    "st.global.v4.u16\t[<REG>+<INT>], {<REG>, <REG>, <REG>, <REG>}": 2198,
    "st.global.v4.u16\t[<REG>], {<REG>, <REG>, <REG>, <REG>}": 1297,
    "st.global.v4.u32\t[<REG>+<INT>], {<REG>, <REG>, <REG>, <REG>}": 6348,
    "st.global.v4.u32\t[<REG>], {<REG>, <REG>, <REG>, <REG>}": 8884,
    "st.global.v4.u8\t[<REG>+<INT>], {<REG>, <REG>, <REG>, <REG>}": 4126,
    "st.global.v4.u8\t[<REG>], {<REG>, <REG>, <REG>, <REG>}": 3274,
    "st.local.f32\t[<REG>+<INT>], <REG>": 671,
    "st.local.f32\t[<REG>], <REG>": 3921,
    "st.local.f64\t[<REG>+<INT>], <REG>": 424,
    "st.local.f64\t[<REG>], <REG>": 4823,
    "st.local.u16\t[<REG>+<INT>], <REG>": 154,
    "st.local.u16\t[<REG>], <REG>": 186,
    "st.local.u32\t[<REG>+<INT>], <REG>": 21476,
    "st.local.u32\t[<REG>], <REG>": 4244,
    "st.local.u64\t[<REG>+<INT>], <REG>": 5640,
    "st.local.u64\t[<REG>], <REG>": 2749,
    "st.local.u8\t[<REG>+<INT>], <REG>": 3645,
    "st.local.u8\t[<REG>], <REG>": 571,
    "st.local.v2.f32\t[<REG>+<INT>], {<REG>, <REG>}": 285,
    "st.local.v2.f32\t[<REG>], {<REG>, <REG>}": 1529,
    "st.local.v2.f64\t[<REG>+<INT>], {<REG>, <REG>}": 318,
    "st.local.v2.f64\t[<REG>], {<REG>, <REG>}": 402,
    "st.local.v2.u16\t[<REG>+<INT>], {<REG>, <REG>}": 2,
    "st.local.v2.u16\t[<REG>], {<REG>, <REG>}": 9,
    "st.local.v2.u32\t[<REG>+<INT>], {<REG>, <REG>}": 10892,
    "st.local.v2.u32\t[<REG>], {<REG>, <REG>}": 1743,
    "st.local.v2.u64\t[<REG>+<INT>], {<REG>, <REG>}": 93,
    "st.local.v2.u64\t[<REG>], {<REG>, <REG>}": 21,
    "st.local.v2.u8\t[<REG>+<INT>], {<REG>, <REG>}": 200,
    "st.local.v2.u8\t[<REG>], {<REG>, <REG>}": 6,
    "st.local.v4.f32\t[<REG>+<INT>], {<REG>, <REG>, <REG>, <REG>}": 579,
    "st.local.v4.f32\t[<REG>], {<REG>, <REG>, <REG>, <REG>}": 617,
    "st.local.v4.u16\t[<REG>+<INT>], {<REG>, <REG>, <REG>, <REG>}": 52,
    "st.local.v4.u16\t[<REG>], {<REG>, <REG>, <REG>, <REG>}": 91,
    "st.local.v4.u32\t[<REG>+<INT>], {<REG>, <REG>, <REG>, <REG>}": 10038,
    "st.local.v4.u32\t[<REG>], {<REG>, <REG>, <REG>, <REG>}": 968,
    "st.local.v4.u8\t[<REG>+<INT>], {<REG>, <REG>, <REG>, <REG>}": 3234,
    "st.local.v4.u8\t[<REG>], {<REG>, <REG>, <REG>, <REG>}": 304,
    "st.param.b32\t[<L_VAR>+<INT>], <REG>": 7150,
    "st.param.b32\t[<PARAM>+<INT>], <REG>": 38,
    "st.param.b64\t[<L_VAR>+<INT>], <REG>": 30820,
    "st.param.f32\t[<L_VAR>+<INT>], <REG>": 109,
    "st.param.f32\t[<PARAM>+<INT>], <REG>": 33,
    "st.param.f64\t[<L_VAR>+<INT>], <REG>": 1569,
    "st.param.f64\t[<PARAM>+<INT>], <REG>": 101,
    "st.shared.f32\t[<G_VAR>+<INT>], <REG>": 29,
    "st.shared.f32\t[<G_VAR>], <REG>": 123,
    "st.shared.f32\t[<L_VAR>+<INT>], <REG>": 38,
    "st.shared.f32\t[<L_VAR>], <REG>": 90,
    "st.shared.f32\t[<REG>+<INT>], <REG>": 51165,
    "st.shared.f32\t[<REG>], <REG>": 41235,
    "st.shared.f64\t[<G_VAR>], <REG>": 36,
    "st.shared.f64\t[<L_VAR>+<INT>], <REG>": 114,
    "st.shared.f64\t[<L_VAR>], <REG>": 52,
    "st.shared.f64\t[<REG>+<INT>], <REG>": 2388,
    "st.shared.f64\t[<REG>], <REG>": 9011,
    "st.shared.u16\t[<G_VAR>+<INT>], <REG>": 48,
    "st.shared.u16\t[<L_VAR>+<INT>], <REG>": 372,
    "st.shared.u16\t[<L_VAR>], <REG>": 2,
    "st.shared.u16\t[<REG>+<INT>], <REG>": 53305,
    "st.shared.u16\t[<REG>], <REG>": 87650,
    "st.shared.u32\t[<G_VAR>+<INT>], <REG>": 2850,
    "st.shared.u32\t[<G_VAR>], <REG>": 85,
    "st.shared.u32\t[<L_VAR>+<INT>], <REG>": 9940,
    "st.shared.u32\t[<L_VAR>], <REG>": 464,
    "st.shared.u32\t[<REG>+<INT>], <REG>": 380912,
    "st.shared.u32\t[<REG>], <REG>": 98779,
    "st.shared.u64\t[<G_VAR>+<INT>], <REG>": 302,
    "st.shared.u64\t[<L_VAR>+<INT>], <REG>": 517,
    "st.shared.u64\t[<L_VAR>], <REG>": 260,
    "st.shared.u64\t[<REG>+<INT>], <REG>": 42987,
    "st.shared.u64\t[<REG>], <REG>": 106430,
    "st.shared.u8\t[<G_VAR>+<INT>], <REG>": 72,
    "st.shared.u8\t[<G_VAR>], <REG>": 1,
    "st.shared.u8\t[<L_VAR>+<INT>], <REG>": 368,
    "st.shared.u8\t[<L_VAR>], <REG>": 95,
    "st.shared.u8\t[<REG>+<INT>], <REG>": 33417,
    "st.shared.u8\t[<REG>], <REG>": 95558,
    "st.shared.v2.f32\t[<L_VAR>], {<REG>, <REG>}": 28,
    "st.shared.v2.f32\t[<REG>+<INT>], {<REG>, <REG>}": 396,
    "st.shared.v2.f32\t[<REG>], {<REG>, <REG>}": 436,
    "st.shared.v2.f64\t[<L_VAR>], {<REG>, <REG>}": 56,
    "st.shared.v2.f64\t[<REG>+<INT>], {<REG>, <REG>}": 12337,
    "st.shared.v2.f64\t[<REG>], {<REG>, <REG>}": 3826,
    "st.shared.v2.u16\t[<L_VAR>+<INT>], {<REG>, <REG>}": 492,
    "st.shared.v2.u16\t[<REG>+<INT>], {<REG>, <REG>}": 4036,
    "st.shared.v2.u16\t[<REG>], {<REG>, <REG>}": 789,
    "st.shared.v2.u32\t[<G_VAR>+<INT>], {<REG>, <REG>}": 94,
    "st.shared.v2.u32\t[<L_VAR>+<INT>], {<REG>, <REG>}": 978,
    "st.shared.v2.u32\t[<L_VAR>], {<REG>, <REG>}": 8,
    "st.shared.v2.u32\t[<REG>+<INT>], {<REG>, <REG>}": 5779,
    "st.shared.v2.u32\t[<REG>], {<REG>, <REG>}": 14949,
    "st.shared.v2.u64\t[<L_VAR>+<INT>], {<REG>, <REG>}": 888,
    "st.shared.v2.u64\t[<REG>+<INT>], {<REG>, <REG>}": 15291,
    "st.shared.v2.u64\t[<REG>], {<REG>, <REG>}": 4603,
    "st.shared.v2.u8\t[<L_VAR>+<INT>], {<REG>, <REG>}": 1356,
    "st.shared.v2.u8\t[<REG>+<INT>], {<REG>, <REG>}": 63524,
    "st.shared.v2.u8\t[<REG>], {<REG>, <REG>}": 811,
    "st.shared.v4.f32\t[<REG>+<INT>], {<REG>, <REG>, <REG>, <REG>}": 232,
    "st.shared.v4.f32\t[<REG>], {<REG>, <REG>, <REG>, <REG>}": 464,
    "st.shared.v4.u16\t[<L_VAR>+<INT>], {<REG>, <REG>, <REG>, <REG>}": 228,
    "st.shared.v4.u16\t[<REG>+<INT>], {<REG>, <REG>, <REG>, <REG>}": 2384,
    "st.shared.v4.u16\t[<REG>], {<REG>, <REG>, <REG>, <REG>}": 760,
    "st.shared.v4.u32\t[<L_VAR>+<INT>], {<REG>, <REG>, <REG>, <REG>}": 568,
    "st.shared.v4.u32\t[<L_VAR>], {<REG>, <REG>, <REG>, <REG>}": 4,
    "st.shared.v4.u32\t[<REG>+<INT>], {<REG>, <REG>, <REG>, <REG>}": 11604,
    "st.shared.v4.u32\t[<REG>], {<REG>, <REG>, <REG>, <REG>}": 4239,
    "st.shared.v4.u8\t[<L_VAR>+<INT>], {<REG>, <REG>, <REG>, <REG>}": 616,
    "st.shared.v4.u8\t[<REG>+<INT>], {<REG>, <REG>, <REG>, <REG>}": 5016,
    "st.shared.v4.u8\t[<REG>], {<REG>, <REG>, <REG>, <REG>}": 2040,
    "st.u16\t[<REG>+<INT>], <REG>": 9,
    "st.u16\t[<REG>], <REG>": 22,
    "st.u32\t[<REG>+<INT>], <REG>": 29633,
    "st.u32\t[<REG>], <REG>": 847,
    "st.u64\t[<REG>+<INT>], <REG>": 37,
    "st.u64\t[<REG>], <REG>": 60,
    "st.u8\t[<REG>+<INT>], <REG>": 252,
    "st.u8\t[<REG>], <REG>": 203,
    "st.v2.u32\t[<REG>+<INT>], {<REG>, <REG>}": 9,
    "st.v2.u32\t[<REG>], {<REG>, <REG>}": 221,
    "st.v4.u32\t[<REG>+<INT>], {<REG>, <REG>, <REG>, <REG>}": 250,
    "st.v4.u32\t[<REG>], {<REG>, <REG>, <REG>, <REG>}": 500,
    "st.v4.u8\t[<REG>], {<REG>, <REG>, <REG>, <REG>}": 10,
    "st.volatile.global.f32\t[<REG>+<INT>], <REG>": 630,
    "st.volatile.global.f32\t[<REG>], <REG>": 187,
    "st.volatile.global.f64\t[<REG>+<INT>], <REG>": 480,
    "st.volatile.global.f64\t[<REG>], <REG>": 130,
    "st.volatile.global.u16\t[<REG>], <REG>": 2,
    "st.volatile.global.u32\t[<G_VAR>], <REG>": 10,
    "st.volatile.global.u32\t[<REG>+<INT>], <REG>": 1659,
    "st.volatile.global.u32\t[<REG>], <REG>": 2617,
    "st.volatile.shared.f32\t[<L_VAR>+<INT>], <REG>": 2,
    "st.volatile.shared.f32\t[<REG>+<INT>], <REG>": 763,
    "st.volatile.shared.f32\t[<REG>], <REG>": 6565,
    "st.volatile.shared.f64\t[<G_VAR>], <REG>": 3,
    "st.volatile.shared.f64\t[<REG>+<INT>], <REG>": 804,
    "st.volatile.shared.f64\t[<REG>], <REG>": 1544,
    "st.volatile.shared.u16\t[<REG>+<INT>], <REG>": 212,
    "st.volatile.shared.u16\t[<REG>], <REG>": 860,
    "st.volatile.shared.u32\t[<G_VAR>+<INT>], <REG>": 254,
    "st.volatile.shared.u32\t[<L_VAR>+<INT>], <REG>": 2721,
    "st.volatile.shared.u32\t[<L_VAR>], <REG>": 12,
    "st.volatile.shared.u32\t[<REG>+<INT>], <REG>": 4855,
    "st.volatile.shared.u32\t[<REG>], <REG>": 19518,
    "st.volatile.shared.u64\t[<REG>+<INT>], <REG>": 3545,
    "st.volatile.shared.u64\t[<REG>], <REG>": 2366,
    "st.volatile.shared.u8\t[<G_VAR>], <REG>": 2,
    "st.volatile.shared.u8\t[<REG>+<INT>], <REG>": 150,
    "st.volatile.shared.u8\t[<REG>], <REG>": 1944,
    "st.volatile.u32\t[<REG>], <REG>": 18,
    "st.wt.v2.f64\t[<REG>],{<REG>,<REG>}": 18,
    "sub.cc.u32\t<REG>, <REG>, <REG>": 194,
    "sub.f32\t<REG>, <REG>, <REG>": 214938,
    "sub.f64\t<REG>, <REG>, <REG>": 51507,
    "sub.s32\t<REG>, <REG>, <REG>": 280270,
    "sub.s64\t<REG>, <REG>, <REG>": 37490,
    "sub.u32\t<REG>, <INT>, <REG>": 66,
    "subc.cc.u32\t<REG>, <REG>, <REG>": 414,
    "subc.u32\t<REG>, <REG>, <INT>": 20,
    "subc.u32\t<REG>, <REG>, <REG>": 54,
    "sust.2d.b32.trap\t[<G_VAR>, {<REG>, <REG>}], {<REG>}": 3,
    "sust.3d.b32.trap\t[<REG>, {<REG>, <REG>, <REG>, <REG>}], {<REG>}": 180,
    "sust.3d.b8.trap\t[<REG>, {<REG>, <REG>, <REG>, <REG>}], {<REG>}": 75,
    "sust.3d.v4.b32.trap\t[<REG>, {<REG>, <REG>, <REG>, <REG>}], {<REG>, <REG>, <REG>, <REG>}": 8,
    "sust.3d.v4.b8.trap\t[<REG>, {<REG>, <REG>, <REG>, <REG>}], {<REG>, <REG>, <REG>, <REG>}": 48,
    "tex.1d.v4.f32.f32\t{<REG>, <REG>, <REG>, <REG>}, [<G_VAR>, {<REG>}]": 44,
    "tex.1d.v4.f32.s32\t{<REG>, <REG>, <REG>, <REG>}, [<G_VAR>, {<REG>}]": 15120,
    "tex.1d.v4.f32.s32\t{<REG>, <REG>, <REG>, <REG>}, [<REG>, {<REG>}]": 27144,
    "tex.1d.v4.s32.s32\t{<REG>, <REG>, <REG>, <REG>}, [<G_VAR>, {<REG>}]": 5512,
    "tex.1d.v4.u32.s32\t{<REG>, <REG>, <REG>, <REG>}, [<G_VAR>, {<REG>}]": 41840,
    "tex.1d.v4.u32.s32\t{<REG>, <REG>, <REG>, <REG>}, [<REG>, {<REG>}]": 8,
    "tex.2d.v4.f32.f32\t{<REG>, <REG>, <REG>, <REG>}, [<G_VAR>, {<REG>, <REG>}]": 4224,
    "tex.2d.v4.f32.f32\t{<REG>, <REG>, <REG>, <REG>}, [<REG>, {<REG>, <REG>}]": 12720,
    "tex.2d.v4.s32.f32\t{<REG>, <REG>, <REG>, <REG>}, [<G_VAR>, {<REG>, <REG>}]": 56,
    "tex.2d.v4.s32.f32\t{<REG>, <REG>, <REG>, <REG>}, [<REG>, {<REG>, <REG>}]": 33996,
    "tex.2d.v4.u32.f32\t{<REG>, <REG>, <REG>, <REG>}, [<G_VAR>, {<REG>, <REG>}]": 2116,
    "tex.2d.v4.u32.f32\t{<REG>, <REG>, <REG>, <REG>}, [<REG>, {<REG>, <REG>}]": 345644,
    "tex.3d.v4.f32.f32\t{<REG>, <REG>, <REG>, <REG>}, [<G_VAR>, {<REG>, <REG>, <REG>, <REG>}]": 3320,
    "tex.3d.v4.f32.f32\t{<REG>, <REG>, <REG>, <REG>}, [<REG>, {<REG>, <REG>, <REG>, <REG>}]": 17616,
    "tex.3d.v4.u32.f32\t{<REG>, <REG>, <REG>, <REG>}, [<REG>, {<REG>, <REG>, <REG>, <REG>}]": 640,
    "tex.cube.v4.f32.f32\t{<REG>, <REG>, <REG>, <REG>}, [<G_VAR>, {<REG>, <REG>, <REG>, <REG>}]": 1112,
    "trap": 1682,
    "vadd4.sat.s32.s32.s32\t<REG>,<REG>,<REG>,<REG>": 120,
    "vmax.s32.s32.s32.max\t<REG>, <REG>, <REG>, <REG>": 6,
    "vmax.s32.s32.s32.min\t<REG>, <REG>, <REG>, <REG>": 6,
    "vmax4.s32.s32.s32\t<REG>,<REG>,<REG>,<REG>": 112,
    "vmax4.u32.u32.u32\t<REG>,<REG>,<REG>,<REG>": 192,
    "vmin.s32.s32.s32.max\t<REG>, <REG>, <REG>, <REG>": 6,
    "vmin.s32.s32.s32.min\t<REG>, <REG>, <REG>, <REG>": 6,
    "vote.all.pred\t<REG>, <REG>": 8,
    "vote.any.pred\t<REG>, <REG>": 6,
    "vote.ballot.b32\t<REG>, <REG>": 12,
    "vote.ballot.b32\t<REG>,<REG>": 1,
    "vote.ballot.sync.b32\t<REG>, <REG>, <INT>": 55756,
    "vote.sync.all.pred\t<REG>, <REG>, <REG>": 7800,
    "vote.sync.any.pred\t<REG>, <REG>, <REG>": 6730,
    "vote.sync.ballot.b32\t<REG>, <REG>, <REG>": 8051,
    "vset4.u32.u32.eq\t<REG>,<REG>,<REG>,<REG>": 72,
    "vshl.u32.u32.u32.clamp.add\t<REG>, <REG>, <INT>, <REG>": 768,
    "wmma.load.c.sync.aligned.col.m16n16k16.global.f32\t{<REG>, <REG>, <REG>, <REG>, <REG>, <REG>, <REG>, <REG>}, [<REG>], <REG>": 16,
    "wmma.load.c.sync.aligned.row.m16n16k16.global.f32\t{<REG>, <REG>, <REG>, <REG>, <REG>, <REG>, <REG>, <REG>}, [<REG>], <REG>": 16,
    "wmma.load.c.sync.aligned.row.m16n16k16.global.s32\t{<REG>, <REG>, <REG>, <REG>, <REG>, <REG>, <REG>, <REG>}, [<REG>], <REG>": 16,
    "wmma.load.c.sync.aligned.row.m16n16k16.shared.f32\t{<REG>, <REG>, <REG>, <REG>, <REG>, <REG>, <REG>, <REG>}, [<REG>], <REG>": 128,
    "wmma.load.c.sync.aligned.row.m16n16k16.shared.s32\t{<REG>, <REG>, <REG>, <REG>, <REG>, <REG>, <REG>, <REG>}, [<REG>], <REG>": 128,
    "wmma.load.sync.aligned.col.m16n16k16.global.f16\t{<REG>, <REG>, <REG>, <REG>, <REG>, <REG>, <REG>, <REG>}, [<REG>], <REG>": 352,
    "wmma.load.sync.aligned.col.m16n16k16.global.u8\t{<REG>, <REG>}, [<REG>], <REG>": 30,
    "wmma.load.sync.aligned.col.m16n16k16.shared.f16\t{<REG>, <REG>, <REG>, <REG>, <REG>, <REG>, <REG>, <REG>}, [<REG>], <REG>": 256,
    "wmma.load.sync.aligned.col.m16n16k16.shared.u8\t{<REG>, <REG>}, [<REG>], <REG>": 128,
    "wmma.load.sync.aligned.row.m16n16k16.global.f16\t{<REG>, <REG>, <REG>, <REG>, <REG>, <REG>, <REG>, <REG>}, [<REG>], <REG>": 120,
    "wmma.load.sync.aligned.row.m16n16k16.global.u8\t{<REG>, <REG>}, [<REG>], <REG>": 30,
    "wmma.load.sync.aligned.row.m16n16k16.shared.f16\t{<REG>, <REG>, <REG>, <REG>, <REG>, <REG>, <REG>, <REG>}, [<REG>], <REG>": 128,
    "wmma.load.sync.aligned.row.m16n16k16.shared.u8\t{<REG>, <REG>}, [<REG>], <REG>": 64,
    "wmma.mma.sync.aligned.col.col.m16n16k16.f32.f32\t{<REG>, <REG>, <REG>, <REG>, <REG>, <REG>, <REG>, <REG>}, {<REG>, <REG>, <REG>, <REG>, <REG>, <REG>, <REG>, <REG>}, {<REG>, <REG>, <REG>, <REG>, <REG>, <REG>, <REG>, <REG>}, {<REG>, <REG>, <REG>, <REG>, <REG>, <REG>, <REG>, <REG>}": 1240,
    "wmma.mma.sync.aligned.row.col.m16n16k16.f32.f32\t{<REG>, <REG>, <REG>, <REG>, <REG>, <REG>, <REG>, <REG>}, {<REG>, <REG>, <REG>, <REG>, <REG>, <REG>, <REG>, <REG>}, {<REG>, <REG>, <REG>, <REG>, <REG>, <REG>, <REG>, <REG>}, {<REG>, <REG>, <REG>, <REG>, <REG>, <REG>, <REG>, <REG>}": 7384,
    "wmma.mma.sync.aligned.row.col.m16n16k16.s32.u8.u8.s32\t{<REG>, <REG>, <REG>, <REG>, <REG>, <REG>, <REG>, <REG>}, {<REG>, <REG>}, {<REG>, <REG>}, {<REG>, <REG>, <REG>, <REG>, <REG>, <REG>, <REG>, <REG>}": 6712,
    "wmma.store.d.sync.aligned.col.m16n16k16.global.f32\t[<REG>], {<REG>, <REG>, <REG>, <REG>, <REG>, <REG>, <REG>, <REG>}, <REG>": 10,
    "wmma.store.d.sync.aligned.row.m16n16k16.global.f32\t[<REG>], {<REG>, <REG>, <REG>, <REG>, <REG>, <REG>, <REG>, <REG>}, <REG>": 10,
    "wmma.store.d.sync.aligned.row.m16n16k16.global.s32\t[<REG>], {<REG>, <REG>, <REG>, <REG>, <REG>, <REG>, <REG>, <REG>}, <REG>": 10,
    "wmma.store.d.sync.aligned.row.m16n16k16.shared.f32\t[<REG>], {<REG>, <REG>, <REG>, <REG>, <REG>, <REG>, <REG>, <REG>}, <REG>": 80,
    "wmma.store.d.sync.aligned.row.m16n16k16.shared.s32\t[<REG>], {<REG>, <REG>, <REG>, <REG>, <REG>, <REG>, <REG>, <REG>}, <REG>": 80,
    "xor.b16\t<REG>, <REG>, <INT>": 7338,
    "xor.b16\t<REG>, <REG>, <REG>": 1270,
    "xor.b32\t<REG>, <REG>, <INT>": 50971,
    "xor.b32\t<REG>, <REG>, <REG>": 848498,
    "xor.b64\t<REG>, <REG>, <INT>": 36675,
    "xor.b64\t<REG>, <REG>, <REG>": 101189,
    "xor.pred\t<REG>, <REG>, <REG>": 2086
}