approach	benchmark	model	b_chosen	Y_actual	Y_pred	Correct?	b_runtime	p_runtime	speedup
ptx_ab	amd	ptx_ab	CPU	GPU	GPU	True	3.256935	3.02248	1.0775704057595088
ptx_ab	amd	ptx_ab	CPU	GPU	GPU	True	2.059176	1.075332	1.9149211592326836
ptx_ab	amd	ptx_ab	CPU	CPU	GPU	False	0.08118099999999999	9.849159	0.008242429632824486
ptx_ab	amd	ptx_ab	CPU	GPU	CPU	False	16.821722	16.821722	1.0
ptx_ab	amd	ptx_ab	CPU	CPU	CPU	True	0.096604	0.096604	1.0
ptx_ab	amd	ptx_ab	CPU	CPU	CPU	True	0.221967	0.221967	1.0
ptx_ab	amd	ptx_ab	CPU	GPU	CPU	False	1.367634	1.367634	1.0
ptx_ab	amd	ptx_ab	CPU	CPU	GPU	False	0.117982	16.008204	0.007370095983284571
ptx_ab	amd	ptx_ab	CPU	CPU	CPU	True	0.136699	0.136699	1.0
ptx_ab	amd	ptx_ab	CPU	GPU	CPU	False	54.572267	54.572267	1.0
ptx_ab	amd	ptx_ab	CPU	CPU	CPU	True	0.07029099999999999	0.07029099999999999	1.0
ptx_ab	amd	ptx_ab	CPU	CPU	GPU	False	0.228503	10.226077	0.02234512804861532
ptx_ab	amd	ptx_ab	CPU	GPU	CPU	False	51.791246	51.791246	1.0
ptx_ab	amd	ptx_ab	CPU	CPU	CPU	True	0.564381	0.564381	1.0
ptx_ab	amd	ptx_ab	CPU	CPU	CPU	True	0.118716	0.118716	1.0
ptx_ab	amd	ptx_ab	CPU	CPU	GPU	False	0.138997	0.768841	0.1807877051301895
ptx_ab	amd	ptx_ab	CPU	GPU	CPU	False	1.63703	1.63703	1.0
ptx_ab	amd	ptx_ab	CPU	CPU	CPU	True	0.091491	0.091491	1.0
ptx_ab	amd	ptx_ab	CPU	GPU	GPU	True	65.613714	59.629695	1.1003530036502787
ptx_ab	amd	ptx_ab	CPU	GPU	CPU	False	108045.193158	108045.193158	1.0
ptx_ab	amd	ptx_ab	CPU	CPU	CPU	True	0.097441	0.097441	1.0
ptx_ab	amd	ptx_ab	CPU	CPU	CPU	True	27.745023	27.745023	1.0
ptx_ab	amd	ptx_ab	CPU	CPU	CPU	True	73.104347	73.104347	1.0
ptx_ab	amd	ptx_ab	CPU	GPU	GPU	True	69.70788	21.487677	3.244086366339181
ptx_ab	amd	ptx_ab	CPU	GPU	GPU	True	70.436838	2.150951	32.74683523706491
ptx_ab	amd	ptx_ab	CPU	CPU	CPU	True	0.220135	0.220135	1.0
ptx_ab	amd	ptx_ab	CPU	GPU	CPU	False	91.58652	91.58652	1.0
ptx_ab	amd	ptx_ab	CPU	GPU	GPU	True	2.13363	1.041618	2.048380500336976
ptx_ab	amd	ptx_ab	CPU	GPU	CPU	False	21.3913	21.3913	1.0
ptx_ab	amd	ptx_ab	CPU	CPU	CPU	True	0.21309	0.21309	1.0
ptx_ab	amd	ptx_ab	CPU	CPU	CPU	True	0.326825	0.326825	1.0
ptx_ab	amd	ptx_ab	CPU	CPU	CPU	True	3.393711	3.393711	1.0
ptx_ab	amd	ptx_ab	CPU	CPU	CPU	True	0.213573	0.213573	1.0
ptx_ab	amd	ptx_ab	CPU	CPU	CPU	True	1.851308	1.851308	1.0
ptx_ab	amd	ptx_ab	CPU	CPU	CPU	True	0.129024	0.129024	1.0
ptx_ab	amd	ptx_ab	CPU	CPU	CPU	True	0.156723	0.156723	1.0
ptx_ab	amd	ptx_ab	CPU	CPU	CPU	True	0.148393	0.148393	1.0
ptx_ab	amd	ptx_ab	CPU	GPU	GPU	True	3.470807	1.282824	2.7055987415265075
ptx_ab	amd	ptx_ab	CPU	CPU	GPU	False	0.131074	0.7581760000000001	0.17288070316127124
ptx_ab	amd	ptx_ab	CPU	CPU	CPU	True	0.261491	0.261491	1.0
ptx_ab	amd	ptx_ab	CPU	GPU	CPU	False	204.017944	204.017944	1.0
ptx_ab	amd	ptx_ab	CPU	CPU	CPU	True	0.98311	0.98311	1.0
ptx_ab	amd	ptx_ab	CPU	CPU	GPU	False	1.0276040000000002	5.530535	0.18580553237616254
ptx_ab	amd	ptx_ab	CPU	CPU	GPU	False	1.007659	5.540598	0.18186827486852503
ptx_ab	amd	ptx_ab	CPU	GPU	CPU	False	211.740111	211.740111	1.0
ptx_ab	amd	ptx_ab	CPU	CPU	GPU	False	0.087243	0.595554	0.1464904945647246
ptx_ab	amd	ptx_ab	CPU	CPU	GPU	False	0.17735499999999998	0.569358	0.3114999701418088
ptx_ab	amd	ptx_ab	CPU	CPU	GPU	False	0.291652	0.5477420000000001	0.532462363667566
ptx_ab	amd	ptx_ab	CPU	CPU	CPU	True	0.513153	0.513153	1.0
ptx_ab	amd	ptx_ab	CPU	CPU	CPU	True	85.07130500000002	85.07130500000002	1.0
ptx_ab	amd	ptx_ab	CPU	CPU	CPU	True	5.097334	5.097334	1.0
ptx_ab	amd	ptx_ab	CPU	GPU	CPU	False	3.227895	3.227895	1.0
ptx_ab	amd	ptx_ab	CPU	GPU	GPU	True	17.544223000000002	3.47161	5.053627279561933
ptx_ab	amd	ptx_ab	CPU	GPU	CPU	False	1.949146	1.949146	1.0
ptx_ab	amd	ptx_ab	CPU	GPU	CPU	False	2.538412	2.538412	1.0
ptx_ab	amd	ptx_ab	CPU	GPU	CPU	False	25.753387	25.753387	1.0
ptx_ab	amd	ptx_ab	CPU	GPU	CPU	False	800.273766	800.273766	1.0
ptx_ab	amd	ptx_ab	CPU	GPU	GPU	True	149.31134699999996	119.112364	1.2535335710405342
ptx_ab	amd	ptx_ab	CPU	CPU	GPU	False	0.54973	1.6607740000000002	0.3310083129914124
ptx_ab	amd	ptx_ab	CPU	CPU	CPU	True	61.124127	61.124127	1.0
ptx_ab	amd	ptx_ab	CPU	GPU	GPU	True	1445.190685	24.950794	57.921631071139466
ptx_ab	amd	ptx_ab	CPU	GPU	GPU	True	23.411221	14.810448999999998	1.580723244784814
ptx_ab	amd	ptx_ab	CPU	CPU	CPU	True	6.393171	6.393171	1.0
ptx_ab	amd	ptx_ab	CPU	GPU	GPU	True	1024.542367	32.280825	31.738419541631913
ptx_ab	amd	ptx_ab	CPU	CPU	CPU	True	0.417144	0.417144	1.0
ptx_ab	amd	ptx_ab	CPU	CPU	CPU	True	777.8945669999997	777.8945669999997	1.0
ptx_ab	amd	ptx_ab	CPU	GPU	GPU	True	15.326464	4.295103	3.5683577320497317
ptx_ab	amd	ptx_ab	CPU	CPU	CPU	True	6.472397	6.472397	1.0
ptx_ab	amd	ptx_ab	CPU	CPU	GPU	False	0.277644	1.120132	0.24786721564958417
ptx_ab	amd	ptx_ab	CPU	CPU	GPU	False	0.156639	1.009519	0.15516201280015532
ptx_ab	amd	ptx_ab	CPU	GPU	GPU	True	3.226918	2.856623	1.129626835602738
ptx_ab	amd	ptx_ab	CPU	CPU	GPU	False	0.079557	9.861878	0.008067124740338502
ptx_ab	amd	ptx_ab	CPU	GPU	CPU	False	4.5177760000000005	4.5177760000000005	1.0
ptx_ab	amd	ptx_ab	CPU	CPU	CPU	True	22.05727000000001	22.05727000000001	1.0
ptx_ab	amd	ptx_ab	CPU	GPU	CPU	False	2.591515	2.591515	1.0
ptx_ab	amd	ptx_ab	CPU	GPU	CPU	False	12.471523	12.471523	1.0
ptx_ab	amd	ptx_ab	CPU	GPU	CPU	False	70.63935699999998	70.63935699999998	1.0
ptx_ab	amd	ptx_ab	CPU	CPU	CPU	True	0.22839	0.22839	1.0
ptx_ab	amd	ptx_ab	CPU	CPU	CPU	True	0.934164	0.934164	1.0
ptx_ab	amd	ptx_ab	CPU	CPU	CPU	True	0.070984	0.070984	1.0
ptx_ab	amd	ptx_ab	CPU	GPU	CPU	False	16.913439	16.913439	1.0
ptx_ab	amd	ptx_ab	CPU	GPU	CPU	False	94.898911	94.898911	1.0
ptx_ab	amd	ptx_ab	CPU	CPU	CPU	True	0.239707	0.239707	1.0
ptx_ab	amd	ptx_ab	CPU	GPU	GPU	True	2.176871	0.615114	3.538971637777712
ptx_ab	amd	ptx_ab	CPU	GPU	GPU	True	21.383057	2.616789	8.171486887173556
ptx_ab	amd	ptx_ab	CPU	GPU	GPU	True	7051.470956	3125.609956	2.2560303605585266
ptx_ab	amd	ptx_ab	CPU	GPU	GPU	True	968.658729	825.276371	1.1737385959884703
ptx_ab	amd	ptx_ab	CPU	CPU	CPU	True	0.136692	0.136692	1.0
ptx_ab	amd	ptx_ab	CPU	CPU	CPU	True	0.100584	0.100584	1.0
ptx_ab	amd	ptx_ab	CPU	GPU	GPU	True	1131.531702	35.61066500000001	31.77507923539197
ptx_ab	amd	ptx_ab	CPU	CPU	CPU	True	0.250675	0.250675	1.0
ptx_ab	amd	ptx_ab	CPU	GPU	GPU	True	215.77862400000004	4.915749	43.8953705732331
ptx_ab	amd	ptx_ab	CPU	CPU	CPU	True	0.140516	0.140516	1.0
ptx_ab	amd	ptx_ab	CPU	CPU	CPU	True	67.24642	67.24642	1.0
ptx_ab	amd	ptx_ab	CPU	CPU	CPU	True	13.7885	13.7885	1.0
ptx_ab	amd	ptx_ab	CPU	CPU	CPU	True	0.136022	0.136022	1.0
ptx_ab	amd	ptx_ab	CPU	CPU	CPU	True	0.23933	0.23933	1.0
ptx_ab	amd	ptx_ab	CPU	CPU	CPU	True	0.275885	0.275885	1.0
ptx_ab	amd	ptx_ab	CPU	CPU	CPU	True	0.124726	0.124726	1.0
ptx_ab	amd	ptx_ab	CPU	GPU	CPU	False	3.559571	3.559571	1.0
ptx_ab	amd	ptx_ab	CPU	CPU	CPU	True	0.188367	0.188367	1.0
ptx_ab	amd	ptx_ab	CPU	GPU	CPU	False	11.004967	11.004967	1.0
ptx_ab	amd	ptx_ab	CPU	GPU	CPU	False	202.148046	202.148046	1.0
ptx_ab	amd	ptx_ab	CPU	CPU	GPU	False	29.50718	42.58266500000001	0.692938781544086
ptx_ab	amd	ptx_ab	CPU	GPU	GPU	True	252.967088	158.59229399999995	1.5950780559363122
ptx_ab	amd	ptx_ab	CPU	CPU	GPU	False	29.95948	42.635457	0.7026893132633714
ptx_ab	amd	ptx_ab	CPU	GPU	CPU	False	205.654101	205.654101	1.0
ptx_ab	amd	ptx_ab	CPU	CPU	CPU	True	212.766326	212.766326	1.0
ptx_ab	amd	ptx_ab	CPU	CPU	GPU	False	0.272451	0.561006	0.4856472123292799
ptx_ab	amd	ptx_ab	CPU	GPU	GPU	True	7.192914	1.415713	5.080771314524907
ptx_ab	amd	ptx_ab	CPU	CPU	CPU	True	2.820793	2.820793	1.0
ptx_ab	amd	ptx_ab	CPU	CPU	CPU	True	0.691142	0.691142	1.0
ptx_ab	amd	ptx_ab	CPU	CPU	CPU	True	0.773709	0.773709	1.0
ptx_ab	amd	ptx_ab	CPU	GPU	CPU	False	156.521895	156.521895	1.0
ptx_ab	amd	ptx_ab	CPU	GPU	CPU	False	1.827821	1.827821	1.0
ptx_ab	amd	ptx_ab	CPU	CPU	CPU	True	0.136852	0.136852	1.0
ptx_ab	amd	ptx_ab	CPU	CPU	CPU	True	0.41354	0.41354	1.0
ptx_ab	amd	ptx_ab	CPU	CPU	CPU	True	0.076343	0.076343	1.0
ptx_ab	amd	ptx_ab	CPU	CPU	CPU	True	0.146839	0.146839	1.0
ptx_ab	amd	ptx_ab	CPU	GPU	CPU	False	4.807589	4.807589	1.0
ptx_ab	amd	ptx_ab	CPU	CPU	CPU	True	0.402366	0.402366	1.0
ptx_ab	amd	ptx_ab	CPU	CPU	CPU	True	22.022122	22.022122	1.0
ptx_ab	amd	ptx_ab	CPU	CPU	CPU	True	90.055493	90.055493	1.0
ptx_ab	amd	ptx_ab	CPU	CPU	CPU	True	0.095995	0.095995	1.0
ptx_ab	amd	ptx_ab	CPU	GPU	GPU	True	173.712334	71.01129300000002	2.4462634978354774
ptx_ab	amd	ptx_ab	CPU	GPU	GPU	True	100.052011	45.376467	2.204931710527397
ptx_ab	amd	ptx_ab	CPU	GPU	GPU	True	27809.232172000004	180.466767	154.09613988374937
ptx_ab	amd	ptx_ab	CPU	GPU	GPU	True	61.52784000000001	44.579627	1.3801784389088767
ptx_ab	amd	ptx_ab	CPU	GPU	GPU	True	24.19916	23.548943	1.0276113029786516
ptx_ab	amd	ptx_ab	CPU	CPU	CPU	True	12.657346	12.657346	1.0
ptx_ab	amd	ptx_ab	CPU	CPU	GPU	False	0.367199	0.984585	0.37294799331698125
ptx_ab	amd	ptx_ab	CPU	CPU	GPU	False	13.862587	27.781911	0.49897888593768797
ptx_ab	amd	ptx_ab	CPU	CPU	GPU	False	7.021933	13.349781	0.5259961193370887
ptx_ab	amd	ptx_ab	CPU	CPU	CPU	True	6.3012489999999985	6.3012489999999985	1.0
ptx_ab	amd	ptx_ab	CPU	CPU	CPU	True	6.4832519999999985	6.4832519999999985	1.0
ptx_ab	amd	ptx_ab	CPU	GPU	CPU	False	17.00504	17.00504	1.0
ptx_ab	amd	ptx_ab	CPU	GPU	CPU	False	3.535082	3.535082	1.0
ptx_ab	amd	ptx_ab	CPU	GPU	CPU	False	21.249054	21.249054	1.0
ptx_ab	amd	ptx_ab	CPU	CPU	CPU	True	0.088327	0.088327	1.0
ptx_ab	amd	ptx_ab	CPU	GPU	GPU	True	27.735931	1.300307	21.330294307421248
ptx_ab	amd	ptx_ab	CPU	CPU	GPU	False	0.13508599999999998	9.984169	0.013530019373670456
ptx_ab	amd	ptx_ab	CPU	CPU	CPU	True	5.079986	5.079986	1.0
ptx_ab	amd	ptx_ab	CPU	GPU	GPU	True	4.775159	1.887612	2.529735454108154
ptx_ab	amd	ptx_ab	CPU	CPU	GPU	False	0.102429	10.102618	0.010138857076452857
ptx_ab	amd	ptx_ab	CPU	CPU	GPU	False	0.16764500000000002	0.675834	0.2480564754066827
ptx_ab	amd	ptx_ab	CPU	CPU	CPU	True	0.176592	0.176592	1.0
ptx_ab	amd	ptx_ab	CPU	CPU	CPU	True	0.14545	0.14545	1.0
ptx_ab	amd	ptx_ab	CPU	CPU	CPU	True	0.181502	0.181502	1.0
ptx_ab	amd	ptx_ab	CPU	CPU	CPU	True	0.433096	0.433096	1.0
ptx_ab	amd	ptx_ab	CPU	CPU	CPU	True	0.918673	0.918673	1.0
ptx_ab	amd	ptx_ab	CPU	CPU	CPU	True	0.089811	0.089811	1.0
ptx_ab	amd	ptx_ab	CPU	CPU	CPU	True	0.070637	0.070637	1.0
ptx_ab	amd	ptx_ab	CPU	CPU	CPU	True	0.097554	0.097554	1.0
ptx_ab	amd	ptx_ab	CPU	GPU	GPU	True	42.329127	1.3479450000000002	31.402710793096155
ptx_ab	amd	ptx_ab	CPU	CPU	GPU	False	0.345027	0.690906	0.49938341829423966
ptx_ab	amd	ptx_ab	CPU	CPU	GPU	False	0.097405	0.387036	0.2516690953813082
ptx_ab	amd	ptx_ab	CPU	CPU	CPU	True	0.105781	0.105781	1.0
ptx_ab	amd	ptx_ab	CPU	CPU	GPU	False	3.341415	4.816686	0.6937165926946453
ptx_ab	amd	ptx_ab	CPU	CPU	CPU	True	0.124833	0.124833	1.0
ptx_ab	amd	ptx_ab	CPU	CPU	CPU	True	0.074911	0.074911	1.0
ptx_ab	amd	ptx_ab	CPU	CPU	CPU	True	1.118177	1.118177	1.0
ptx_ab	amd	ptx_ab	CPU	GPU	GPU	True	1117.859694	33.923495	32.9523739815134
ptx_ab	amd	ptx_ab	CPU	GPU	GPU	True	33.643773	6.0471	5.563621074564668
ptx_ab	amd	ptx_ab	CPU	GPU	GPU	True	0.781939	0.7492939999999999	1.0435676783745769
ptx_ab	amd	ptx_ab	CPU	CPU	CPU	True	0.243562	0.243562	1.0
ptx_ab	amd	ptx_ab	CPU	CPU	CPU	True	57.680221	57.680221	1.0
ptx_ab	amd	ptx_ab	CPU	CPU	CPU	True	0.505954	0.505954	1.0
ptx_ab	amd	ptx_ab	CPU	CPU	CPU	True	2.542532	2.542532	1.0
ptx_ab	amd	ptx_ab	CPU	CPU	CPU	True	0.26208400000000004	0.26208400000000004	1.0
ptx_ab	amd	ptx_ab	CPU	CPU	CPU	True	0.169546	0.169546	1.0
ptx_ab	amd	ptx_ab	CPU	CPU	CPU	True	0.129117	0.129117	1.0
ptx_ab	amd	ptx_ab	CPU	GPU	CPU	False	2.995811	2.995811	1.0
ptx_ab	amd	ptx_ab	CPU	GPU	CPU	False	44.918082	44.918082	1.0
ptx_ab	amd	ptx_ab	CPU	CPU	CPU	True	0.13201	0.13201	1.0
ptx_ab	amd	ptx_ab	CPU	GPU	GPU	True	13.193081	2.814807	4.687028631092646
ptx_ab	amd	ptx_ab	CPU	CPU	CPU	True	0.722348	0.722348	1.0
ptx_ab	amd	ptx_ab	CPU	GPU	CPU	False	4.55526	4.55526	1.0
ptx_ab	amd	ptx_ab	CPU	CPU	CPU	True	0.184169	0.184169	1.0
ptx_ab	amd	ptx_ab	CPU	GPU	GPU	True	6.772957000000001	2.305127	2.938214250234369
ptx_ab	amd	ptx_ab	CPU	GPU	GPU	True	203.206624	157.684112	1.288694348610087
ptx_ab	amd	ptx_ab	CPU	GPU	GPU	True	203.175957	157.650087	1.288777956716256
ptx_ab	amd	ptx_ab	CPU	CPU	GPU	False	40.711093	42.831609	0.9504917968409732
ptx_ab	amd	ptx_ab	CPU	GPU	CPU	False	206.935909	206.935909	1.0
ptx_ab	amd	ptx_ab	CPU	GPU	CPU	False	208.634422	208.634422	1.0
ptx_ab	amd	ptx_ab	CPU	GPU	CPU	False	252.558668	252.558668	1.0
ptx_ab	amd	ptx_ab	CPU	GPU	GPU	True	1.5681459999999998	1.285115	1.2202378775440328
ptx_ab	amd	ptx_ab	CPU	GPU	CPU	False	1.872973	1.872973	1.0
ptx_ab	amd	ptx_ab	CPU	GPU	CPU	False	19.478835	19.478835	1.0
ptx_ab	amd	ptx_ab	CPU	CPU	CPU	True	0.083071	0.083071	1.0
ptx_ab	amd	ptx_ab	CPU	CPU	CPU	True	0.162801	0.162801	1.0
ptx_ab	amd	ptx_ab	CPU	CPU	CPU	True	0.099104	0.099104	1.0
ptx_ab	amd	ptx_ab	CPU	CPU	CPU	True	0.165048	0.165048	1.0
ptx_ab	amd	ptx_ab	CPU	CPU	GPU	False	0.217316	0.8283659999999999	0.26234297399941575
ptx_ab	amd	ptx_ab	CPU	CPU	CPU	True	0.147531	0.147531	1.0
ptx_ab	amd	ptx_ab	CPU	GPU	CPU	False	97.363932	97.363932	1.0
ptx_ab	amd	ptx_ab	CPU	CPU	GPU	False	0.542405	0.968433	0.5600852098183354
ptx_ab	amd	ptx_ab	CPU	GPU	GPU	True	4258.258081	232.575387	18.309151866530055
ptx_ab	amd	ptx_ab	CPU	GPU	GPU	True	26.949136	19.366912	1.391504025009253
ptx_ab	amd	ptx_ab	CPU	GPU	GPU	True	111.096191	10.664514	10.417370261785956
ptx_ab	amd	ptx_ab	CPU	CPU	GPU	False	24.214302	26.468409	0.9148378355495413
ptx_ab	amd	ptx_ab	CPU	CPU	CPU	True	5.62095	5.62095	1.0
ptx_ab	amd	ptx_ab	CPU	GPU	GPU	True	91.718113	61.300212	1.4962120033124844
ptx_ab	amd	ptx_ab	CPU	GPU	CPU	False	4.931584	4.931584	1.0
ptx_ab	amd	ptx_ab	CPU	GPU	CPU	False	4.011485	4.011485	1.0
ptx_ab	amd	ptx_ab	CPU	GPU	CPU	False	11.403199	11.403199	1.0
ptx_ab	amd	ptx_ab	CPU	CPU	CPU	True	0.087732	0.087732	1.0
ptx_ab	amd	ptx_ab	CPU	GPU	CPU	False	4.4081790000000005	4.4081790000000005	1.0
ptx_ab	amd	ptx_ab	CPU	GPU	GPU	True	5.1372550000000015	1.173156	4.379004156309989
ptx_ab	amd	ptx_ab	CPU	CPU	CPU	True	0.155997	0.155997	1.0
ptx_ab	amd	ptx_ab	CPU	CPU	CPU	True	0.155647	0.155647	1.0
ptx_ab	amd	ptx_ab	CPU	CPU	GPU	False	0.138836	0.978886	0.1418306115318842
ptx_ab	amd	ptx_ab	CPU	CPU	CPU	True	0.2368780000000001	0.2368780000000001	1.0
ptx_ab	amd	ptx_ab	CPU	CPU	CPU	True	0.07966000000000001	0.07966000000000001	1.0
ptx_ab	amd	ptx_ab	CPU	CPU	CPU	True	0.111703	0.111703	1.0
ptx_ab	amd	ptx_ab	CPU	CPU	CPU	True	1.006071	1.006071	1.0
ptx_ab	amd	ptx_ab	CPU	CPU	CPU	True	0.093306	0.093306	1.0
ptx_ab	amd	ptx_ab	CPU	CPU	CPU	True	21.610194	21.610194	1.0
ptx_ab	amd	ptx_ab	CPU	CPU	CPU	True	0.092958	0.092958	1.0
ptx_ab	amd	ptx_ab	CPU	CPU	CPU	True	0.31203400000000003	0.31203400000000003	1.0
ptx_ab	amd	ptx_ab	CPU	GPU	GPU	True	24.525621	23.401535	1.0480347122528502
ptx_ab	amd	ptx_ab	CPU	CPU	CPU	True	0.147797	0.147797	1.0
ptx_ab	amd	ptx_ab	CPU	CPU	CPU	True	4.071752	4.071752	1.0
ptx_ab	amd	ptx_ab	CPU	CPU	CPU	True	0.132376	0.132376	1.0
ptx_ab	amd	ptx_ab	CPU	GPU	GPU	True	1093.525995	52.842243	20.69416309599121
ptx_ab	amd	ptx_ab	CPU	GPU	GPU	True	36.033501	1.197646	30.086938043461927
ptx_ab	amd	ptx_ab	CPU	GPU	GPU	True	135.596351	21.915347	6.18727830319091
ptx_ab	amd	ptx_ab	CPU	GPU	GPU	True	848.783466	14.975637	56.67762019071375
ptx_ab	amd	ptx_ab	CPU	GPU	GPU	True	216.336307	14.155052	15.283328312746574
ptx_ab	amd	ptx_ab	CPU	CPU	GPU	False	0.700055	1.136502	0.6159733990789282
ptx_ab	amd	ptx_ab	CPU	CPU	CPU	True	0.171724	0.171724	1.0
ptx_ab	amd	ptx_ab	CPU	CPU	CPU	True	0.105823	0.105823	1.0
ptx_ab	amd	ptx_ab	CPU	CPU	CPU	True	0.103182	0.103182	1.0
ptx_ab	amd	ptx_ab	CPU	CPU	CPU	True	0.161965	0.161965	1.0
ptx_ab	amd	ptx_ab	CPU	GPU	CPU	False	10.065982	10.065982	1.0
ptx_ab	amd	ptx_ab	CPU	CPU	CPU	True	0.457272	0.457272	1.0
ptx_ab	amd	ptx_ab	CPU	CPU	CPU	True	0.14705	0.14705	1.0
ptx_ab	amd	ptx_ab	CPU	CPU	CPU	True	0.13731400000000002	0.13731400000000002	1.0
ptx_ab	amd	ptx_ab	CPU	GPU	GPU	True	11.901937	1.3080379999999998	9.099075867826471
ptx_ab	amd	ptx_ab	CPU	CPU	CPU	True	0.128707	0.128707	1.0
ptx_ab	amd	ptx_ab	CPU	CPU	GPU	False	29.515857	42.600331	0.6928551095060741
ptx_ab	amd	ptx_ab	CPU	CPU	GPU	False	0.995759	5.525161	0.18022262156704574
ptx_ab	amd	ptx_ab	CPU	CPU	GPU	False	29.928851	42.656945	0.7016173099128408
ptx_ab	amd	ptx_ab	CPU	GPU	GPU	True	2160.848671	615.5128980000002	3.5106472634794397
ptx_ab	amd	ptx_ab	CPU	CPU	GPU	False	1.074665	13.784738	0.0779604951505063
ptx_ab	amd	ptx_ab	CPU	GPU	GPU	True	358.171733	169.680004	2.110865892011648
ptx_ab	amd	ptx_ab	CPU	GPU	CPU	False	6.853039	6.853039	1.0
ptx_ab	amd	ptx_ab	CPU	CPU	CPU	True	0.483186	0.483186	1.0
ptx_ab	amd	ptx_ab	CPU	CPU	GPU	False	0.310777	1.442043	0.21551160402290365
ptx_ab	amd	ptx_ab	CPU	GPU	CPU	False	47.448023	47.448023	1.0
ptx_ab	amd	ptx_ab	CPU	CPU	CPU	True	0.606768	0.606768	1.0
ptx_ab	amd	ptx_ab	CPU	CPU	CPU	True	0.099852	0.099852	1.0
ptx_ab	amd	ptx_ab	CPU	CPU	CPU	True	0.412087	0.412087	1.0
ptx_ab	amd	ptx_ab	CPU	GPU	CPU	False	36.392268	36.392268	1.0
ptx_ab	amd	ptx_ab	CPU	CPU	CPU	True	5.191868	5.191868	1.0
ptx_ab	amd	ptx_ab	CPU	GPU	CPU	False	5.767824	5.767824	1.0
ptx_ab	amd	ptx_ab	CPU	GPU	CPU	False	23.865347	23.865347	1.0
ptx_ab	amd	ptx_ab	CPU	CPU	GPU	False	0.09414	0.704218	0.13368019562124228
ptx_ab	amd	ptx_ab	CPU	GPU	GPU	True	362.543388	49.171442	7.373047713345482
ptx_ab	amd	ptx_ab	CPU	CPU	CPU	True	20.256719	20.256719	1.0
ptx_ab	amd	ptx_ab	CPU	GPU	CPU	False	256.054548	256.054548	1.0
ptx_ab	amd	ptx_ab	CPU	CPU	CPU	True	15.51368	15.51368	1.0
ptx_ab	amd	ptx_ab	CPU	GPU	GPU	True	28608.942738	208.725135	137.06515383497057
ptx_ab	amd	ptx_ab	CPU	GPU	GPU	True	27.67397	19.341322	1.4308210162676573
ptx_ab	amd	ptx_ab	CPU	GPU	CPU	False	25.721419	25.721419	1.0
ptx_ab	amd	ptx_ab	CPU	GPU	GPU	True	3339.966119	1884.021673	1.7727854020286529
ptx_ab	amd	ptx_ab	CPU	GPU	GPU	True	157.720721	51.241825	3.077968456431831
ptx_ab	amd	ptx_ab	CPU	GPU	GPU	True	2.117275	1.48569	1.425112237411573
ptx_ab	amd	ptx_ab	CPU	CPU	CPU	True	8.545337	8.545337	1.0
ptx_ab	amd	ptx_ab	CPU	GPU	CPU	False	14.887798000000002	14.887798000000002	1.0
ptx_ab	amd	ptx_ab	CPU	CPU	CPU	True	5.994753	5.994753	1.0
ptx_ab	amd	ptx_ab	CPU	GPU	GPU	True	4.170566	3.426097	1.217293614278872
ptx_ab	amd	ptx_ab	CPU	CPU	GPU	False	2.03694	6.951909	0.293004410730923
ptx_ab	amd	ptx_ab	CPU	CPU	CPU	True	0.484234	0.484234	1.0
ptx_ab	amd	ptx_ab	CPU	GPU	GPU	True	7.096428	1.966463	3.608726937654052
ptx_ab	amd	ptx_ab	CPU	CPU	GPU	False	2.858859	2.865368	0.9977283895122719
ptx_ab	amd	ptx_ab	CPU	CPU	GPU	False	0.086125	9.938791	0.008665540909352051
ptx_ab	amd	ptx_ab	CPU	CPU	GPU	False	0.265873	0.686333	0.3873819268489203
ptx_ab	amd	ptx_ab	CPU	CPU	CPU	True	0.6972970000000001	0.6972970000000001	1.0
ptx_ab	amd	ptx_ab	CPU	GPU	CPU	False	11.849821	11.849821	1.0
ptx_ab	amd	ptx_ab	CPU	CPU	CPU	True	0.226612	0.226612	1.0
ptx_ab	amd	ptx_ab	CPU	GPU	CPU	False	67.974468	67.974468	1.0
ptx_ab	amd	ptx_ab	CPU	GPU	CPU	False	2.818502	2.818502	1.0
ptx_ab	amd	ptx_ab	CPU	CPU	CPU	True	0.168493	0.168493	1.0
ptx_ab	amd	ptx_ab	CPU	GPU	CPU	False	94.842892	94.842892	1.0
ptx_ab	amd	ptx_ab	CPU	CPU	CPU	True	0.817419	0.817419	1.0
ptx_ab	amd	ptx_ab	CPU	GPU	CPU	False	12.283156	12.283156	1.0
ptx_ab	amd	ptx_ab	CPU	CPU	CPU	True	0.144831	0.144831	1.0
ptx_ab	amd	ptx_ab	CPU	CPU	CPU	True	0.731771	0.731771	1.0
ptx_ab	amd	ptx_ab	CPU	GPU	CPU	False	11.518164	11.518164	1.0
ptx_ab	amd	ptx_ab	CPU	CPU	CPU	True	0.377957	0.377957	1.0
ptx_ab	amd	ptx_ab	CPU	CPU	CPU	True	0.221758	0.221758	1.0
ptx_ab	amd	ptx_ab	CPU	CPU	CPU	True	0.14024	0.14024	1.0
ptx_ab	amd	ptx_ab	CPU	CPU	CPU	True	0.120448	0.120448	1.0
ptx_ab	amd	ptx_ab	CPU	CPU	GPU	False	118.431698	276.411623	0.4284613530886145
ptx_ab	amd	ptx_ab	CPU	CPU	CPU	True	0.113058	0.113058	1.0
ptx_ab	amd	ptx_ab	CPU	GPU	GPU	True	4472.677009	259.992989	17.20306776810816
ptx_ab	amd	ptx_ab	CPU	GPU	GPU	True	149.26172	6.245953	23.89734921156147
ptx_ab	amd	ptx_ab	CPU	GPU	GPU	True	1.421712	0.748629	1.8990875320085117
ptx_ab	amd	ptx_ab	CPU	GPU	GPU	True	2.504982	0.902956	2.77420162222744
ptx_ab	amd	ptx_ab	CPU	CPU	GPU	False	1.907496	3.819767	0.4993749618759469
ptx_ab	amd	ptx_ab	CPU	CPU	CPU	True	0.220729	0.220729	1.0
ptx_ab	amd	ptx_ab	CPU	CPU	CPU	True	15.576715	15.576715	1.0
ptx_ab	amd	ptx_ab	CPU	CPU	CPU	True	58.778884	58.778884	1.0
ptx_ab	amd	ptx_ab	CPU	CPU	CPU	True	0.330779	0.330779	1.0
ptx_ab	amd	ptx_ab	CPU	CPU	CPU	True	0.12648199999999998	0.12648199999999998	1.0
ptx_ab	amd	ptx_ab	CPU	GPU	GPU	True	52.74475699999999	6.104272	8.640630201275433
ptx_ab	amd	ptx_ab	CPU	CPU	CPU	True	0.587598	0.587598	1.0
ptx_ab	amd	ptx_ab	CPU	GPU	CPU	False	2.667403	2.667403	1.0
ptx_ab	amd	ptx_ab	CPU	GPU	CPU	False	203.979959	203.979959	1.0
ptx_ab	amd	ptx_ab	CPU	GPU	CPU	False	203.98006	203.98006	1.0
ptx_ab	amd	ptx_ab	CPU	GPU	CPU	False	206.718894	206.718894	1.0
ptx_ab	amd	ptx_ab	CPU	GPU	CPU	False	215.394182	215.394182	1.0
ptx_ab	amd	ptx_ab	CPU	CPU	CPU	True	31.207518	31.207518	1.0
ptx_ab	amd	ptx_ab	CPU	GPU	CPU	False	228.916994	228.916994	1.0
ptx_ab	amd	ptx_ab	CPU	GPU	CPU	False	206.261393	206.261393	1.0
ptx_ab	amd	ptx_ab	CPU	CPU	CPU	True	0.997446	0.997446	1.0
ptx_ab	amd	ptx_ab	CPU	CPU	CPU	True	8.307993	8.307993	1.0
ptx_ab	amd	ptx_ab	CPU	GPU	GPU	True	6.005416	1.729673	3.471994995585871
ptx_ab	amd	ptx_ab	CPU	CPU	GPU	False	0.428305	1.100004	0.38936676593903297
ptx_ab	amd	ptx_ab	CPU	CPU	CPU	True	11.397604	11.397604	1.0
ptx_ab	amd	ptx_ab	CPU	CPU	GPU	False	0.115866	0.760202	0.15241475292093415
ptx_ab	amd	ptx_ab	CPU	GPU	GPU	True	40.03487	3.589209	11.154232032740362
ptx_ab	amd	ptx_ab	CPU	CPU	CPU	True	0.232088	0.232088	1.0
ptx_ab	amd	ptx_ab	CPU	CPU	CPU	True	0.093503	0.093503	1.0
ptx_ab	amd	ptx_ab	CPU	CPU	GPU	False	0.08441799999999999	0.594055	0.14210468727643064
ptx_ab	amd	ptx_ab	CPU	GPU	GPU	True	1.073971	1.034718	1.037935940033903
ptx_ab	amd	ptx_ab	CPU	CPU	GPU	False	0.17606	0.5441	0.3235802242234883
ptx_ab	amd	ptx_ab	CPU	GPU	CPU	False	9.963849	9.963849	1.0
ptx_ab	amd	ptx_ab	CPU	GPU	GPU	True	389.4035	70.835238	5.497313356948133
ptx_ab	amd	ptx_ab	CPU	GPU	CPU	False	425.108332	425.108332	1.0
ptx_ab	amd	ptx_ab	CPU	GPU	GPU	True	70.897543	14.290167000000002	4.961281628129328
ptx_ab	amd	ptx_ab	CPU	CPU	CPU	True	8.460302	8.460302	1.0
ptx_ab	amd	ptx_ab	CPU	GPU	GPU	True	6.6083240000000005	1.448607	4.561847347141081
ptx_ab	amd	ptx_ab	CPU	CPU	CPU	True	3.743309	3.743309	1.0
ptx_ab	amd	ptx_ab	CPU	CPU	CPU	True	8.745994	8.745994	1.0
ptx_ab	amd	ptx_ab	CPU	CPU	CPU	True	8.440195	8.440195	1.0
ptx_ab	amd	ptx_ab	CPU	CPU	CPU	True	7.038685000000001	7.038685000000001	1.0
ptx_ab	amd	ptx_ab	CPU	CPU	CPU	True	6.207221	6.207221	1.0
ptx_ab	amd	ptx_ab	CPU	CPU	CPU	True	6.726004	6.726004	1.0
ptx_ab	amd	ptx_ab	CPU	GPU	GPU	True	4.338501	1.869492	2.3206844426186364
ptx_ab	amd	ptx_ab	CPU	CPU	CPU	True	0.336185	0.336185	1.0
ptx_ab	amd	ptx_ab	CPU	GPU	GPU	True	1.880737	1.302612	1.443819802059247
ptx_ab	amd	ptx_ab	CPU	CPU	GPU	False	0.08259	9.855946	0.00837971311936977
ptx_ab	amd	ptx_ab	CPU	CPU	GPU	False	0.232219	0.685666	0.3386765568075419
ptx_ab	amd	ptx_ab	CPU	CPU	CPU	True	1.9790330000000005	1.9790330000000005	1.0
ptx_ab	amd	ptx_ab	CPU	GPU	GPU	True	39.977181	3.584683	11.152222107226775
ptx_ab	amd	ptx_ab	CPU	CPU	GPU	False	0.6437	0.75011	0.8581408060151178
ptx_ab	amd	ptx_ab	CPU	CPU	CPU	True	0.183157	0.183157	1.0
ptx_ab	amd	ptx_ab	CPU	CPU	CPU	True	21.609073	21.609073	1.0
ptx_ab	amd	ptx_ab	CPU	CPU	GPU	False	0.577761	0.717692	0.8050263901506496
ptx_ab	amd	ptx_ab	CPU	GPU	CPU	False	94.885625	94.885625	1.0
ptx_ab	amd	ptx_ab	CPU	CPU	GPU	False	0.952137	1.231435	0.7731930633772793
ptx_ab	amd	ptx_ab	CPU	GPU	GPU	True	9.576969	1.231975	7.773671543659571
ptx_ab	amd	ptx_ab	CPU	GPU	GPU	True	0.6729149999999999	0.590796	1.1389972173135905
ptx_ab	amd	ptx_ab	CPU	CPU	CPU	True	0.138927	0.138927	1.0
ptx_ab	amd	ptx_ab	CPU	GPU	GPU	True	16363.066288	7897.270571999998	2.0719900804735913
ptx_ab	amd	ptx_ab	CPU	GPU	GPU	True	248.140999	122.206946	2.030498323720486
ptx_ab	amd	ptx_ab	CPU	CPU	CPU	True	0.150912	0.150912	1.0
ptx_ab	amd	ptx_ab	CPU	CPU	CPU	True	0.183709	0.183709	1.0
ptx_ab	amd	ptx_ab	CPU	CPU	CPU	True	0.183676	0.183676	1.0
ptx_ab	amd	ptx_ab	CPU	CPU	CPU	True	0.27686700000000003	0.27686700000000003	1.0
ptx_ab	amd	ptx_ab	CPU	GPU	CPU	False	187.001354	187.001354	1.0
ptx_ab	amd	ptx_ab	CPU	GPU	CPU	False	4.637476	4.637476	1.0
ptx_ab	amd	ptx_ab	CPU	CPU	CPU	True	0.13301500000000002	0.13301500000000002	1.0
ptx_ab	amd	ptx_ab	CPU	CPU	CPU	True	0.5293359999999999	0.5293359999999999	1.0
ptx_ab	amd	ptx_ab	CPU	GPU	GPU	True	12.120577	2.251013	5.384498890055278
ptx_ab	amd	ptx_ab	CPU	GPU	GPU	True	40.371444	24.01686	1.6809626237568107
ptx_ab	amd	ptx_ab	CPU	CPU	CPU	True	1.091951	1.091951	1.0
ptx_ab	amd	ptx_ab	CPU	CPU	CPU	True	0.336674	0.336674	1.0
ptx_ab	amd	ptx_ab	CPU	CPU	CPU	True	0.465628	0.465628	1.0
ptx_ab	amd	ptx_ab	CPU	GPU	GPU	True	1.479073	1.436469	1.0296588370511304
ptx_ab	amd	ptx_ab	CPU	CPU	GPU	False	0.12519	0.6869350000000001	0.18224431714791062
ptx_ab	amd	ptx_ab	CPU	CPU	GPU	False	0.197384	1.006369	0.19613481734830862
ptx_ab	amd	ptx_ab	CPU	GPU	GPU	True	226.223748	165.70399	1.3652281275785816
ptx_ab	amd	ptx_ab	CPU	GPU	GPU	True	1942.742741	565.1431650000002	3.437611673141264
ptx_ab	amd	ptx_ab	CPU	GPU	GPU	True	1994.040473	772.3013530000003	2.5819461085419064
ptx_ab	amd	ptx_ab	CPU	CPU	GPU	False	1.074993	8.790884	0.1222849715682746
ptx_ab	amd	ptx_ab	CPU	CPU	GPU	False	30.714688	57.828688	0.531132368073092
ptx_ab	amd	ptx_ab	CPU	CPU	GPU	False	0.091148	0.603129	0.15112521533535944
ptx_ab	amd	ptx_ab	CPU	CPU	GPU	False	0.08705	0.5950989999999999	0.14627818228563652
ptx_ab	amd	ptx_ab	CPU	CPU	GPU	False	0.5423939999999999	0.698421	0.7766003599548124
ptx_ab	amd	ptx_ab	CPU	GPU	CPU	False	5.314076	5.314076	1.0
ptx_ab	amd	ptx_ab	CPU	GPU	CPU	False	80.4929	80.4929	1.0
ptx_ab	amd	ptx_ab	CPU	CPU	CPU	True	29.020662	29.020662	1.0
ptx_ab	amd	ptx_ab	CPU	CPU	CPU	True	144.091447	144.091447	1.0
ptx_ab	amd	ptx_ab	CPU	CPU	CPU	True	99.498498	99.498498	1.0
ptx_ab	amd	ptx_ab	CPU	CPU	CPU	True	0.17208800000000002	0.17208800000000002	1.0
ptx_ab	amd	ptx_ab	CPU	GPU	GPU	True	17.5257	3.4692540000000003	5.051720052783682
ptx_ab	amd	ptx_ab	CPU	CPU	CPU	True	0.08354400000000001	0.08354400000000001	1.0
ptx_ab	amd	ptx_ab	CPU	CPU	GPU	False	0.087952	0.599673	0.14666659996364687
ptx_ab	amd	ptx_ab	CPU	CPU	CPU	True	0.585437	0.585437	1.0
ptx_ab	amd	ptx_ab	CPU	GPU	CPU	False	5.766558	5.766558	1.0
ptx_ab	amd	ptx_ab	CPU	GPU	CPU	False	100.075927	100.075927	1.0
ptx_ab	amd	ptx_ab	CPU	GPU	GPU	True	330.279325	71.51404699999998	4.618383923930359
ptx_ab	amd	ptx_ab	CPU	CPU	CPU	True	45.644763	45.644763	1.0
ptx_ab	amd	ptx_ab	CPU	GPU	GPU	True	173.621273	70.368162	2.467327098866104
ptx_ab	amd	ptx_ab	CPU	GPU	CPU	False	30.556461	30.556461	1.0
ptx_ab	amd	ptx_ab	CPU	CPU	CPU	True	51.696795	51.696795	1.0
ptx_ab	amd	ptx_ab	CPU	CPU	CPU	True	13.359851	13.359851	1.0
ptx_ab	amd	ptx_ab	CPU	GPU	GPU	True	386.877191	35.004432	11.05223449990561
ptx_ab	amd	ptx_ab	CPU	GPU	GPU	True	17.709535	11.243992	1.5750220206488939
ptx_ab	amd	ptx_ab	CPU	GPU	GPU	True	281.25877	3.976573	70.7289341852897
ptx_ab	amd	ptx_ab	CPU	CPU	CPU	True	863.5010960000003	863.5010960000003	1.0
ptx_ab	amd	ptx_ab	CPU	CPU	CPU	True	4.234063	4.234063	1.0
ptx_ab	amd	ptx_ab	CPU	CPU	CPU	True	6.107217	6.107217	1.0
ptx_ab	amd	ptx_ab	CPU	GPU	GPU	True	1.885541	1.863657	1.0117425041195884
ptx_ab	amd	ptx_ab	CPU	CPU	CPU	True	2.038006	2.038006	1.0
ptx_ab	amd	ptx_ab	CPU	GPU	GPU	True	17.328426	16.666276999999994	1.0397298688843348
ptx_ab	amd	ptx_ab	CPU	GPU	GPU	True	6.076052	2.740855	2.216845473401548
ptx_ab	amd	ptx_ab	CPU	CPU	CPU	True	0.130323	0.130323	1.0
ptx_ab	amd	ptx_ab	CPU	CPU	GPU	False	0.175005	0.57314	0.3053442439892522
ptx_ab	amd	ptx_ab	CPU	CPU	GPU	False	0.077837	9.855001	0.007898223450205638
ptx_ab	amd	ptx_ab	CPU	CPU	CPU	True	9.048317	9.048317	1.0
ptx_ab	amd	ptx_ab	CPU	CPU	CPU	True	0.187816	0.187816	1.0
ptx_ab	amd	ptx_ab	CPU	CPU	CPU	True	18.217334	18.217334	1.0
ptx_ab	amd	ptx_ab	CPU	CPU	CPU	True	0.373186	0.373186	1.0
ptx_ab	amd	ptx_ab	CPU	CPU	CPU	True	0.278077	0.278077	1.0
ptx_ab	amd	ptx_ab	CPU	GPU	CPU	False	1.116614	1.116614	1.0
ptx_ab	amd	ptx_ab	CPU	GPU	GPU	True	16.906211	10.437912	1.6196928082934592
ptx_ab	amd	ptx_ab	CPU	CPU	CPU	True	0.147223	0.147223	1.0
ptx_ab	amd	ptx_ab	CPU	CPU	GPU	False	0.089826	9.867897	0.009102851397820631
ptx_ab	amd	ptx_ab	CPU	CPU	CPU	True	0.142349	0.142349	1.0
ptx_ab	amd	ptx_ab	CPU	GPU	GPU	True	15.990429	0.997165	16.035890750277037
ptx_ab	amd	ptx_ab	CPU	GPU	GPU	True	1.592115	0.631262	2.522114431092003
ptx_ab	amd	ptx_ab	CPU	CPU	CPU	True	0.078013	0.078013	1.0
ptx_ab	amd	ptx_ab	CPU	CPU	CPU	True	0.101786	0.101786	1.0
ptx_ab	amd	ptx_ab	CPU	CPU	CPU	True	0.087525	0.087525	1.0
ptx_ab	amd	ptx_ab	CPU	CPU	GPU	False	7.579917999999997	151.410884	0.05006190968411489
ptx_ab	amd	ptx_ab	CPU	GPU	GPU	True	35.697838	21.323383	1.6741170010405946
ptx_ab	amd	ptx_ab	CPU	GPU	GPU	True	4461.109286	244.248625	18.264623950288357
ptx_ab	amd	ptx_ab	CPU	CPU	CPU	True	0.701125	0.701125	1.0
ptx_ab	amd	ptx_ab	CPU	CPU	CPU	True	0.105627	0.105627	1.0
ptx_ab	amd	ptx_ab	CPU	CPU	CPU	True	0.105317	0.105317	1.0
ptx_ab	amd	ptx_ab	CPU	CPU	CPU	True	0.209173	0.209173	1.0
ptx_ab	amd	ptx_ab	CPU	GPU	GPU	True	2.53819	2.216891	1.1449322497136758
ptx_ab	amd	ptx_ab	CPU	CPU	GPU	False	0.132395	0.7588699999999999	0.17446334681829564
ptx_ab	amd	ptx_ab	CPU	CPU	GPU	False	0.432356	1.1060290000000002	0.3909083758201638
ptx_ab	amd	ptx_ab	CPU	CPU	CPU	True	0.174608	0.174608	1.0
ptx_ab	amd	ptx_ab	CPU	GPU	CPU	False	27.00584000000001	27.00584000000001	1.0
ptx_ab	amd	ptx_ab	CPU	CPU	GPU	False	0.98411	5.503989	0.17879941257150042
ptx_ab	amd	ptx_ab	CPU	GPU	CPU	False	205.88873	205.88873	1.0
ptx_ab	amd	ptx_ab	CPU	GPU	GPU	True	357.668953	164.033342	2.18046495083908
ptx_ab	amd	ptx_ab	CPU	GPU	GPU	True	49.901062	43.513457	1.146796081956899
ptx_ab	amd	ptx_ab	CPU	GPU	CPU	False	36.173668	36.173668	1.0
ptx_ab	amd	ptx_ab	CPU	GPU	CPU	False	28.330089	28.330089	1.0
ptx_ab	amd	ptx_ab	CPU	GPU	GPU	True	52.150718	33.588367	1.5526422585533854
ptx_ab	amd	ptx_ab	CPU	CPU	GPU	False	0.09338	0.669838	0.13940684165425074
ptx_ab	amd	ptx_ab	CPU	CPU	GPU	False	0.659712	1.142749	0.5773026272611046
ptx_ab	amd	ptx_ab	CPU	CPU	CPU	True	1.857705	1.857705	1.0
ptx_ab	amd	ptx_ab	CPU	GPU	CPU	False	98.608798	98.608798	1.0
ptx_ab	amd	ptx_ab	CPU	CPU	CPU	True	18.055821	18.055821	1.0
ptx_ab	amd	ptx_ab	CPU	CPU	CPU	True	22.067384	22.067384	1.0
ptx_ab	amd	ptx_ab	CPU	GPU	GPU	True	45.751465	8.541763000000001	5.356208665588122
ptx_ab	amd	ptx_ab	CPU	CPU	GPU	False	0.114504	0.727377	0.15742042984587082
ptx_ab	amd	ptx_ab	CPU	CPU	CPU	True	0.24204	0.24204	1.0
ptx_ab	amd	ptx_ab	CPU	GPU	GPU	True	4.8179349999999985	1.435942	3.3552434569084255
ptx_ab	amd	ptx_ab	CPU	CPU	CPU	True	8.938765	8.938765	1.0
ptx_ab	amd	ptx_ab	CPU	GPU	GPU	True	30.28158	4.16047	7.278403641896229
ptx_ab	amd	ptx_ab	CPU	GPU	GPU	True	70.97072299999998	7.3367330000000015	9.673341390507186
ptx_ab	amd	ptx_ab	CPU	GPU	GPU	True	70.192432	7.08162	9.91191732965056
ptx_ab	amd	ptx_ab	CPU	GPU	GPU	True	114.380868	10.409471	10.988153768813037
ptx_ab	amd	ptx_ab	CPU	GPU	GPU	True	5510.626772	3224.644395	1.7089099128401724
ptx_ab	amd	ptx_ab	CPU	GPU	GPU	True	9.11258	8.153838	1.1175816836194195
ptx_ab	amd	ptx_ab	CPU	CPU	CPU	True	5.827221	5.827221	1.0
ptx_ab	amd	ptx_ab	CPU	CPU	CPU	True	5.73952	5.73952	1.0
ptx_ab	amd	ptx_ab	CPU	GPU	GPU	True	42.386673	18.815438	2.252760366248184
ptx_ab	amd	ptx_ab	CPU	GPU	GPU	True	6.069057	5.477108	1.1080769267284851
ptx_ab	amd	ptx_ab	CPU	CPU	CPU	True	3.808204	3.808204	1.0
ptx_ab	amd	ptx_ab	CPU	CPU	CPU	True	103.66546	103.66546	1.0
ptx_ab	amd	ptx_ab	CPU	CPU	GPU	False	14.746386	153.580554	0.09601727312430451
ptx_ab	amd	ptx_ab	CPU	GPU	CPU	False	203.213701	203.213701	1.0
ptx_ab	amd	ptx_ab	CPU	CPU	CPU	True	6.344937	6.344937	1.0
ptx_ab	amd	ptx_ab	CPU	GPU	CPU	False	14.384527	14.384527	1.0
ptx_ab	amd	ptx_ab	CPU	CPU	CPU	True	6.9780789999999975	6.9780789999999975	1.0
ptx_ab	amd	ptx_ab	CPU	CPU	CPU	True	6.276553	6.276553	1.0
ptx_ab	amd	ptx_ab	CPU	CPU	GPU	False	2.035003	6.998864	0.2907619007884708
ptx_ab	amd	ptx_ab	CPU	GPU	GPU	True	3.2910730000000004	1.443983	2.2791632588472304
ptx_ab	amd	ptx_ab	CPU	CPU	GPU	False	0.161025	0.887437	0.18144950007718857
ptx_ab	amd	ptx_ab	CPU	GPU	CPU	False	2.088552	2.088552	1.0
ptx_ab	amd	ptx_ab	CPU	GPU	CPU	False	9.072222	9.072222	1.0
ptx_ab	amd	ptx_ab	CPU	GPU	GPU	True	7.506122	1.447829	5.18439815751722
ptx_ab	amd	ptx_ab	CPU	CPU	GPU	False	0.206058	0.778053	0.26483799946790254
ptx_ab	amd	ptx_ab	CPU	CPU	CPU	True	0.398413	0.398413	1.0
ptx_ab	amd	ptx_ab	CPU	CPU	CPU	True	5.089944999999998	5.089944999999998	1.0
ptx_ab	amd	ptx_ab	CPU	GPU	GPU	True	9.739175	1.250867	7.785939672243332
ptx_ab	amd	ptx_ab	CPU	CPU	GPU	False	0.18776	10.046054	0.01868992541748233
ptx_ab	amd	ptx_ab	CPU	CPU	CPU	True	0.095284	0.095284	1.0
ptx_ab	amd	ptx_ab	CPU	CPU	CPU	True	1.020877	1.020877	1.0
ptx_ab	amd	ptx_ab	CPU	CPU	GPU	False	0.192523	0.625688	0.30769808594698955
ptx_ab	amd	ptx_ab	CPU	CPU	CPU	True	0.16905599999999998	0.16905599999999998	1.0
ptx_ab	amd	ptx_ab	CPU	CPU	CPU	True	0.073584	0.073584	1.0
ptx_ab	amd	ptx_ab	CPU	CPU	CPU	True	0.138955	0.138955	1.0
ptx_ab	amd	ptx_ab	CPU	GPU	GPU	True	53389.300628	1651.065481	32.33627087622456
ptx_ab	amd	ptx_ab	CPU	GPU	GPU	True	417.99179	339.854464	1.2299140787510738
ptx_ab	amd	ptx_ab	CPU	GPU	GPU	True	75.84661700000002	2.148969	35.294421185228835
ptx_ab	amd	ptx_ab	CPU	GPU	GPU	True	37.462715	2.397295	15.627077602047308
ptx_ab	amd	ptx_ab	CPU	CPU	GPU	False	11.7493	13.075805	0.8985527086095272
ptx_ab	amd	ptx_ab	CPU	CPU	CPU	True	0.140512	0.140512	1.0
ptx_ab	amd	ptx_ab	CPU	CPU	CPU	True	0.7239869999999999	0.7239869999999999	1.0
ptx_ab	amd	ptx_ab	CPU	GPU	GPU	True	46.576787	3.051129	15.26542699440109
ptx_ab	amd	ptx_ab	CPU	CPU	CPU	True	16.298098	16.298098	1.0
ptx_ab	amd	ptx_ab	CPU	CPU	CPU	True	0.587849	0.587849	1.0
ptx_ab	amd	ptx_ab	CPU	CPU	CPU	True	28.400617	28.400617	1.0
ptx_ab	amd	ptx_ab	CPU	CPU	CPU	True	0.102889	0.102889	1.0
ptx_ab	amd	ptx_ab	CPU	CPU	CPU	True	0.127348	0.127348	1.0
ptx_ab	amd	ptx_ab	CPU	CPU	CPU	True	0.15778399999999998	0.15778399999999998	1.0
ptx_ab	amd	ptx_ab	CPU	GPU	GPU	True	55.390147	5.905452	9.379493220840674
ptx_ab	amd	ptx_ab	CPU	GPU	CPU	False	43.479416	43.479416	1.0
ptx_ab	amd	ptx_ab	CPU	GPU	GPU	True	50.49465900000001	3.4833870000000005	14.495851020859872
ptx_ab	amd	ptx_ab	CPU	GPU	GPU	True	1929.547511	562.003709	3.4333359017030975
ptx_ab	amd	ptx_ab	CPU	CPU	GPU	False	35.53405	49.971755	0.7110826906119266
ptx_ab	amd	ptx_ab	CPU	CPU	GPU	False	1.316781	5.62757	0.2339874937139831
ptx_ab	amd	ptx_ab	CPU	GPU	CPU	False	2.291522	2.291522	1.0
ptx_ab	amd	ptx_ab	CPU	GPU	CPU	False	16.679232	16.679232	1.0
ptx_ab	amd	ptx_ab	CPU	GPU	CPU	False	79.96636099999998	79.96636099999998	1.0
ptx_ab	amd	ptx_ab	CPU	CPU	CPU	True	0.091041	0.091041	1.0
ptx_ab	amd	ptx_ab	CPU	CPU	CPU	True	0.921869	0.921869	1.0
ptx_ab	amd	ptx_ab	CPU	CPU	CPU	True	0.7462340000000001	0.7462340000000001	1.0
ptx_ab	amd	ptx_ab	CPU	GPU	GPU	True	4.7677010000000015	1.932588	2.4670033136912792
ptx_ab	amd	ptx_ab	CPU	CPU	CPU	True	0.082726	0.082726	1.0
ptx_ab	amd	ptx_ab	CPU	CPU	GPU	False	0.084521	0.594214	0.14224000107705304
ptx_ab	amd	ptx_ab	CPU	CPU	CPU	True	0.110376	0.110376	1.0
ptx_ab	amd	ptx_ab	CPU	GPU	GPU	True	8.39874	1.6408919999999998	5.118399017119957
ptx_ab	amd	ptx_ab	CPU	CPU	GPU	False	0.520154	0.970116	0.5361771169633323
ptx_ab	amd	ptx_ab	CPU	GPU	GPU	True	149.02926100000005	130.223341	1.1444128207400242
ptx_ab	amd	ptx_ab	CPU	GPU	GPU	True	182.443401	10.125721	18.017818286717556
ptx_ab	amd	ptx_ab	CPU	CPU	GPU	False	2.375364	4.3754620000000015	0.5428830144108209
ptx_ab	amd	ptx_ab	CPU	GPU	GPU	True	213.106556	125.355225	1.7000213273918179
ptx_ab	amd	ptx_ab	CPU	CPU	GPU	False	2.760186	4.429812	0.6230932599396994
ptx_ab	amd	ptx_ab	CPU	GPU	GPU	True	52.599774	11.152674	4.716337445172342
ptx_ab	amd	ptx_ab	CPU	CPU	CPU	True	0.891747	0.891747	1.0
ptx_ab	amd	ptx_ab	CPU	CPU	CPU	True	0.289822	0.289822	1.0
ptx_ab	amd	ptx_ab	CPU	GPU	GPU	True	97.169171	23.777889	4.086534805507756
ptx_ab	amd	ptx_ab	CPU	GPU	GPU	True	70.31302	7.15322	9.829562071346889
ptx_ab	amd	ptx_ab	CPU	GPU	GPU	True	5417.521422	3057.583554	1.771831031375308
ptx_ab	amd	ptx_ab	CPU	GPU	GPU	True	71.81841700000003	17.139554	4.190215042935191
ptx_ab	amd	ptx_ab	CPU	GPU	GPU	True	133.73726200000002	34.56178	3.8695131442882866
ptx_ab	amd	ptx_ab	CPU	CPU	GPU	False	4.232859	5.17839	0.8174083064427361
ptx_ab	amd	ptx_ab	CPU	CPU	CPU	True	8.993403	8.993403	1.0
ptx_ab	amd	ptx_ab	CPU	CPU	CPU	True	7.514782	7.514782	1.0
ptx_ab	amd	ptx_ab	CPU	CPU	CPU	True	6.309551	6.309551	1.0
ptx_ab	amd	ptx_ab	CPU	CPU	CPU	True	6.326207	6.326207	1.0
ptx_ab	amd	ptx_ab	CPU	CPU	CPU	True	6.285722	6.285722	1.0
ptx_ab	amd	ptx_ab	CPU	CPU	CPU	True	6.325321	6.325321	1.0
ptx_ab	amd	ptx_ab	CPU	CPU	GPU	False	0.12194	0.279521	0.43624629276512317
ptx_ab	amd	ptx_ab	CPU	CPU	GPU	False	0.130003	0.668892	0.19435574053808388
ptx_ab	amd	ptx_ab	CPU	CPU	GPU	False	0.283447	0.769755	0.3682301511519899
ptx_ab	amd	ptx_ab	CPU	CPU	CPU	True	0.147294	0.147294	1.0
ptx_ab	amd	ptx_ab	CPU	GPU	GPU	True	3.979828	3.092223	1.2870443043726147
ptx_ab	amd	ptx_ab	CPU	CPU	GPU	False	0.145375	0.575309	0.2526902933901608
ptx_ab	amd	ptx_ab	CPU	CPU	GPU	False	0.122144	0.568387	0.21489583681540925
ptx_ab	amd	ptx_ab	CPU	CPU	CPU	True	8.299583	8.299583	1.0
ptx_ab	amd	ptx_ab	CPU	CPU	CPU	True	0.37436	0.37436	1.0
ptx_ab	amd	ptx_ab	CPU	CPU	CPU	True	0.143306	0.143306	1.0
ptx_ab	amd	ptx_ab	CPU	GPU	GPU	True	16.309858	11.181676	1.4586237340448784
ptx_ab	amd	ptx_ab	CPU	GPU	GPU	True	52.362537	12.641561	4.142094239785735
ptx_ab	amd	ptx_ab	CPU	GPU	CPU	False	2.267141	2.267141	1.0
ptx_ab	amd	ptx_ab	CPU	CPU	CPU	True	0.7606350000000001	0.7606350000000001	1.0
ptx_ab	amd	ptx_ab	CPU	GPU	GPU	True	71.32589	29.731573	2.3989948328667308
ptx_ab	amd	ptx_ab	CPU	GPU	CPU	False	2.285347	2.285347	1.0
ptx_ab	amd	ptx_ab	CPU	CPU	CPU	True	0.5795100000000001	0.5795100000000001	1.0
ptx_ab	amd	ptx_ab	CPU	GPU	GPU	True	701.537499	393.178681	1.7842714595199531
ptx_ab	amd	ptx_ab	CPU	CPU	CPU	True	0.106772	0.106772	1.0
ptx_ab	amd	ptx_ab	CPU	CPU	CPU	True	0.13258599999999998	0.13258599999999998	1.0
ptx_ab	amd	ptx_ab	CPU	CPU	GPU	False	0.20177	0.794899	0.25383098984902486
ptx_ab	amd	ptx_ab	CPU	CPU	CPU	True	0.197901	0.197901	1.0
ptx_ab	amd	ptx_ab	CPU	CPU	CPU	True	0.50932	0.50932	1.0
ptx_ab	amd	ptx_ab	CPU	CPU	CPU	True	0.336465	0.336465	1.0
ptx_ab	amd	ptx_ab	CPU	GPU	GPU	True	14.783681	2.7905	5.297860956817774
ptx_ab	amd	ptx_ab	CPU	CPU	CPU	True	0.149228	0.149228	1.0
ptx_ab	amd	ptx_ab	CPU	CPU	CPU	True	0.163686	0.163686	1.0
ptx_ab	amd	ptx_ab	CPU	CPU	GPU	False	0.2105	0.755571	0.2785972463209943
ptx_ab	amd	ptx_ab	CPU	GPU	GPU	True	1.366307	1.0544950000000002	1.2956979407204394
ptx_ab	amd	ptx_ab	CPU	CPU	GPU	False	0.982916	5.512254	0.1783147148153913
ptx_ab	amd	ptx_ab	CPU	CPU	GPU	False	29.511387	42.584659	0.6930051265644748
ptx_ab	amd	ptx_ab	CPU	GPU	GPU	True	203.161518	157.649402	1.2886919672552897
ptx_ab	amd	ptx_ab	CPU	GPU	GPU	True	253.81844300000003	164.138016	1.5463720665418548
ptx_ab	amd	ptx_ab	CPU	CPU	GPU	False	1.63641	5.572721	0.29364649692672573
ptx_ab	amd	ptx_ab	CPU	GPU	CPU	False	214.557912	214.557912	1.0
ptx_ab	amd	ptx_ab	CPU	CPU	GPU	False	33.428942	48.790253	0.6851561519879801
ptx_ab	amd	ptx_ab	CPU	GPU	GPU	True	251.57118	186.010002	1.3524604983338477
ptx_ab	amd	ptx_ab	CPU	GPU	GPU	True	2304.378426	755.2049480000003	3.051328559356843
ptx_ab	amd	ptx_ab	CPU	CPU	GPU	False	1.103278	6.133964	0.17986378791919874
ptx_ab	amd	ptx_ab	CPU	GPU	GPU	True	26.4431	7.318488	3.6131916865888147
ptx_ab	amd	ptx_ab	CPU	GPU	GPU	True	10.174909	1.838235	5.535151381624221
ptx_ab	amd	ptx_ab	CPU	GPU	GPU	True	4.370217	1.2225469999999998	3.574682200357124
ptx_ab	amd	ptx_ab	CPU	CPU	GPU	False	0.088624	0.674776	0.1313383997059765
ptx_ab	amd	ptx_ab	CPU	GPU	CPU	False	4.488884	4.488884	1.0
ptx_ab	amd	ptx_ab	CPU	GPU	CPU	False	17.1744	17.1744	1.0
ptx_ab	amd	ptx_ab	CPU	GPU	GPU	True	23.314557	1.934488	12.052055634359066
ptx_ab	amd	ptx_ab	CPU	CPU	CPU	True	0.180384	0.180384	1.0
ptx_ab	amd	ptx_ab	CPU	CPU	GPU	False	0.182473	0.666755	0.27367323829592577
ptx_ab	amd	ptx_ab	CPU	CPU	CPU	True	0.277212	0.277212	1.0
ptx_ab	amd	ptx_ab	CPU	CPU	CPU	True	0.096988	0.096988	1.0
ptx_ab	amd	ptx_ab	CPU	CPU	CPU	True	0.084424	0.084424	1.0
ptx_ab	amd	ptx_ab	CPU	GPU	CPU	False	1.076992	1.076992	1.0
ptx_ab	amd	ptx_ab	CPU	CPU	GPU	False	0.250235	0.555404	0.4505459089239544
ptx_ab	amd	ptx_ab	CPU	CPU	GPU	False	0.08742799999999999	0.600514	0.14558861242202512
ptx_ab	amd	ptx_ab	CPU	CPU	GPU	False	0.339303	0.561245	0.6045541608388494
ptx_ab	amd	ptx_ab	CPU	CPU	CPU	True	18.536833	18.536833	1.0
ptx_ab	amd	ptx_ab	CPU	GPU	CPU	False	25.37265	25.37265	1.0
ptx_ab	amd	ptx_ab	CPU	GPU	GPU	True	23.390468	15.946787	1.4667824935518357
ptx_ab	amd	ptx_ab	CPU	GPU	GPU	True	304.98618	108.441772	2.812441869725257
ptx_ab	amd	ptx_ab	CPU	GPU	CPU	False	14.083006	14.083006	1.0
ptx_ab	amd	ptx_ab	CPU	CPU	GPU	False	0.4438470000000001	0.996921	0.4452178256852851
ptx_ab	amd	ptx_ab	CPU	GPU	GPU	True	89.781172	56.73712	1.5824062271754364
ptx_ab	amd	ptx_ab	CPU	GPU	GPU	True	112.114833	21.224605	5.282304806143625
ptx_ab	amd	ptx_ab	CPU	GPU	GPU	True	17.661253	11.239787	1.5713156308033238
ptx_ab	amd	ptx_ab	CPU	CPU	GPU	False	2.306351	12.531554	0.184043495323884
ptx_ab	amd	ptx_ab	CPU	CPU	GPU	False	7.6315149999999985	19.335048	0.39469852880634165
ptx_ab	amd	ptx_ab	CPU	CPU	CPU	True	6.149749	6.149749	1.0
ptx_ab	amd	ptx_ab	CPU	CPU	CPU	True	6.321418	6.321418	1.0
ptx_ab	amd	ptx_ab	CPU	CPU	GPU	False	0.15946	0.5681069999999999	0.280686560806327
ptx_ab	amd	ptx_ab	CPU	CPU	CPU	True	0.247081	0.247081	1.0
ptx_ab	amd	ptx_ab	CPU	GPU	CPU	False	5.403192	5.403192	1.0
ptx_ab	amd	ptx_ab	CPU	GPU	CPU	False	41.526022	41.526022	1.0
ptx_ab	amd	ptx_ab	CPU	CPU	CPU	True	0.095298	0.095298	1.0
ptx_ab	amd	ptx_ab	CPU	CPU	CPU	True	0.10201	0.10201	1.0
ptx_ab	amd	ptx_ab	CPU	CPU	CPU	True	2.745603	2.745603	1.0
ptx_ab	amd	ptx_ab	CPU	CPU	GPU	False	0.230984	10.249951	0.02253513211916818
ptx_ab	amd	ptx_ab	CPU	CPU	GPU	False	0.090509	9.868334	0.00917165957293298
ptx_ab	amd	ptx_ab	CPU	CPU	GPU	False	0.550615	0.7455930000000001	0.738492716535697
ptx_ab	amd	ptx_ab	CPU	CPU	CPU	True	0.094021	0.094021	1.0
ptx_ab	amd	ptx_ab	CPU	CPU	CPU	True	21.608036	21.608036	1.0
ptx_ab	amd	ptx_ab	CPU	GPU	GPU	True	12.169673	6.15546	1.9770533802510293
ptx_ab	amd	ptx_ab	CPU	CPU	CPU	True	0.09043	0.09043	1.0
ptx_ab	amd	ptx_ab	CPU	GPU	GPU	True	29.584754	0.702439	42.117185976291175
ptx_ab	amd	ptx_ab	CPU	GPU	GPU	True	69.414666	22.87198900000001	3.034920399795574
ptx_ab	amd	ptx_ab	CPU	GPU	GPU	True	407.61281	364.379205	1.1186500338294552
ptx_ab	amd	ptx_ab	CPU	CPU	CPU	True	0.15626199999999998	0.15626199999999998	1.0
ptx_ab	amd	ptx_ab	CPU	CPU	GPU	False	630.874991	985.415464	0.6402121887139373
ptx_ab	amd	ptx_ab	CPU	GPU	GPU	True	23910.693736	5190.156319	4.60693132660924
ptx_ab	amd	ptx_ab	CPU	CPU	CPU	True	0.133633	0.133633	1.0
ptx_ab	amd	ptx_ab	CPU	CPU	CPU	True	0.124848	0.124848	1.0
ptx_ab	amd	ptx_ab	CPU	CPU	CPU	True	0.142796	0.142796	1.0
ptx_ab	amd	ptx_ab	CPU	CPU	CPU	True	0.069436	0.069436	1.0
ptx_ab	amd	ptx_ab	CPU	GPU	GPU	True	3340.15418	362.12183	9.22384099296085
ptx_ab	amd	ptx_ab	CPU	GPU	GPU	True	13348.841044	435.911831	30.622800517657893
ptx_ab	amd	ptx_ab	CPU	GPU	GPU	True	4383.638636	253.710796	17.278092635837222
ptx_ab	amd	ptx_ab	CPU	GPU	GPU	True	36.163467	1.218627	29.67558325886428
ptx_ab	amd	ptx_ab	CPU	CPU	CPU	True	0.329086	0.329086	1.0
ptx_ab	amd	ptx_ab	CPU	GPU	GPU	True	12.21168	2.095359	5.8279655180806715
ptx_ab	amd	ptx_ab	CPU	CPU	CPU	True	6.880688	6.880688	1.0
ptx_ab	amd	ptx_ab	CPU	CPU	CPU	True	3.567586	3.567586	1.0
ptx_ab	amd	ptx_ab	CPU	CPU	CPU	True	7.058781	7.058781	1.0
ptx_ab	amd	ptx_ab	CPU	CPU	CPU	True	0.73456	0.73456	1.0
ptx_ab	amd	ptx_ab	CPU	CPU	CPU	True	8.704397	8.704397	1.0
ptx_ab	amd	ptx_ab	CPU	CPU	CPU	True	0.177189	0.177189	1.0
ptx_ab	amd	ptx_ab	CPU	CPU	GPU	False	0.252408	0.986529	0.2558546175530573
ptx_ab	amd	ptx_ab	CPU	CPU	GPU	False	0.413715	1.115113	0.3710072432121229
ptx_ab	amd	ptx_ab	CPU	CPU	GPU	False	0.128742	0.758681	0.1696918731324496
ptx_ab	amd	ptx_ab	CPU	CPU	CPU	True	0.729912	0.729912	1.0
ptx_ab	amd	ptx_ab	CPU	GPU	CPU	False	17.277572	17.277572	1.0
ptx_ab	amd	ptx_ab	CPU	GPU	GPU	True	1929.266915	559.8409320000002	3.446098355309253
ptx_ab	amd	ptx_ab	CPU	GPU	GPU	True	1929.262778	559.899305	3.4457316892007928
ptx_ab	amd	ptx_ab	CPU	GPU	GPU	True	2086.473561	1285.895057	1.6225846344473505
ptx_ab	amd	ptx_ab	CPU	CPU	GPU	False	30.41236	42.619853000000006	0.7135726160294358
ptx_ab	amd	ptx_ab	CPU	GPU	GPU	True	3183.317975	613.4733769999998	5.1890075337368735
ptx_ab	amd	ptx_ab	CPU	GPU	CPU	False	11.548587	11.548587	1.0
ptx_ab	amd	ptx_ab	CPU	CPU	CPU	True	5.104108	5.104108	1.0
ptx_ab	amd	ptx_ab	CPU	CPU	CPU	True	1.025288	1.025288	1.0
ptx_ab	amd	ptx_ab	CPU	GPU	CPU	False	17.555286	17.555286	1.0
ptx_ab	amd	ptx_ab	CPU	GPU	GPU	True	13.567637	2.537939	5.345927147973217
ptx_ab	amd	ptx_ab	CPU	GPU	GPU	True	9.709254	1.2794530000000002	7.588597627267276
ptx_ab	amd	ptx_ab	CPU	CPU	GPU	False	0.165327	0.7459479999999999	0.22163341144422938
ptx_ab	amd	ptx_ab	CPU	CPU	GPU	False	0.17568699999999998	0.543514	0.3232428235519232
ptx_ab	amd	ptx_ab	CPU	CPU	CPU	True	2.736427	2.736427	1.0
ptx_ab	amd	ptx_ab	CPU	CPU	GPU	False	0.095157	0.704118	0.13514354128143294
ptx_ab	amd	ptx_ab	CPU	GPU	GPU	True	22.445654	19.376744	1.1583810984962182
ptx_ab	amd	ptx_ab	CPU	GPU	GPU	True	226.576003	118.053509	1.9192652968917678
ptx_ab	amd	ptx_ab	CPU	GPU	GPU	True	391.300554	71.567084	5.467605107398256
ptx_ab	amd	ptx_ab	CPU	GPU	CPU	False	71.003148	71.003148	1.0
ptx_ab	amd	ptx_ab	CPU	GPU	GPU	True	4.81292	4.350399	1.1063169148393055
ptx_ab	amd	ptx_ab	CPU	GPU	GPU	True	47.802033	45.253548	1.0563156948489432
ptx_ab	amd	ptx_ab	CPU	CPU	GPU	False	3.016713	4.694735	0.6425736489919027
ptx_ab	amd	ptx_ab	CPU	CPU	GPU	False	8.661719999999999	13.7718	0.6289461072626671
ptx_ab	amd	ptx_ab	CPU	CPU	CPU	True	6.23194	6.23194	1.0
ptx_ab	amd	ptx_ab	CPU	CPU	CPU	True	8.655694	8.655694	1.0
ptx_ab	amd	ptx_ab	CPU	GPU	GPU	True	17.86673	16.66638	1.0720222387825071
ptx_ab	amd	ptx_ab	CPU	CPU	CPU	True	876.4571800000001	876.4571800000001	1.0
