approach	benchmark	model	b_chosen	Y_actual	Y_pred	Correct?	b_runtime	p_runtime	speedup
ptx2vec	amd	ptx2vec-imm	CPU	GPU	GPU	True	1.880737	1.302612	1.443819802059247
ptx2vec	amd	ptx2vec-imm	CPU	CPU	CPU	True	0.247081	0.247081	1.0
ptx2vec	amd	ptx2vec-imm	CPU	CPU	CPU	True	0.398413	0.398413	1.0
ptx2vec	amd	ptx2vec-imm	CPU	CPU	CPU	True	0.155997	0.155997	1.0
ptx2vec	amd	ptx2vec-imm	CPU	CPU	CPU	True	22.05727000000001	22.05727000000001	1.0
ptx2vec	amd	ptx2vec-imm	CPU	CPU	CPU	True	0.10201	0.10201	1.0
ptx2vec	amd	ptx2vec-imm	CPU	CPU	CPU	True	2.745603	2.745603	1.0
ptx2vec	amd	ptx2vec-imm	CPU	CPU	CPU	True	0.07966000000000001	0.07966000000000001	1.0
ptx2vec	amd	ptx2vec-imm	CPU	CPU	CPU	True	0.070984	0.070984	1.0
ptx2vec	amd	ptx2vec-imm	CPU	GPU	GPU	True	16.913439	10.44386	1.6194624401322881
ptx2vec	amd	ptx2vec-imm	CPU	CPU	GPU	False	0.345027	0.690906	0.49938341829423966
ptx2vec	amd	ptx2vec-imm	CPU	CPU	GPU	False	0.221758	0.612139	0.36226739351683196
ptx2vec	amd	ptx2vec-imm	CPU	CPU	CPU	True	0.31203400000000003	0.31203400000000003	1.0
ptx2vec	amd	ptx2vec-imm	CPU	GPU	GPU	True	701.537499	393.178681	1.7842714595199531
ptx2vec	amd	ptx2vec-imm	CPU	CPU	GPU	False	3.341415	4.816686	0.6937165926946453
ptx2vec	amd	ptx2vec-imm	CPU	GPU	GPU	True	108045.193158	16068.874209	6.723880699587845
ptx2vec	amd	ptx2vec-imm	CPU	CPU	CPU	True	0.074911	0.074911	1.0
ptx2vec	amd	ptx2vec-imm	CPU	CPU	GPU	False	0.150912	0.965868	0.15624495272645952
ptx2vec	amd	ptx2vec-imm	CPU	CPU	CPU	True	0.124848	0.124848	1.0
ptx2vec	amd	ptx2vec-imm	CPU	GPU	GPU	True	1117.859694	33.923495	32.9523739815134
ptx2vec	amd	ptx2vec-imm	CPU	GPU	GPU	True	1131.531702	35.61066500000001	31.77507923539197
ptx2vec	amd	ptx2vec-imm	CPU	GPU	GPU	True	0.781939	0.7492939999999999	1.0435676783745769
ptx2vec	amd	ptx2vec-imm	CPU	CPU	CPU	True	0.220729	0.220729	1.0
ptx2vec	amd	ptx2vec-imm	CPU	CPU	CPU	True	57.680221	57.680221	1.0
ptx2vec	amd	ptx2vec-imm	CPU	CPU	CPU	True	0.148393	0.148393	1.0
ptx2vec	amd	ptx2vec-imm	CPU	CPU	CPU	True	0.124726	0.124726	1.0
ptx2vec	amd	ptx2vec-imm	CPU	GPU	CPU	False	12.120577	12.120577	1.0
ptx2vec	amd	ptx2vec-imm	CPU	GPU	GPU	True	44.918082	6.13861	7.317305057659633
ptx2vec	amd	ptx2vec-imm	CPU	CPU	CPU	True	0.132395	0.132395	1.0
ptx2vec	amd	ptx2vec-imm	CPU	GPU	CPU	False	3.559571	3.559571	1.0
ptx2vec	amd	ptx2vec-imm	CPU	CPU	CPU	True	0.432356	0.432356	1.0
ptx2vec	amd	ptx2vec-imm	CPU	CPU	CPU	True	0.457272	0.457272	1.0
ptx2vec	amd	ptx2vec-imm	CPU	CPU	CPU	True	0.587598	0.587598	1.0
ptx2vec	amd	ptx2vec-imm	CPU	CPU	CPU	True	0.188367	0.188367	1.0
ptx2vec	amd	ptx2vec-imm	CPU	GPU	CPU	False	2.667403	2.667403	1.0
ptx2vec	amd	ptx2vec-imm	CPU	GPU	GPU	True	43.479416	2.002555	21.711970957102302
ptx2vec	amd	ptx2vec-imm	CPU	CPU	CPU	True	0.14705	0.14705	1.0
ptx2vec	amd	ptx2vec-imm	CPU	CPU	CPU	True	0.336674	0.336674	1.0
ptx2vec	amd	ptx2vec-imm	CPU	CPU	CPU	True	0.163686	0.163686	1.0
ptx2vec	amd	ptx2vec-imm	CPU	GPU	CPU	False	4.55526	4.55526	1.0
ptx2vec	amd	ptx2vec-imm	CPU	GPU	CPU	False	6.772957000000001	6.772957000000001	1.0
ptx2vec	amd	ptx2vec-imm	CPU	GPU	GPU	True	27.00584000000001	8.709845	3.1006108604688154
ptx2vec	amd	ptx2vec-imm	CPU	GPU	GPU	True	203.206624	157.684112	1.288694348610087
ptx2vec	amd	ptx2vec-imm	CPU	GPU	GPU	True	1929.547511	562.003709	3.4333359017030975
ptx2vec	amd	ptx2vec-imm	CPU	CPU	CPU	True	0.98311	0.98311	1.0
ptx2vec	amd	ptx2vec-imm	CPU	CPU	CPU	True	35.53405	35.53405	1.0
ptx2vec	amd	ptx2vec-imm	CPU	GPU	GPU	True	28.330089	3.926443	7.215204448402791
ptx2vec	amd	ptx2vec-imm	CPU	CPU	CPU	True	0.513153	0.513153	1.0
ptx2vec	amd	ptx2vec-imm	CPU	CPU	CPU	True	0.088624	0.088624	1.0
ptx2vec	amd	ptx2vec-imm	CPU	GPU	CPU	False	4.488884	4.488884	1.0
ptx2vec	amd	ptx2vec-imm	CPU	CPU	GPU	False	144.091447	202.057943	0.7131194392095737
ptx2vec	amd	ptx2vec-imm	CPU	GPU	GPU	True	17.555286	5.393947	3.2546270847674252
ptx2vec	amd	ptx2vec-imm	CPU	GPU	GPU	True	13.567637	2.537939	5.345927147973217
ptx2vec	amd	ptx2vec-imm	CPU	GPU	GPU	True	40.03487	3.589209	11.154232032740362
ptx2vec	amd	ptx2vec-imm	CPU	CPU	CPU	True	0.096988	0.096988	1.0
ptx2vec	amd	ptx2vec-imm	CPU	CPU	CPU	True	0.17568699999999998	0.17568699999999998	1.0
ptx2vec	amd	ptx2vec-imm	CPU	CPU	CPU	True	0.084521	0.084521	1.0
ptx2vec	amd	ptx2vec-imm	CPU	CPU	CPU	True	0.520154	0.520154	1.0
ptx2vec	amd	ptx2vec-imm	CPU	GPU	GPU	True	100.075927	90.160402	1.1099764950027617
ptx2vec	amd	ptx2vec-imm	CPU	GPU	CPU	False	71.003148	71.003148	1.0
ptx2vec	amd	ptx2vec-imm	CPU	CPU	CPU	True	20.256719	20.256719	1.0
ptx2vec	amd	ptx2vec-imm	CPU	GPU	GPU	True	27.67397	19.341322	1.4308210162676573
ptx2vec	amd	ptx2vec-imm	CPU	GPU	CPU	False	25.721419	25.721419	1.0
ptx2vec	amd	ptx2vec-imm	CPU	GPU	GPU	True	1024.542367	32.280825	31.738419541631913
ptx2vec	amd	ptx2vec-imm	CPU	CPU	CPU	True	6.149749	6.149749	1.0
ptx2vec	amd	ptx2vec-imm	CPU	CPU	CPU	True	6.326207	6.326207	1.0
ptx2vec	amd	ptx2vec-imm	CPU	GPU	GPU	True	14.384527	13.746262	1.0464318954491048
ptx2vec	amd	ptx2vec-imm	CPU	CPU	CPU	True	6.325321	6.325321	1.0
ptx2vec	amd	ptx2vec-imm	CPU	GPU	GPU	True	3.2910730000000004	1.443983	2.2791632588472304
ptx2vec	amd	ptx2vec-imm	CPU	CPU	CPU	True	0.283447	0.283447	1.0
ptx2vec	amd	ptx2vec-imm	CPU	CPU	GPU	False	0.277644	1.120132	0.24786721564958417
ptx2vec	amd	ptx2vec-imm	CPU	CPU	GPU	False	0.161025	0.887437	0.18144950007718857
ptx2vec	amd	ptx2vec-imm	CPU	CPU	CPU	True	0.336185	0.336185	1.0
ptx2vec	amd	ptx2vec-imm	CPU	GPU	CPU	False	3.979828	3.979828	1.0
ptx2vec	amd	ptx2vec-imm	CPU	GPU	GPU	True	9.072222	1.760085	5.154422655724014
ptx2vec	amd	ptx2vec-imm	CPU	CPU	CPU	True	0.15946	0.15946	1.0
ptx2vec	amd	ptx2vec-imm	CPU	CPU	CPU	True	1.9790330000000005	1.9790330000000005	1.0
ptx2vec	amd	ptx2vec-imm	CPU	CPU	CPU	True	0.37436	0.37436	1.0
ptx2vec	amd	ptx2vec-imm	CPU	CPU	CPU	True	0.143306	0.143306	1.0
ptx2vec	amd	ptx2vec-imm	CPU	CPU	CPU	True	0.433096	0.433096	1.0
ptx2vec	amd	ptx2vec-imm	CPU	CPU	CPU	True	0.577761	0.577761	1.0
ptx2vec	amd	ptx2vec-imm	CPU	CPU	CPU	True	0.952137	0.952137	1.0
ptx2vec	amd	ptx2vec-imm	CPU	CPU	CPU	True	21.610194	21.610194	1.0
ptx2vec	amd	ptx2vec-imm	CPU	CPU	GPU	False	0.138997	0.768841	0.1807877051301895
ptx2vec	amd	ptx2vec-imm	CPU	GPU	GPU	True	21.383057	2.616789	8.171486887173556
ptx2vec	amd	ptx2vec-imm	CPU	CPU	CPU	True	0.101786	0.101786	1.0
ptx2vec	amd	ptx2vec-imm	CPU	GPU	GPU	True	7051.470956	3125.609956	2.2560303605585266
ptx2vec	amd	ptx2vec-imm	CPU	CPU	CPU	True	0.120448	0.120448	1.0
ptx2vec	amd	ptx2vec-imm	CPU	CPU	CPU	True	0.147797	0.147797	1.0
ptx2vec	amd	ptx2vec-imm	CPU	CPU	CPU	True	27.745023	27.745023	1.0
ptx2vec	amd	ptx2vec-imm	CPU	GPU	GPU	True	3340.15418	362.12183	9.22384099296085
ptx2vec	amd	ptx2vec-imm	CPU	GPU	GPU	True	69.70788	21.487677	3.244086366339181
ptx2vec	amd	ptx2vec-imm	CPU	GPU	GPU	True	70.436838	2.150951	32.74683523706491
ptx2vec	amd	ptx2vec-imm	CPU	CPU	CPU	True	0.220135	0.220135	1.0
ptx2vec	amd	ptx2vec-imm	CPU	GPU	GPU	True	1.421712	0.748629	1.8990875320085117
ptx2vec	amd	ptx2vec-imm	CPU	GPU	CPU	False	21.3913	21.3913	1.0
ptx2vec	amd	ptx2vec-imm	CPU	CPU	CPU	True	0.105627	0.105627	1.0
ptx2vec	amd	ptx2vec-imm	CPU	GPU	GPU	True	216.336307	14.155052	15.283328312746574
ptx2vec	amd	ptx2vec-imm	CPU	CPU	CPU	True	2.542532	2.542532	1.0
ptx2vec	amd	ptx2vec-imm	CPU	CPU	CPU	True	0.13301500000000002	0.13301500000000002	1.0
ptx2vec	amd	ptx2vec-imm	CPU	CPU	CPU	True	0.105823	0.105823	1.0
ptx2vec	amd	ptx2vec-imm	CPU	GPU	CPU	False	2.995811	2.995811	1.0
ptx2vec	amd	ptx2vec-imm	CPU	CPU	CPU	True	0.261491	0.261491	1.0
ptx2vec	amd	ptx2vec-imm	CPU	CPU	CPU	True	0.174608	0.174608	1.0
ptx2vec	amd	ptx2vec-imm	CPU	GPU	GPU	True	11.901937	1.3080379999999998	9.099075867826471
ptx2vec	amd	ptx2vec-imm	CPU	CPU	CPU	True	29.515857	29.515857	1.0
ptx2vec	amd	ptx2vec-imm	CPU	GPU	GPU	True	203.175957	157.650087	1.288777956716256
ptx2vec	amd	ptx2vec-imm	CPU	CPU	CPU	True	0.995759	0.995759	1.0
ptx2vec	amd	ptx2vec-imm	CPU	GPU	GPU	True	215.394182	163.812356	1.31488360987861
ptx2vec	amd	ptx2vec-imm	CPU	CPU	CPU	True	1.0276040000000002	1.0276040000000002	1.0
ptx2vec	amd	ptx2vec-imm	CPU	CPU	CPU	True	33.428942	33.428942	1.0
ptx2vec	amd	ptx2vec-imm	CPU	GPU	GPU	True	206.261393	157.990928	1.3055268148054677
ptx2vec	amd	ptx2vec-imm	CPU	GPU	GPU	True	358.171733	169.680004	2.110865892011648
ptx2vec	amd	ptx2vec-imm	CPU	CPU	CPU	True	0.087243	0.087243	1.0
ptx2vec	amd	ptx2vec-imm	CPU	GPU	CPU	False	2.291522	2.291522	1.0
ptx2vec	amd	ptx2vec-imm	CPU	GPU	GPU	True	52.150718	33.588367	1.5526422585533854
ptx2vec	amd	ptx2vec-imm	CPU	CPU	CPU	True	0.691142	0.691142	1.0
ptx2vec	amd	ptx2vec-imm	CPU	CPU	CPU	True	0.310777	0.310777	1.0
ptx2vec	amd	ptx2vec-imm	CPU	CPU	CPU	True	5.104108	5.104108	1.0
ptx2vec	amd	ptx2vec-imm	CPU	CPU	CPU	True	0.165048	0.165048	1.0
ptx2vec	amd	ptx2vec-imm	CPU	CPU	CPU	True	0.17208800000000002	0.17208800000000002	1.0
ptx2vec	amd	ptx2vec-imm	CPU	GPU	CPU	False	3.227895	3.227895	1.0
ptx2vec	amd	ptx2vec-imm	CPU	CPU	CPU	True	0.24204	0.24204	1.0
ptx2vec	amd	ptx2vec-imm	CPU	GPU	CPU	False	1.076992	1.076992	1.0
ptx2vec	amd	ptx2vec-imm	CPU	GPU	GPU	True	4.807589	1.4385290000000002	3.3420174358667776
ptx2vec	amd	ptx2vec-imm	CPU	GPU	GPU	True	17.5257	3.4692540000000003	5.051720052783682
ptx2vec	amd	ptx2vec-imm	CPU	CPU	CPU	True	0.08354400000000001	0.08354400000000001	1.0
ptx2vec	amd	ptx2vec-imm	CPU	CPU	CPU	True	22.022122	22.022122	1.0
ptx2vec	amd	ptx2vec-imm	CPU	GPU	GPU	True	362.543388	49.171442	7.373047713345482
ptx2vec	amd	ptx2vec-imm	CPU	GPU	GPU	True	173.621273	70.368162	2.467327098866104
ptx2vec	amd	ptx2vec-imm	CPU	CPU	CPU	True	5.62095	5.62095	1.0
ptx2vec	amd	ptx2vec-imm	CPU	GPU	GPU	True	112.114833	21.224605	5.282304806143625
ptx2vec	amd	ptx2vec-imm	CPU	CPU	CPU	True	8.993403	8.993403	1.0
ptx2vec	amd	ptx2vec-imm	CPU	GPU	CPU	False	203.213701	203.213701	1.0
ptx2vec	amd	ptx2vec-imm	CPU	CPU	CPU	True	8.661719999999999	8.661719999999999	1.0
ptx2vec	amd	ptx2vec-imm	CPU	GPU	GPU	True	17.00504	2.007888	8.46911779939917
ptx2vec	amd	ptx2vec-imm	CPU	CPU	GPU	False	0.12194	0.279521	0.43624629276512317
ptx2vec	amd	ptx2vec-imm	CPU	GPU	GPU	True	3.226918	2.856623	1.129626835602738
ptx2vec	amd	ptx2vec-imm	CPU	GPU	GPU	True	4.5177760000000005	1.691962	2.670140345941576
ptx2vec	amd	ptx2vec-imm	CPU	CPU	CPU	True	0.122144	0.122144	1.0
ptx2vec	amd	ptx2vec-imm	CPU	CPU	CPU	True	0.13508599999999998	0.13508599999999998	1.0
ptx2vec	amd	ptx2vec-imm	CPU	CPU	CPU	True	18.217334	18.217334	1.0
ptx2vec	amd	ptx2vec-imm	CPU	GPU	GPU	True	39.977181	3.584683	11.152222107226775
ptx2vec	amd	ptx2vec-imm	CPU	CPU	CPU	True	0.095298	0.095298	1.0
ptx2vec	amd	ptx2vec-imm	CPU	CPU	CPU	True	0.090509	0.090509	1.0
ptx2vec	amd	ptx2vec-imm	CPU	CPU	CPU	True	0.934164	0.934164	1.0
ptx2vec	amd	ptx2vec-imm	CPU	CPU	CPU	True	1.006071	1.006071	1.0
ptx2vec	amd	ptx2vec-imm	CPU	GPU	GPU	True	2.285347	1.434383	1.593261353487876
ptx2vec	amd	ptx2vec-imm	CPU	GPU	GPU	True	94.898911	74.12377	1.2802763674864353
ptx2vec	amd	ptx2vec-imm	CPU	CPU	CPU	True	0.731771	0.731771	1.0
ptx2vec	amd	ptx2vec-imm	CPU	CPU	CPU	True	0.377957	0.377957	1.0
ptx2vec	amd	ptx2vec-imm	CPU	GPU	GPU	True	69.414666	22.87198900000001	3.034920399795574
ptx2vec	amd	ptx2vec-imm	CPU	CPU	CPU	True	0.124833	0.124833	1.0
ptx2vec	amd	ptx2vec-imm	CPU	CPU	CPU	True	0.136692	0.136692	1.0
ptx2vec	amd	ptx2vec-imm	CPU	CPU	CPU	True	7.579917999999997	7.579917999999997	1.0
ptx2vec	amd	ptx2vec-imm	CPU	CPU	CPU	True	1.118177	1.118177	1.0
ptx2vec	amd	ptx2vec-imm	CPU	GPU	GPU	True	36.033501	1.197646	30.086938043461927
ptx2vec	amd	ptx2vec-imm	CPU	GPU	GPU	True	4472.677009	259.992989	17.20306776810816
ptx2vec	amd	ptx2vec-imm	CPU	CPU	CPU	True	0.250675	0.250675	1.0
ptx2vec	amd	ptx2vec-imm	CPU	GPU	GPU	True	215.77862400000004	4.915749	43.8953705732331
ptx2vec	amd	ptx2vec-imm	CPU	CPU	CPU	True	0.329086	0.329086	1.0
ptx2vec	amd	ptx2vec-imm	CPU	CPU	CPU	True	0.50932	0.50932	1.0
ptx2vec	amd	ptx2vec-imm	CPU	CPU	CPU	True	0.505954	0.505954	1.0
ptx2vec	amd	ptx2vec-imm	CPU	CPU	CPU	True	0.73456	0.73456	1.0
ptx2vec	amd	ptx2vec-imm	CPU	CPU	CPU	True	0.129024	0.129024	1.0
ptx2vec	amd	ptx2vec-imm	CPU	CPU	CPU	True	0.156723	0.156723	1.0
ptx2vec	amd	ptx2vec-imm	CPU	CPU	CPU	True	0.13201	0.13201	1.0
ptx2vec	amd	ptx2vec-imm	CPU	CPU	CPU	True	0.13731400000000002	0.13731400000000002	1.0
ptx2vec	amd	ptx2vec-imm	CPU	GPU	GPU	True	202.148046	5.758648	35.103386419867995
ptx2vec	amd	ptx2vec-imm	CPU	CPU	GPU	False	0.2105	0.755571	0.2785972463209943
ptx2vec	amd	ptx2vec-imm	CPU	GPU	GPU	True	17.277572	6.075863	2.8436408128359707
ptx2vec	amd	ptx2vec-imm	CPU	GPU	GPU	True	206.718894	163.537529	1.264045600199817
ptx2vec	amd	ptx2vec-imm	CPU	GPU	GPU	True	252.967088	158.59229399999995	1.5950780559363122
ptx2vec	amd	ptx2vec-imm	CPU	CPU	CPU	True	1.074665	1.074665	1.0
ptx2vec	amd	ptx2vec-imm	CPU	GPU	GPU	True	208.634422	157.775778	1.3223476039522366
ptx2vec	amd	ptx2vec-imm	CPU	GPU	GPU	True	251.57118	186.010002	1.3524604983338477
ptx2vec	amd	ptx2vec-imm	CPU	GPU	GPU	True	252.558668	191.542398	1.3185522925321214
ptx2vec	amd	ptx2vec-imm	CPU	GPU	GPU	True	2304.378426	755.2049480000003	3.051328559356843
ptx2vec	amd	ptx2vec-imm	CPU	CPU	CPU	True	1.103278	1.103278	1.0
ptx2vec	amd	ptx2vec-imm	CPU	CPU	GPU	False	212.766326	215.132956	0.9889992214860841
ptx2vec	amd	ptx2vec-imm	CPU	CPU	GPU	False	0.091148	0.603129	0.15112521533535944
ptx2vec	amd	ptx2vec-imm	CPU	CPU	GPU	False	0.272451	0.561006	0.4856472123292799
ptx2vec	amd	ptx2vec-imm	CPU	CPU	CPU	True	8.307993	8.307993	1.0
ptx2vec	amd	ptx2vec-imm	CPU	CPU	CPU	True	0.483186	0.483186	1.0
ptx2vec	amd	ptx2vec-imm	CPU	CPU	CPU	True	0.921869	0.921869	1.0
ptx2vec	amd	ptx2vec-imm	CPU	CPU	CPU	True	18.055821	18.055821	1.0
ptx2vec	amd	ptx2vec-imm	CPU	CPU	CPU	True	1.025288	1.025288	1.0
ptx2vec	amd	ptx2vec-imm	CPU	CPU	CPU	True	0.165327	0.165327	1.0
ptx2vec	amd	ptx2vec-imm	CPU	CPU	CPU	True	0.146839	0.146839	1.0
ptx2vec	amd	ptx2vec-imm	CPU	GPU	CPU	False	1.949146	1.949146	1.0
ptx2vec	amd	ptx2vec-imm	CPU	GPU	CPU	False	2.538412	2.538412	1.0
ptx2vec	amd	ptx2vec-imm	CPU	CPU	CPU	True	0.095157	0.095157	1.0
ptx2vec	amd	ptx2vec-imm	CPU	GPU	GPU	True	149.02926100000005	130.223341	1.1444128207400242
ptx2vec	amd	ptx2vec-imm	CPU	GPU	GPU	True	173.712334	71.01129300000002	2.4462634978354774
ptx2vec	amd	ptx2vec-imm	CPU	GPU	GPU	True	114.380868	10.409471	10.988153768813037
ptx2vec	amd	ptx2vec-imm	CPU	GPU	GPU	True	70.897543	14.290167000000002	4.961281628129328
ptx2vec	amd	ptx2vec-imm	CPU	CPU	CPU	True	6.393171	6.393171	1.0
ptx2vec	amd	ptx2vec-imm	CPU	GPU	GPU	True	42.386673	18.815438	2.252760366248184
ptx2vec	amd	ptx2vec-imm	CPU	GPU	CPU	False	17.709535	17.709535	1.0
ptx2vec	amd	ptx2vec-imm	CPU	CPU	GPU	False	13.862587	27.781911	0.49897888593768797
ptx2vec	amd	ptx2vec-imm	CPU	GPU	GPU	True	281.25877	3.976573	70.7289341852897
ptx2vec	amd	ptx2vec-imm	CPU	GPU	GPU	True	2.117275	1.48569	1.425112237411573
ptx2vec	amd	ptx2vec-imm	CPU	CPU	CPU	True	8.545337	8.545337	1.0
ptx2vec	amd	ptx2vec-imm	CPU	GPU	GPU	True	1.885541	1.863657	1.0117425041195884
ptx2vec	amd	ptx2vec-imm	CPU	CPU	CPU	True	0.130323	0.130323	1.0
ptx2vec	amd	ptx2vec-imm	CPU	GPU	GPU	True	7.096428	1.966463	3.608726937654052
ptx2vec	amd	ptx2vec-imm	CPU	CPU	GPU	False	2.858859	2.865368	0.9977283895122719
ptx2vec	amd	ptx2vec-imm	CPU	GPU	GPU	True	11.403199	8.557004	1.3326158314288508
ptx2vec	amd	ptx2vec-imm	CPU	CPU	CPU	True	0.087732	0.087732	1.0
ptx2vec	amd	ptx2vec-imm	CPU	GPU	GPU	True	21.249054	2.600932	8.169784523393924
ptx2vec	amd	ptx2vec-imm	CPU	GPU	CPU	False	41.526022	41.526022	1.0
ptx2vec	amd	ptx2vec-imm	CPU	GPU	GPU	True	4.775159	1.887612	2.529735454108154
ptx2vec	amd	ptx2vec-imm	CPU	CPU	CPU	True	0.16764500000000002	0.16764500000000002	1.0
ptx2vec	amd	ptx2vec-imm	CPU	CPU	CPU	True	0.2368780000000001	0.2368780000000001	1.0
ptx2vec	amd	ptx2vec-imm	CPU	CPU	CPU	True	0.181502	0.181502	1.0
ptx2vec	amd	ptx2vec-imm	CPU	GPU	CPU	False	16.906211	16.906211	1.0
ptx2vec	amd	ptx2vec-imm	CPU	CPU	CPU	True	0.22839	0.22839	1.0
ptx2vec	amd	ptx2vec-imm	CPU	GPU	GPU	True	12.283156	5.533963	2.2195948906778016
ptx2vec	amd	ptx2vec-imm	CPU	GPU	GPU	True	52.362537	12.641561	4.142094239785735
ptx2vec	amd	ptx2vec-imm	CPU	CPU	CPU	True	0.089811	0.089811	1.0
ptx2vec	amd	ptx2vec-imm	CPU	CPU	CPU	True	0.147223	0.147223	1.0
ptx2vec	amd	ptx2vec-imm	CPU	GPU	GPU	True	12.169673	6.15546	1.9770533802510293
ptx2vec	amd	ptx2vec-imm	CPU	CPU	CPU	True	0.564381	0.564381	1.0
ptx2vec	amd	ptx2vec-imm	CPU	CPU	GPU	False	0.239707	0.633524	0.37837082730883126
ptx2vec	amd	ptx2vec-imm	CPU	GPU	GPU	True	2.176871	0.615114	3.538971637777712
ptx2vec	amd	ptx2vec-imm	CPU	GPU	GPU	True	42.329127	1.3479450000000002	31.402710793096155
ptx2vec	amd	ptx2vec-imm	CPU	CPU	GPU	False	0.097405	0.387036	0.2516690953813082
ptx2vec	amd	ptx2vec-imm	CPU	CPU	CPU	True	0.16905599999999998	0.16905599999999998	1.0
ptx2vec	amd	ptx2vec-imm	CPU	CPU	CPU	True	0.087525	0.087525	1.0
ptx2vec	amd	ptx2vec-imm	CPU	GPU	GPU	True	248.140999	122.206946	2.030498323720486
ptx2vec	amd	ptx2vec-imm	CPU	GPU	CPU	False	24.525621	24.525621	1.0
ptx2vec	amd	ptx2vec-imm	CPU	CPU	CPU	True	630.874991	630.874991	1.0
ptx2vec	amd	ptx2vec-imm	CPU	CPU	CPU	True	118.431698	118.431698	1.0
ptx2vec	amd	ptx2vec-imm	CPU	CPU	CPU	True	0.106772	0.106772	1.0
ptx2vec	amd	ptx2vec-imm	CPU	GPU	GPU	True	149.26172	6.245953	23.89734921156147
ptx2vec	amd	ptx2vec-imm	CPU	CPU	CPU	True	0.21309	0.21309	1.0
ptx2vec	amd	ptx2vec-imm	CPU	CPU	CPU	True	0.7239869999999999	0.7239869999999999	1.0
ptx2vec	amd	ptx2vec-imm	CPU	CPU	CPU	True	8.704397	8.704397	1.0
ptx2vec	amd	ptx2vec-imm	CPU	CPU	CPU	True	0.171724	0.171724	1.0
ptx2vec	amd	ptx2vec-imm	CPU	CPU	CPU	True	0.26208400000000004	0.26208400000000004	1.0
ptx2vec	amd	ptx2vec-imm	CPU	CPU	CPU	True	0.169546	0.169546	1.0
ptx2vec	amd	ptx2vec-imm	CPU	GPU	GPU	True	40.371444	24.01686	1.6809626237568107
ptx2vec	amd	ptx2vec-imm	CPU	CPU	GPU	False	0.722348	1.993902	0.36227858741302227
ptx2vec	amd	ptx2vec-imm	CPU	CPU	CPU	True	29.928851	29.928851	1.0
ptx2vec	amd	ptx2vec-imm	CPU	GPU	GPU	True	2160.848671	615.5128980000002	3.5106472634794397
ptx2vec	amd	ptx2vec-imm	CPU	CPU	CPU	True	29.95948	29.95948	1.0
ptx2vec	amd	ptx2vec-imm	CPU	GPU	GPU	True	3183.317975	613.4733769999998	5.1890075337368735
ptx2vec	amd	ptx2vec-imm	CPU	GPU	GPU	True	49.901062	43.513457	1.146796081956899
ptx2vec	amd	ptx2vec-imm	CPU	GPU	GPU	True	36.173668	4.474481	8.084438843298251
ptx2vec	amd	ptx2vec-imm	CPU	CPU	CPU	True	0.5423939999999999	0.5423939999999999	1.0
ptx2vec	amd	ptx2vec-imm	CPU	GPU	GPU	True	19.478835	2.578981	7.552919156829771
ptx2vec	amd	ptx2vec-imm	CPU	GPU	GPU	True	17.1744	5.203514	3.3005388281841843
ptx2vec	amd	ptx2vec-imm	CPU	CPU	CPU	True	0.428305	0.428305	1.0
ptx2vec	amd	ptx2vec-imm	CPU	CPU	CPU	True	11.397604	11.397604	1.0
ptx2vec	amd	ptx2vec-imm	CPU	GPU	GPU	True	45.751465	8.541763000000001	5.356208665588122
ptx2vec	amd	ptx2vec-imm	CPU	CPU	CPU	True	0.412087	0.412087	1.0
ptx2vec	amd	ptx2vec-imm	CPU	CPU	CPU	True	0.087952	0.087952	1.0
ptx2vec	amd	ptx2vec-imm	CPU	CPU	CPU	True	0.542405	0.542405	1.0
ptx2vec	amd	ptx2vec-imm	CPU	GPU	GPU	True	149.31134699999996	119.112364	1.2535335710405342
ptx2vec	amd	ptx2vec-imm	CPU	CPU	CPU	True	45.644763	45.644763	1.0
ptx2vec	amd	ptx2vec-imm	CPU	GPU	GPU	True	182.443401	10.125721	18.017818286717556
ptx2vec	amd	ptx2vec-imm	CPU	GPU	GPU	True	213.106556	125.355225	1.7000213273918179
ptx2vec	amd	ptx2vec-imm	CPU	CPU	CPU	True	0.891747	0.891747	1.0
ptx2vec	amd	ptx2vec-imm	CPU	GPU	GPU	True	97.169171	23.777889	4.086534805507756
ptx2vec	amd	ptx2vec-imm	CPU	GPU	GPU	True	28608.942738	208.725135	137.06515383497057
ptx2vec	amd	ptx2vec-imm	CPU	GPU	GPU	True	5510.626772	3224.644395	1.7089099128401724
ptx2vec	amd	ptx2vec-imm	CPU	CPU	GPU	False	5.827221	8.279204	0.7038383158574182
ptx2vec	amd	ptx2vec-imm	CPU	CPU	CPU	True	0.4438470000000001	0.4438470000000001	1.0
ptx2vec	amd	ptx2vec-imm	CPU	CPU	CPU	True	3.016713	3.016713	1.0
ptx2vec	amd	ptx2vec-imm	CPU	CPU	CPU	True	6.344937	6.344937	1.0
ptx2vec	amd	ptx2vec-imm	CPU	CPU	CPU	True	6.321418	6.321418	1.0
ptx2vec	amd	ptx2vec-imm	CPU	CPU	CPU	True	6.107217	6.107217	1.0
ptx2vec	amd	ptx2vec-imm	CPU	GPU	CPU	False	3.535082	3.535082	1.0
ptx2vec	amd	ptx2vec-imm	CPU	GPU	GPU	True	2.059176	1.075332	1.9149211592326836
ptx2vec	amd	ptx2vec-imm	CPU	GPU	GPU	True	7.506122	1.447829	5.18439815751722
ptx2vec	amd	ptx2vec-imm	CPU	CPU	CPU	True	0.221967	0.221967	1.0
ptx2vec	amd	ptx2vec-imm	CPU	CPU	CPU	True	5.089944999999998	5.089944999999998	1.0
ptx2vec	amd	ptx2vec-imm	CPU	GPU	GPU	True	1.367634	1.353485	1.0104537545669143
ptx2vec	amd	ptx2vec-imm	CPU	CPU	CPU	True	0.117982	0.117982	1.0
ptx2vec	amd	ptx2vec-imm	CPU	CPU	CPU	True	0.111703	0.111703	1.0
ptx2vec	amd	ptx2vec-imm	CPU	GPU	GPU	True	67.974468	34.356187	1.9785218889395382
ptx2vec	amd	ptx2vec-imm	CPU	CPU	CPU	True	0.918673	0.918673	1.0
ptx2vec	amd	ptx2vec-imm	CPU	GPU	GPU	True	54.572267	12.473763	4.37496423493055
ptx2vec	amd	ptx2vec-imm	CPU	GPU	GPU	True	2.267141	1.437363	1.5772918879921078
ptx2vec	amd	ptx2vec-imm	CPU	CPU	CPU	True	0.09043	0.09043	1.0
ptx2vec	amd	ptx2vec-imm	CPU	GPU	GPU	True	1.63703	0.388556	4.213112138276078
ptx2vec	amd	ptx2vec-imm	CPU	GPU	GPU	True	9.576969	1.231975	7.773671543659571
ptx2vec	amd	ptx2vec-imm	CPU	CPU	CPU	True	0.14024	0.14024	1.0
ptx2vec	amd	ptx2vec-imm	CPU	CPU	CPU	True	0.073584	0.073584	1.0
ptx2vec	amd	ptx2vec-imm	CPU	CPU	CPU	True	0.097441	0.097441	1.0
ptx2vec	amd	ptx2vec-imm	CPU	GPU	GPU	True	53389.300628	1651.065481	32.33627087622456
ptx2vec	amd	ptx2vec-imm	CPU	GPU	GPU	True	1093.525995	52.842243	20.69416309599121
ptx2vec	amd	ptx2vec-imm	CPU	GPU	GPU	True	35.697838	21.323383	1.6741170010405946
ptx2vec	amd	ptx2vec-imm	CPU	GPU	GPU	True	135.596351	21.915347	6.18727830319091
ptx2vec	amd	ptx2vec-imm	CPU	CPU	CPU	True	0.197901	0.197901	1.0
ptx2vec	amd	ptx2vec-imm	CPU	CPU	CPU	True	15.576715	15.576715	1.0
ptx2vec	amd	ptx2vec-imm	CPU	CPU	CPU	True	1.851308	1.851308	1.0
ptx2vec	amd	ptx2vec-imm	CPU	CPU	CPU	True	0.12648199999999998	0.12648199999999998	1.0
ptx2vec	amd	ptx2vec-imm	CPU	CPU	CPU	True	0.129117	0.129117	1.0
ptx2vec	amd	ptx2vec-imm	CPU	GPU	CPU	False	10.065982	10.065982	1.0
ptx2vec	amd	ptx2vec-imm	CPU	CPU	CPU	True	0.413715	0.413715	1.0
ptx2vec	amd	ptx2vec-imm	CPU	GPU	CPU	False	13.193081	13.193081	1.0
ptx2vec	amd	ptx2vec-imm	CPU	GPU	CPU	False	3.470807	3.470807	1.0
ptx2vec	amd	ptx2vec-imm	CPU	GPU	CPU	False	14.783681	14.783681	1.0
ptx2vec	amd	ptx2vec-imm	CPU	CPU	CPU	True	0.465628	0.465628	1.0
ptx2vec	amd	ptx2vec-imm	CPU	CPU	CPU	True	0.98411	0.98411	1.0
ptx2vec	amd	ptx2vec-imm	CPU	CPU	CPU	True	29.50718	29.50718	1.0
ptx2vec	amd	ptx2vec-imm	CPU	CPU	GPU	False	1.63641	5.572721	0.29364649692672573
ptx2vec	amd	ptx2vec-imm	CPU	CPU	GPU	False	40.711093	42.831609	0.9504917968409732
ptx2vec	amd	ptx2vec-imm	CPU	CPU	CPU	True	31.207518	31.207518	1.0
ptx2vec	amd	ptx2vec-imm	CPU	GPU	GPU	True	205.654101	163.228492	1.259915462552947
ptx2vec	amd	ptx2vec-imm	CPU	CPU	CPU	True	0.09338	0.09338	1.0
ptx2vec	amd	ptx2vec-imm	CPU	CPU	CPU	True	0.083071	0.083071	1.0
ptx2vec	amd	ptx2vec-imm	CPU	CPU	CPU	True	1.857705	1.857705	1.0
ptx2vec	amd	ptx2vec-imm	CPU	GPU	GPU	True	98.608798	3.604336	27.35838112761962
ptx2vec	amd	ptx2vec-imm	CPU	CPU	GPU	False	99.498498	179.034427	0.5557506434223403
ptx2vec	amd	ptx2vec-imm	CPU	CPU	CPU	True	0.114504	0.114504	1.0
ptx2vec	amd	ptx2vec-imm	CPU	CPU	CPU	True	0.099852	0.099852	1.0
ptx2vec	amd	ptx2vec-imm	CPU	CPU	CPU	True	0.41354	0.41354	1.0
ptx2vec	amd	ptx2vec-imm	CPU	CPU	CPU	True	0.232088	0.232088	1.0
ptx2vec	amd	ptx2vec-imm	CPU	CPU	CPU	True	0.093503	0.093503	1.0
ptx2vec	amd	ptx2vec-imm	CPU	CPU	CPU	True	0.110376	0.110376	1.0
ptx2vec	amd	ptx2vec-imm	CPU	CPU	CPU	True	5.191868	5.191868	1.0
ptx2vec	amd	ptx2vec-imm	CPU	GPU	GPU	True	226.576003	118.053509	1.9192652968917678
ptx2vec	amd	ptx2vec-imm	CPU	GPU	GPU	True	1445.190685	24.950794	57.921631071139466
ptx2vec	amd	ptx2vec-imm	CPU	GPU	GPU	True	26.949136	19.366912	1.391504025009253
ptx2vec	amd	ptx2vec-imm	CPU	GPU	CPU	False	25.37265	25.37265	1.0
ptx2vec	amd	ptx2vec-imm	CPU	GPU	GPU	True	24.19916	23.548943	1.0276113029786516
ptx2vec	amd	ptx2vec-imm	CPU	CPU	GPU	False	51.696795	71.072841	0.7273776350096939
ptx2vec	amd	ptx2vec-imm	CPU	GPU	GPU	True	23.411221	14.810448999999998	1.580723244784814
ptx2vec	amd	ptx2vec-imm	CPU	GPU	CPU	False	14.083006	14.083006	1.0
ptx2vec	amd	ptx2vec-imm	CPU	GPU	GPU	True	9.11258	8.153838	1.1175816836194195
ptx2vec	amd	ptx2vec-imm	CPU	CPU	CPU	True	0.417144	0.417144	1.0
ptx2vec	amd	ptx2vec-imm	CPU	CPU	GPU	False	2.306351	12.531554	0.184043495323884
ptx2vec	amd	ptx2vec-imm	CPU	CPU	CPU	True	7.6315149999999985	7.6315149999999985	1.0
ptx2vec	amd	ptx2vec-imm	CPU	GPU	GPU	True	15.326464	4.295103	3.5683577320497317
ptx2vec	amd	ptx2vec-imm	CPU	CPU	CPU	True	5.994753	5.994753	1.0
ptx2vec	amd	ptx2vec-imm	CPU	CPU	CPU	True	7.038685000000001	7.038685000000001	1.0
ptx2vec	amd	ptx2vec-imm	CPU	CPU	GPU	False	2.03694	6.951909	0.293004410730923
ptx2vec	amd	ptx2vec-imm	CPU	CPU	GPU	False	876.4571800000001	968.494606	0.9049685713995604
ptx2vec	amd	ptx2vec-imm	CPU	GPU	GPU	True	3.256935	3.02248	1.0775704057595088
ptx2vec	amd	ptx2vec-imm	CPU	CPU	CPU	True	0.08259	0.08259	1.0
ptx2vec	amd	ptx2vec-imm	CPU	GPU	GPU	True	16.821722	2.630791	6.3941689020526535
ptx2vec	amd	ptx2vec-imm	CPU	CPU	CPU	True	0.265873	0.265873	1.0
ptx2vec	amd	ptx2vec-imm	CPU	CPU	CPU	True	0.373186	0.373186	1.0
ptx2vec	amd	ptx2vec-imm	CPU	GPU	GPU	True	11.849821	2.237765	5.295382222887569
ptx2vec	amd	ptx2vec-imm	CPU	CPU	CPU	True	0.138836	0.138836	1.0
ptx2vec	amd	ptx2vec-imm	CPU	CPU	GPU	False	0.6437	0.75011	0.8581408060151178
ptx2vec	amd	ptx2vec-imm	CPU	CPU	CPU	True	0.136699	0.136699	1.0
ptx2vec	amd	ptx2vec-imm	CPU	CPU	CPU	True	0.817419	0.817419	1.0
ptx2vec	amd	ptx2vec-imm	CPU	GPU	GPU	True	94.885625	74.064705	1.2811179765044631
ptx2vec	amd	ptx2vec-imm	CPU	CPU	CPU	True	0.093306	0.093306	1.0
ptx2vec	amd	ptx2vec-imm	CPU	CPU	CPU	True	0.228503	0.228503	1.0
ptx2vec	amd	ptx2vec-imm	CPU	CPU	CPU	True	0.070637	0.070637	1.0
ptx2vec	amd	ptx2vec-imm	CPU	CPU	CPU	True	0.142349	0.142349	1.0
ptx2vec	amd	ptx2vec-imm	CPU	GPU	GPU	True	15.990429	0.997165	16.035890750277037
ptx2vec	amd	ptx2vec-imm	CPU	GPU	GPU	True	0.6729149999999999	0.590796	1.1389972173135905
ptx2vec	amd	ptx2vec-imm	CPU	CPU	CPU	True	0.105781	0.105781	1.0
ptx2vec	amd	ptx2vec-imm	CPU	CPU	CPU	True	0.091491	0.091491	1.0
ptx2vec	amd	ptx2vec-imm	CPU	GPU	GPU	True	407.61281	364.379205	1.1186500338294552
ptx2vec	amd	ptx2vec-imm	CPU	CPU	CPU	True	0.132376	0.132376	1.0
ptx2vec	amd	ptx2vec-imm	CPU	CPU	GPU	False	0.183709	0.6414449999999999	0.28639867798486235
ptx2vec	amd	ptx2vec-imm	CPU	GPU	GPU	True	4383.638636	253.710796	17.278092635837222
ptx2vec	amd	ptx2vec-imm	CPU	GPU	GPU	True	75.84661700000002	2.148969	35.294421185228835
ptx2vec	amd	ptx2vec-imm	CPU	CPU	CPU	True	0.183676	0.183676	1.0
ptx2vec	amd	ptx2vec-imm	CPU	CPU	GPU	False	0.27686700000000003	3.657944	0.07568923963844171
ptx2vec	amd	ptx2vec-imm	CPU	CPU	CPU	True	11.7493	11.7493	1.0
ptx2vec	amd	ptx2vec-imm	CPU	GPU	GPU	True	33.643773	6.0471	5.563621074564668
ptx2vec	amd	ptx2vec-imm	CPU	CPU	CPU	True	0.326825	0.326825	1.0
ptx2vec	amd	ptx2vec-imm	CPU	CPU	CPU	True	16.298098	16.298098	1.0
ptx2vec	amd	ptx2vec-imm	CPU	CPU	CPU	True	0.587849	0.587849	1.0
ptx2vec	amd	ptx2vec-imm	CPU	CPU	CPU	True	3.567586	3.567586	1.0
ptx2vec	amd	ptx2vec-imm	CPU	GPU	GPU	True	55.390147	5.905452	9.379493220840674
ptx2vec	amd	ptx2vec-imm	CPU	GPU	CPU	False	1.479073	1.479073	1.0
ptx2vec	amd	ptx2vec-imm	CPU	CPU	CPU	True	29.511387	29.511387	1.0
ptx2vec	amd	ptx2vec-imm	CPU	GPU	GPU	True	203.161518	157.649402	1.2886919672552897
ptx2vec	amd	ptx2vec-imm	CPU	GPU	GPU	True	253.81844300000003	164.138016	1.5463720665418548
ptx2vec	amd	ptx2vec-imm	CPU	GPU	GPU	True	1994.040473	772.3013530000003	2.5819461085419064
ptx2vec	amd	ptx2vec-imm	CPU	CPU	GPU	False	1.316781	5.62757	0.2339874937139831
ptx2vec	amd	ptx2vec-imm	CPU	CPU	CPU	True	0.17735499999999998	0.17735499999999998	1.0
ptx2vec	amd	ptx2vec-imm	CPU	CPU	CPU	True	0.08705	0.08705	1.0
ptx2vec	amd	ptx2vec-imm	CPU	CPU	CPU	True	0.291652	0.291652	1.0
ptx2vec	amd	ptx2vec-imm	CPU	CPU	CPU	True	2.820793	2.820793	1.0
ptx2vec	amd	ptx2vec-imm	CPU	GPU	GPU	True	11.548587	8.54219	1.3519468660846925
ptx2vec	amd	ptx2vec-imm	CPU	GPU	GPU	True	79.96636099999998	6.8871970000000005	11.610871737805667
ptx2vec	amd	ptx2vec-imm	CPU	GPU	CPU	False	6.005416	6.005416	1.0
ptx2vec	amd	ptx2vec-imm	CPU	CPU	GPU	False	0.182473	0.666755	0.27367323829592577
ptx2vec	amd	ptx2vec-imm	CPU	CPU	CPU	True	0.606768	0.606768	1.0
ptx2vec	amd	ptx2vec-imm	CPU	CPU	CPU	True	0.08441799999999999	0.08441799999999999	1.0
ptx2vec	amd	ptx2vec-imm	CPU	CPU	CPU	True	0.339303	0.339303	1.0
ptx2vec	amd	ptx2vec-imm	CPU	CPU	GPU	False	90.055493	120.025514	0.7503029147619397
ptx2vec	amd	ptx2vec-imm	CPU	CPU	CPU	True	0.585437	0.585437	1.0
ptx2vec	amd	ptx2vec-imm	CPU	GPU	CPU	False	5.767824	5.767824	1.0
ptx2vec	amd	ptx2vec-imm	CPU	GPU	GPU	True	389.4035	70.835238	5.497313356948133
ptx2vec	amd	ptx2vec-imm	CPU	CPU	CPU	True	0.54973	0.54973	1.0
ptx2vec	amd	ptx2vec-imm	CPU	GPU	CPU	False	425.108332	425.108332	1.0
ptx2vec	amd	ptx2vec-imm	CPU	GPU	GPU	True	256.054548	130.5871	1.9607951168224123
ptx2vec	amd	ptx2vec-imm	CPU	GPU	GPU	True	70.192432	7.08162	9.91191732965056
ptx2vec	amd	ptx2vec-imm	CPU	GPU	GPU	True	111.096191	10.664514	10.417370261785956
ptx2vec	amd	ptx2vec-imm	CPU	GPU	CPU	False	30.556461	30.556461	1.0
ptx2vec	amd	ptx2vec-imm	CPU	GPU	GPU	True	304.98618	108.441772	2.812441869725257
ptx2vec	amd	ptx2vec-imm	CPU	CPU	CPU	True	13.359851	13.359851	1.0
ptx2vec	amd	ptx2vec-imm	CPU	GPU	CPU	False	89.781172	89.781172	1.0
ptx2vec	amd	ptx2vec-imm	CPU	CPU	CPU	True	8.440195	8.440195	1.0
ptx2vec	amd	ptx2vec-imm	CPU	CPU	CPU	True	6.9780789999999975	6.9780789999999975	1.0
ptx2vec	amd	ptx2vec-imm	CPU	CPU	CPU	True	6.276553	6.276553	1.0
ptx2vec	amd	ptx2vec-imm	CPU	CPU	CPU	True	6.726004	6.726004	1.0
ptx2vec	amd	ptx2vec-imm	CPU	GPU	CPU	False	4.011485	4.011485	1.0
ptx2vec	amd	ptx2vec-imm	CPU	CPU	GPU	False	0.156639	1.009519	0.15516201280015532
ptx2vec	amd	ptx2vec-imm	CPU	CPU	GPU	False	0.484234	0.847908	0.5710926185388038
ptx2vec	amd	ptx2vec-imm	CPU	CPU	CPU	True	0.079557	0.079557	1.0
ptx2vec	amd	ptx2vec-imm	CPU	CPU	CPU	True	0.145375	0.145375	1.0
ptx2vec	amd	ptx2vec-imm	CPU	CPU	CPU	True	0.088327	0.088327	1.0
ptx2vec	amd	ptx2vec-imm	CPU	CPU	CPU	True	0.077837	0.077837	1.0
ptx2vec	amd	ptx2vec-imm	CPU	CPU	CPU	True	0.096604	0.096604	1.0
ptx2vec	amd	ptx2vec-imm	CPU	CPU	CPU	True	0.102429	0.102429	1.0
ptx2vec	amd	ptx2vec-imm	CPU	GPU	GPU	True	2.591515	1.423932	1.819971037942823
ptx2vec	amd	ptx2vec-imm	CPU	GPU	GPU	True	9.739175	1.250867	7.785939672243332
ptx2vec	amd	ptx2vec-imm	CPU	CPU	CPU	True	0.176592	0.176592	1.0
ptx2vec	amd	ptx2vec-imm	CPU	CPU	CPU	True	0.183157	0.183157	1.0
ptx2vec	amd	ptx2vec-imm	CPU	CPU	CPU	True	0.095284	0.095284	1.0
ptx2vec	amd	ptx2vec-imm	CPU	GPU	GPU	True	16.309858	11.181676	1.4586237340448784
ptx2vec	amd	ptx2vec-imm	CPU	GPU	CPU	False	12.471523	12.471523	1.0
ptx2vec	amd	ptx2vec-imm	CPU	CPU	CPU	True	0.07029099999999999	0.07029099999999999	1.0
ptx2vec	amd	ptx2vec-imm	CPU	CPU	CPU	True	21.609073	21.609073	1.0
ptx2vec	amd	ptx2vec-imm	CPU	CPU	CPU	True	21.608036	21.608036	1.0
ptx2vec	amd	ptx2vec-imm	CPU	CPU	CPU	True	0.144831	0.144831	1.0
ptx2vec	amd	ptx2vec-imm	CPU	CPU	CPU	True	0.138927	0.138927	1.0
ptx2vec	amd	ptx2vec-imm	CPU	GPU	GPU	True	968.658729	825.276371	1.1737385959884703
ptx2vec	amd	ptx2vec-imm	CPU	CPU	CPU	True	0.15626199999999998	0.15626199999999998	1.0
ptx2vec	amd	ptx2vec-imm	CPU	CPU	GPU	False	73.104347	90.998107	0.803361184205733
ptx2vec	amd	ptx2vec-imm	CPU	CPU	CPU	True	0.138955	0.138955	1.0
ptx2vec	amd	ptx2vec-imm	CPU	GPU	CPU	False	4.637476	4.637476	1.0
ptx2vec	amd	ptx2vec-imm	CPU	CPU	CPU	True	0.140512	0.140512	1.0
ptx2vec	amd	ptx2vec-imm	CPU	CPU	CPU	True	13.7885	13.7885	1.0
ptx2vec	amd	ptx2vec-imm	CPU	CPU	CPU	True	0.213573	0.213573	1.0
ptx2vec	amd	ptx2vec-imm	CPU	CPU	CPU	True	7.058781	7.058781	1.0
ptx2vec	amd	ptx2vec-imm	CPU	CPU	CPU	True	28.400617	28.400617	1.0
ptx2vec	amd	ptx2vec-imm	CPU	CPU	CPU	True	0.136022	0.136022	1.0
ptx2vec	amd	ptx2vec-imm	CPU	CPU	CPU	True	0.252408	0.252408	1.0
ptx2vec	amd	ptx2vec-imm	CPU	CPU	CPU	True	0.149228	0.149228	1.0
ptx2vec	amd	ptx2vec-imm	CPU	CPU	CPU	True	0.128707	0.128707	1.0
ptx2vec	amd	ptx2vec-imm	CPU	CPU	CPU	True	0.12519	0.12519	1.0
ptx2vec	amd	ptx2vec-imm	CPU	CPU	CPU	True	0.982916	0.982916	1.0
ptx2vec	amd	ptx2vec-imm	CPU	GPU	GPU	True	203.979959	163.18193	1.250015605281786
ptx2vec	amd	ptx2vec-imm	CPU	GPU	CPU	False	228.916994	228.916994	1.0
ptx2vec	amd	ptx2vec-imm	CPU	GPU	CPU	False	226.223748	226.223748	1.0
ptx2vec	amd	ptx2vec-imm	CPU	GPU	GPU	True	206.935909	163.521747	1.2654947295786902
ptx2vec	amd	ptx2vec-imm	CPU	CPU	CPU	True	1.074993	1.074993	1.0
ptx2vec	amd	ptx2vec-imm	CPU	GPU	GPU	True	357.668953	164.033342	2.18046495083908
ptx2vec	amd	ptx2vec-imm	CPU	GPU	GPU	True	6.853039	1.987302	3.4484134771665302
ptx2vec	amd	ptx2vec-imm	CPU	GPU	GPU	True	10.174909	1.838235	5.535151381624221
ptx2vec	amd	ptx2vec-imm	CPU	GPU	CPU	False	4.370217	4.370217	1.0
ptx2vec	amd	ptx2vec-imm	CPU	CPU	CPU	True	0.091041	0.091041	1.0
ptx2vec	amd	ptx2vec-imm	CPU	GPU	GPU	True	23.314557	1.934488	12.052055634359066
ptx2vec	amd	ptx2vec-imm	CPU	CPU	CPU	True	22.067384	22.067384	1.0
ptx2vec	amd	ptx2vec-imm	CPU	GPU	CPU	False	1.827821	1.827821	1.0
ptx2vec	amd	ptx2vec-imm	CPU	CPU	CPU	True	0.147531	0.147531	1.0
ptx2vec	amd	ptx2vec-imm	CPU	CPU	CPU	True	0.082726	0.082726	1.0
ptx2vec	amd	ptx2vec-imm	CPU	GPU	GPU	True	8.39874	1.6408919999999998	5.118399017119957
ptx2vec	amd	ptx2vec-imm	CPU	GPU	GPU	True	36.392268	4.792116	7.594195966875593
ptx2vec	amd	ptx2vec-imm	CPU	CPU	CPU	True	0.08742799999999999	0.08742799999999999	1.0
ptx2vec	amd	ptx2vec-imm	CPU	GPU	GPU	True	23.865347	18.706041	1.2758096167970552
ptx2vec	amd	ptx2vec-imm	CPU	GPU	CPU	False	5.766558	5.766558	1.0
ptx2vec	amd	ptx2vec-imm	CPU	CPU	CPU	True	0.09414	0.09414	1.0
ptx2vec	amd	ptx2vec-imm	CPU	GPU	GPU	True	330.279325	71.51404699999998	4.618383923930359
ptx2vec	amd	ptx2vec-imm	CPU	GPU	GPU	True	52.599774	11.152674	4.716337445172342
ptx2vec	amd	ptx2vec-imm	CPU	GPU	GPU	True	100.052011	45.376467	2.204931710527397
ptx2vec	amd	ptx2vec-imm	CPU	GPU	GPU	True	27809.232172000004	180.466767	154.09613988374937
ptx2vec	amd	ptx2vec-imm	CPU	GPU	GPU	True	5417.521422	3057.583554	1.771831031375308
ptx2vec	amd	ptx2vec-imm	CPU	GPU	GPU	True	6.6083240000000005	1.448607	4.561847347141081
ptx2vec	amd	ptx2vec-imm	CPU	GPU	GPU	True	386.877191	35.004432	11.05223449990561
ptx2vec	amd	ptx2vec-imm	CPU	GPU	GPU	True	91.718113	61.300212	1.4962120033124844
ptx2vec	amd	ptx2vec-imm	CPU	CPU	CPU	True	4.234063	4.234063	1.0
ptx2vec	amd	ptx2vec-imm	CPU	CPU	CPU	True	6.309551	6.309551	1.0
ptx2vec	amd	ptx2vec-imm	CPU	CPU	GPU	False	2.038006	6.981000999999999	0.2919360704861667
ptx2vec	amd	ptx2vec-imm	CPU	GPU	CPU	False	6.076052	6.076052	1.0
ptx2vec	amd	ptx2vec-imm	CPU	CPU	GPU	False	0.130003	0.668892	0.19435574053808388
ptx2vec	amd	ptx2vec-imm	CPU	CPU	CPU	True	0.175005	0.175005	1.0
ptx2vec	amd	ptx2vec-imm	CPU	CPU	CPU	True	0.08118099999999999	0.08118099999999999	1.0
ptx2vec	amd	ptx2vec-imm	CPU	GPU	GPU	True	4.4081790000000005	1.2297	3.5847596974871925
ptx2vec	amd	ptx2vec-imm	CPU	CPU	CPU	True	0.6972970000000001	0.6972970000000001	1.0
ptx2vec	amd	ptx2vec-imm	CPU	CPU	CPU	True	8.299583	8.299583	1.0
ptx2vec	amd	ptx2vec-imm	CPU	CPU	CPU	True	0.206058	0.206058	1.0
ptx2vec	amd	ptx2vec-imm	CPU	CPU	CPU	True	5.079986	5.079986	1.0
ptx2vec	amd	ptx2vec-imm	CPU	CPU	CPU	True	0.18776	0.18776	1.0
ptx2vec	amd	ptx2vec-imm	CPU	GPU	CPU	False	1.116614	1.116614	1.0
ptx2vec	amd	ptx2vec-imm	CPU	CPU	CPU	True	0.094021	0.094021	1.0
ptx2vec	amd	ptx2vec-imm	CPU	GPU	GPU	True	70.63935699999998	29.545977	2.390828267415221
ptx2vec	amd	ptx2vec-imm	CPU	GPU	GPU	True	51.791246	13.271132	3.902549232424182
ptx2vec	amd	ptx2vec-imm	CPU	CPU	CPU	True	0.089826	0.089826	1.0
ptx2vec	amd	ptx2vec-imm	CPU	CPU	GPU	False	0.5795100000000001	0.636486	0.9104834984587251
ptx2vec	amd	ptx2vec-imm	CPU	GPU	GPU	True	65.613714	59.629695	1.1003530036502787
ptx2vec	amd	ptx2vec-imm	CPU	CPU	CPU	True	0.142796	0.142796	1.0
ptx2vec	amd	ptx2vec-imm	CPU	GPU	GPU	True	4461.109286	244.248625	18.264623950288357
ptx2vec	amd	ptx2vec-imm	CPU	GPU	GPU	True	37.462715	2.397295	15.627077602047308
ptx2vec	amd	ptx2vec-imm	CPU	GPU	GPU	True	2.504982	0.902956	2.77420162222744
ptx2vec	amd	ptx2vec-imm	CPU	GPU	GPU	True	187.001354	126.26851200000002	1.4809816876593902
ptx2vec	amd	ptx2vec-imm	CPU	CPU	CPU	True	0.140516	0.140516	1.0
ptx2vec	amd	ptx2vec-imm	CPU	GPU	CPU	False	46.576787	46.576787	1.0
ptx2vec	amd	ptx2vec-imm	CPU	CPU	CPU	True	0.700055	0.700055	1.0
ptx2vec	amd	ptx2vec-imm	CPU	CPU	CPU	True	6.880688	6.880688	1.0
ptx2vec	amd	ptx2vec-imm	CPU	CPU	GPU	False	67.24642	204.41157	0.32897560544151194
ptx2vec	amd	ptx2vec-imm	CPU	CPU	CPU	True	0.243562	0.243562	1.0
ptx2vec	amd	ptx2vec-imm	CPU	CPU	CPU	True	3.393711	3.393711	1.0
ptx2vec	amd	ptx2vec-imm	CPU	CPU	CPU	True	0.330779	0.330779	1.0
ptx2vec	amd	ptx2vec-imm	CPU	CPU	CPU	True	0.5293359999999999	0.5293359999999999	1.0
ptx2vec	amd	ptx2vec-imm	CPU	CPU	CPU	True	0.127348	0.127348	1.0
ptx2vec	amd	ptx2vec-imm	CPU	CPU	CPU	True	0.15778399999999998	0.15778399999999998	1.0
ptx2vec	amd	ptx2vec-imm	CPU	GPU	CPU	False	2.53819	2.53819	1.0
ptx2vec	amd	ptx2vec-imm	CPU	CPU	GPU	False	1.091951	2.361997	0.46229990977973295
ptx2vec	amd	ptx2vec-imm	CPU	GPU	CPU	False	11.004967	11.004967	1.0
ptx2vec	amd	ptx2vec-imm	CPU	GPU	CPU	False	1.366307	1.366307	1.0
ptx2vec	amd	ptx2vec-imm	CPU	CPU	CPU	True	0.184169	0.184169	1.0
ptx2vec	amd	ptx2vec-imm	CPU	CPU	CPU	True	0.197384	0.197384	1.0
ptx2vec	amd	ptx2vec-imm	CPU	GPU	GPU	True	205.88873	158.008533	1.3030228563668773
ptx2vec	amd	ptx2vec-imm	CPU	GPU	GPU	True	2086.473561	1285.895057	1.6225846344473505
ptx2vec	amd	ptx2vec-imm	CPU	CPU	CPU	True	30.714688	30.714688	1.0
ptx2vec	amd	ptx2vec-imm	CPU	GPU	CPU	False	1.5681459999999998	1.5681459999999998	1.0
ptx2vec	amd	ptx2vec-imm	CPU	GPU	CPU	False	1.872973	1.872973	1.0
ptx2vec	amd	ptx2vec-imm	CPU	GPU	CPU	False	7.192914	7.192914	1.0
ptx2vec	amd	ptx2vec-imm	CPU	GPU	GPU	True	16.679232	2.616711	6.3741207951508585
ptx2vec	amd	ptx2vec-imm	CPU	GPU	CPU	False	5.314076	5.314076	1.0
ptx2vec	amd	ptx2vec-imm	CPU	CPU	CPU	True	0.659712	0.659712	1.0
ptx2vec	amd	ptx2vec-imm	CPU	CPU	CPU	True	0.099104	0.099104	1.0
ptx2vec	amd	ptx2vec-imm	CPU	GPU	CPU	False	47.448023	47.448023	1.0
ptx2vec	amd	ptx2vec-imm	CPU	CPU	CPU	True	0.180384	0.180384	1.0
ptx2vec	amd	ptx2vec-imm	CPU	CPU	GPU	False	85.07130500000002	169.51171000000005	0.5018609333833043
ptx2vec	amd	ptx2vec-imm	CPU	CPU	CPU	True	0.7462340000000001	0.7462340000000001	1.0
ptx2vec	amd	ptx2vec-imm	CPU	CPU	CPU	True	0.277212	0.277212	1.0
ptx2vec	amd	ptx2vec-imm	CPU	CPU	CPU	True	0.084424	0.084424	1.0
ptx2vec	amd	ptx2vec-imm	CPU	CPU	CPU	True	0.402366	0.402366	1.0
ptx2vec	amd	ptx2vec-imm	CPU	CPU	CPU	True	8.938765	8.938765	1.0
ptx2vec	amd	ptx2vec-imm	CPU	GPU	GPU	True	22.445654	19.376744	1.1583810984962182
ptx2vec	amd	ptx2vec-imm	CPU	GPU	GPU	True	70.97072299999998	7.3367330000000015	9.673341390507186
ptx2vec	amd	ptx2vec-imm	CPU	GPU	GPU	True	70.31302	7.15322	9.829562071346889
ptx2vec	amd	ptx2vec-imm	CPU	GPU	GPU	True	47.802033	45.253548	1.0563156948489432
ptx2vec	amd	ptx2vec-imm	CPU	GPU	GPU	True	157.720721	51.241825	3.077968456431831
ptx2vec	amd	ptx2vec-imm	CPU	CPU	GPU	False	103.66546	628.5699940000002	0.164922699125851
ptx2vec	amd	ptx2vec-imm	CPU	CPU	CPU	True	863.5010960000003	863.5010960000003	1.0
ptx2vec	amd	ptx2vec-imm	CPU	CPU	GPU	False	7.021933	13.349781	0.5259961193370887
ptx2vec	amd	ptx2vec-imm	CPU	CPU	GPU	False	7.514782	13.184962	0.5699509790016839
ptx2vec	amd	ptx2vec-imm	CPU	CPU	CPU	True	6.207221	6.207221	1.0
ptx2vec	amd	ptx2vec-imm	CPU	GPU	CPU	False	17.328426	17.328426	1.0
ptx2vec	amd	ptx2vec-imm	CPU	GPU	CPU	False	5.403192	5.403192	1.0
ptx2vec	amd	ptx2vec-imm	CPU	CPU	CPU	True	9.048317	9.048317	1.0
ptx2vec	amd	ptx2vec-imm	CPU	CPU	CPU	True	0.230984	0.230984	1.0
ptx2vec	amd	ptx2vec-imm	CPU	GPU	GPU	True	2.818502	1.43296	1.9669090553818669
ptx2vec	amd	ptx2vec-imm	CPU	CPU	CPU	True	0.168493	0.168493	1.0
ptx2vec	amd	ptx2vec-imm	CPU	CPU	CPU	True	0.7606350000000001	0.7606350000000001	1.0
ptx2vec	amd	ptx2vec-imm	CPU	CPU	CPU	True	1.020877	1.020877	1.0
ptx2vec	amd	ptx2vec-imm	CPU	CPU	CPU	True	0.118716	0.118716	1.0
ptx2vec	amd	ptx2vec-imm	CPU	GPU	GPU	True	29.584754	0.702439	42.117185976291175
ptx2vec	amd	ptx2vec-imm	CPU	CPU	GPU	False	0.192523	0.625688	0.30769808594698955
ptx2vec	amd	ptx2vec-imm	CPU	GPU	CPU	False	23910.693736	23910.693736	1.0
ptx2vec	amd	ptx2vec-imm	CPU	CPU	CPU	True	4.071752	4.071752	1.0
ptx2vec	amd	ptx2vec-imm	CPU	CPU	CPU	True	0.13258599999999998	0.13258599999999998	1.0
ptx2vec	amd	ptx2vec-imm	CPU	CPU	CPU	True	0.069436	0.069436	1.0
ptx2vec	amd	ptx2vec-imm	CPU	GPU	GPU	True	417.99179	339.854464	1.2299140787510738
ptx2vec	amd	ptx2vec-imm	CPU	GPU	GPU	True	36.163467	1.218627	29.67558325886428
ptx2vec	amd	ptx2vec-imm	CPU	GPU	CPU	False	91.58652	91.58652	1.0
ptx2vec	amd	ptx2vec-imm	CPU	CPU	CPU	True	1.907496	1.907496	1.0
ptx2vec	amd	ptx2vec-imm	CPU	CPU	CPU	True	0.105317	0.105317	1.0
ptx2vec	amd	ptx2vec-imm	CPU	GPU	CPU	False	12.21168	12.21168	1.0
ptx2vec	amd	ptx2vec-imm	CPU	CPU	CPU	True	0.336465	0.336465	1.0
ptx2vec	amd	ptx2vec-imm	CPU	CPU	CPU	True	0.177189	0.177189	1.0
ptx2vec	amd	ptx2vec-imm	CPU	CPU	CPU	True	0.23933	0.23933	1.0
ptx2vec	amd	ptx2vec-imm	CPU	CPU	CPU	True	0.209173	0.209173	1.0
ptx2vec	amd	ptx2vec-imm	CPU	CPU	CPU	True	0.103182	0.103182	1.0
ptx2vec	amd	ptx2vec-imm	CPU	CPU	CPU	True	0.102889	0.102889	1.0
ptx2vec	amd	ptx2vec-imm	CPU	CPU	CPU	True	0.161965	0.161965	1.0
ptx2vec	amd	ptx2vec-imm	CPU	CPU	CPU	True	0.128742	0.128742	1.0
ptx2vec	amd	ptx2vec-imm	CPU	CPU	CPU	True	0.131074	0.131074	1.0
ptx2vec	amd	ptx2vec-imm	CPU	GPU	GPU	True	50.49465900000001	3.4833870000000005	14.495851020859872
ptx2vec	amd	ptx2vec-imm	CPU	GPU	GPU	True	214.557912	158.283409	1.3555300164150494
ptx2vec	amd	ptx2vec-imm	CPU	GPU	GPU	True	1942.742741	565.1431650000002	3.437611673141264
ptx2vec	amd	ptx2vec-imm	CPU	CPU	CPU	True	30.41236	30.41236	1.0
ptx2vec	amd	ptx2vec-imm	CPU	CPU	CPU	True	0.162801	0.162801	1.0
ptx2vec	amd	ptx2vec-imm	CPU	CPU	CPU	True	29.020662	29.020662	1.0
ptx2vec	amd	ptx2vec-imm	CPU	CPU	CPU	True	5.097334	5.097334	1.0
ptx2vec	amd	ptx2vec-imm	CPU	GPU	CPU	False	9.709254	9.709254	1.0
ptx2vec	amd	ptx2vec-imm	CPU	GPU	GPU	True	156.521895	5.960676	26.259084540075655
ptx2vec	amd	ptx2vec-imm	CPU	CPU	CPU	True	0.136852	0.136852	1.0
ptx2vec	amd	ptx2vec-imm	CPU	CPU	CPU	True	0.076343	0.076343	1.0
ptx2vec	amd	ptx2vec-imm	CPU	GPU	CPU	False	1.073971	1.073971	1.0
ptx2vec	amd	ptx2vec-imm	CPU	GPU	GPU	True	4.8179349999999985	1.435942	3.3552434569084255
ptx2vec	amd	ptx2vec-imm	CPU	GPU	GPU	True	17.544223000000002	3.47161	5.053627279561933
ptx2vec	amd	ptx2vec-imm	CPU	CPU	CPU	True	0.17606	0.17606	1.0
ptx2vec	amd	ptx2vec-imm	CPU	GPU	GPU	True	9.963849	1.826189	5.456088608572278
ptx2vec	amd	ptx2vec-imm	CPU	GPU	GPU	True	97.363932	90.05203	1.0811964150058584
ptx2vec	amd	ptx2vec-imm	CPU	GPU	CPU	False	25.753387	25.753387	1.0
ptx2vec	amd	ptx2vec-imm	CPU	GPU	GPU	True	800.273766	116.856769	6.848330420636566
ptx2vec	amd	ptx2vec-imm	CPU	GPU	GPU	True	391.300554	71.567084	5.467605107398256
ptx2vec	amd	ptx2vec-imm	CPU	CPU	CPU	True	61.124127	61.124127	1.0
ptx2vec	amd	ptx2vec-imm	CPU	CPU	CPU	True	18.536833	18.536833	1.0
ptx2vec	amd	ptx2vec-imm	CPU	CPU	CPU	True	2.760186	2.760186	1.0
ptx2vec	amd	ptx2vec-imm	CPU	GPU	GPU	True	4258.258081	232.575387	18.309151866530055
ptx2vec	amd	ptx2vec-imm	CPU	CPU	CPU	True	15.51368	15.51368	1.0
ptx2vec	amd	ptx2vec-imm	CPU	GPU	CPU	False	61.52784000000001	61.52784000000001	1.0
ptx2vec	amd	ptx2vec-imm	CPU	GPU	GPU	True	133.73726200000002	34.56178	3.8695131442882866
ptx2vec	amd	ptx2vec-imm	CPU	GPU	CPU	False	3339.966119	3339.966119	1.0
ptx2vec	amd	ptx2vec-imm	CPU	CPU	GPU	False	12.657346	21.283257	0.5947090710787358
ptx2vec	amd	ptx2vec-imm	CPU	CPU	CPU	True	5.73952	5.73952	1.0
ptx2vec	amd	ptx2vec-imm	CPU	CPU	CPU	True	3.743309	3.743309	1.0
ptx2vec	amd	ptx2vec-imm	CPU	CPU	CPU	True	3.808204	3.808204	1.0
ptx2vec	amd	ptx2vec-imm	CPU	CPU	GPU	False	14.746386	153.580554	0.09601727312430451
ptx2vec	amd	ptx2vec-imm	CPU	CPU	CPU	True	6.3012489999999985	6.3012489999999985	1.0
ptx2vec	amd	ptx2vec-imm	CPU	CPU	CPU	True	6.285722	6.285722	1.0
ptx2vec	amd	ptx2vec-imm	CPU	GPU	CPU	False	14.887798000000002	14.887798000000002	1.0
ptx2vec	amd	ptx2vec-imm	CPU	GPU	GPU	True	4.931584	3.43792	1.4344673523525853
ptx2vec	amd	ptx2vec-imm	CPU	CPU	CPU	True	2.035003	2.035003	1.0
ptx2vec	amd	ptx2vec-imm	CPU	GPU	GPU	True	17.86673	16.66638	1.0720222387825071
ptx2vec	amd	ptx2vec-imm	CPU	CPU	CPU	True	0.147294	0.147294	1.0
ptx2vec	amd	ptx2vec-imm	CPU	GPU	GPU	True	2.088552	1.090927	1.9144745707091309
ptx2vec	amd	ptx2vec-imm	CPU	CPU	CPU	True	0.232219	0.232219	1.0
ptx2vec	amd	ptx2vec-imm	CPU	CPU	CPU	True	0.086125	0.086125	1.0
ptx2vec	amd	ptx2vec-imm	CPU	GPU	GPU	True	5.1372550000000015	1.173156	4.379004156309989
ptx2vec	amd	ptx2vec-imm	CPU	GPU	GPU	True	27.735931	1.300307	21.330294307421248
ptx2vec	amd	ptx2vec-imm	CPU	CPU	CPU	True	0.187816	0.187816	1.0
ptx2vec	amd	ptx2vec-imm	CPU	CPU	CPU	True	0.155647	0.155647	1.0
ptx2vec	amd	ptx2vec-imm	CPU	CPU	CPU	True	0.278077	0.278077	1.0
ptx2vec	amd	ptx2vec-imm	CPU	CPU	CPU	True	0.14545	0.14545	1.0
ptx2vec	amd	ptx2vec-imm	CPU	CPU	CPU	True	0.226612	0.226612	1.0
ptx2vec	amd	ptx2vec-imm	CPU	CPU	CPU	True	0.550615	0.550615	1.0
ptx2vec	amd	ptx2vec-imm	CPU	GPU	GPU	True	94.842892	74.029488	1.2811501816681483
ptx2vec	amd	ptx2vec-imm	CPU	GPU	GPU	True	71.32589	29.731573	2.3989948328667308
ptx2vec	amd	ptx2vec-imm	CPU	CPU	CPU	True	0.092958	0.092958	1.0
ptx2vec	amd	ptx2vec-imm	CPU	CPU	CPU	True	0.097554	0.097554	1.0
ptx2vec	amd	ptx2vec-imm	CPU	GPU	GPU	True	11.518164	0.50983	22.592166016123024
ptx2vec	amd	ptx2vec-imm	CPU	GPU	GPU	True	1.592115	0.631262	2.522114431092003
ptx2vec	amd	ptx2vec-imm	CPU	CPU	CPU	True	0.078013	0.078013	1.0
ptx2vec	amd	ptx2vec-imm	CPU	GPU	GPU	True	16363.066288	7897.270571999998	2.0719900804735913
ptx2vec	amd	ptx2vec-imm	CPU	CPU	GPU	False	0.113058	0.803838	0.1406477424555694
ptx2vec	amd	ptx2vec-imm	CPU	CPU	CPU	True	0.133633	0.133633	1.0
ptx2vec	amd	ptx2vec-imm	CPU	CPU	CPU	True	0.100584	0.100584	1.0
ptx2vec	amd	ptx2vec-imm	CPU	GPU	GPU	True	13348.841044	435.911831	30.622800517657893
ptx2vec	amd	ptx2vec-imm	CPU	GPU	CPU	False	2.13363	2.13363	1.0
ptx2vec	amd	ptx2vec-imm	CPU	GPU	GPU	True	848.783466	14.975637	56.67762019071375
ptx2vec	amd	ptx2vec-imm	CPU	CPU	GPU	False	0.701125	1.908393	0.36739025976305717
ptx2vec	amd	ptx2vec-imm	CPU	CPU	CPU	True	0.20177	0.20177	1.0
ptx2vec	amd	ptx2vec-imm	CPU	CPU	CPU	True	58.778884	58.778884	1.0
ptx2vec	amd	ptx2vec-imm	CPU	CPU	CPU	True	0.275885	0.275885	1.0
ptx2vec	amd	ptx2vec-imm	CPU	GPU	GPU	True	52.74475699999999	6.104272	8.640630201275433
ptx2vec	amd	ptx2vec-imm	CPU	CPU	CPU	True	0.729912	0.729912	1.0
ptx2vec	amd	ptx2vec-imm	CPU	GPU	GPU	True	204.017944	163.210905	1.2500264243985413
ptx2vec	amd	ptx2vec-imm	CPU	GPU	GPU	True	1929.266915	559.8409320000002	3.446098355309253
ptx2vec	amd	ptx2vec-imm	CPU	GPU	GPU	True	203.98006	163.180433	1.2500276917392419
ptx2vec	amd	ptx2vec-imm	CPU	GPU	GPU	True	1929.262778	559.899305	3.4457316892007928
ptx2vec	amd	ptx2vec-imm	CPU	CPU	CPU	True	0.997446	0.997446	1.0
ptx2vec	amd	ptx2vec-imm	CPU	CPU	CPU	True	1.007659	1.007659	1.0
ptx2vec	amd	ptx2vec-imm	CPU	GPU	CPU	False	211.740111	211.740111	1.0
ptx2vec	amd	ptx2vec-imm	CPU	GPU	GPU	True	26.4431	7.318488	3.6131916865888147
ptx2vec	amd	ptx2vec-imm	CPU	GPU	GPU	True	80.4929	6.735248	11.950992747408856
ptx2vec	amd	ptx2vec-imm	CPU	CPU	CPU	True	0.773709	0.773709	1.0
ptx2vec	amd	ptx2vec-imm	CPU	GPU	GPU	True	4.7677010000000015	1.932588	2.4670033136912792
ptx2vec	amd	ptx2vec-imm	CPU	CPU	CPU	True	0.115866	0.115866	1.0
ptx2vec	amd	ptx2vec-imm	CPU	CPU	CPU	True	0.217316	0.217316	1.0
ptx2vec	amd	ptx2vec-imm	CPU	CPU	CPU	True	2.736427	2.736427	1.0
ptx2vec	amd	ptx2vec-imm	CPU	GPU	GPU	True	30.28158	4.16047	7.278403641896229
ptx2vec	amd	ptx2vec-imm	CPU	CPU	CPU	True	0.250235	0.250235	1.0
ptx2vec	amd	ptx2vec-imm	CPU	CPU	CPU	True	0.095995	0.095995	1.0
ptx2vec	amd	ptx2vec-imm	CPU	CPU	CPU	True	2.375364	2.375364	1.0
ptx2vec	amd	ptx2vec-imm	CPU	CPU	CPU	True	0.289822	0.289822	1.0
ptx2vec	amd	ptx2vec-imm	CPU	GPU	GPU	True	4.81292	4.350399	1.1063169148393055
ptx2vec	amd	ptx2vec-imm	CPU	CPU	GPU	False	24.214302	26.468409	0.9148378355495413
ptx2vec	amd	ptx2vec-imm	CPU	GPU	GPU	True	23.390468	15.946787	1.4667824935518357
ptx2vec	amd	ptx2vec-imm	CPU	GPU	GPU	True	71.81841700000003	17.139554	4.190215042935191
ptx2vec	amd	ptx2vec-imm	CPU	CPU	CPU	True	8.460302	8.460302	1.0
ptx2vec	amd	ptx2vec-imm	CPU	CPU	CPU	True	0.367199	0.367199	1.0
ptx2vec	amd	ptx2vec-imm	CPU	GPU	GPU	True	6.069057	5.477108	1.1080769267284851
ptx2vec	amd	ptx2vec-imm	CPU	GPU	GPU	True	17.661253	11.239787	1.5713156308033238
ptx2vec	amd	ptx2vec-imm	CPU	CPU	CPU	True	777.8945669999997	777.8945669999997	1.0
ptx2vec	amd	ptx2vec-imm	CPU	CPU	CPU	True	4.232859	4.232859	1.0
ptx2vec	amd	ptx2vec-imm	CPU	CPU	CPU	True	8.745994	8.745994	1.0
ptx2vec	amd	ptx2vec-imm	CPU	CPU	CPU	True	6.23194	6.23194	1.0
ptx2vec	amd	ptx2vec-imm	CPU	CPU	CPU	True	6.472397	6.472397	1.0
ptx2vec	amd	ptx2vec-imm	CPU	CPU	CPU	True	8.655694	8.655694	1.0
ptx2vec	amd	ptx2vec-imm	CPU	CPU	CPU	True	6.4832519999999985	6.4832519999999985	1.0
ptx2vec	amd	ptx2vec-imm	CPU	GPU	GPU	True	4.170566	3.426097	1.217293614278872
ptx2vec	amd	ptx2vec-imm	CPU	GPU	GPU	True	4.338501	1.869492	2.3206844426186364
